<svg width="14" height="13" viewBox="0 0 14 13" fill="none" xmlns="http://www.w3.org/2000/svg">
<path d="M5.8 4.09767V1.75418C5.8 1.54701 5.88429 1.34832 6.03432 1.20182C6.18435 1.05532 6.38783 0.973022 6.6 0.973022H12.2C12.4122 0.973022 12.6157 1.05532 12.7657 1.20182C12.9157 1.34832 13 1.54701 13 1.75418V11.1281C13 11.3353 12.9157 11.534 12.7657 11.6805C12.6157 11.827 12.4122 11.9093 12.2 11.9093H6.6C6.38783 11.9093 6.18435 11.827 6.03432 11.6805C5.88429 11.534 5.8 11.3353 5.8 11.1281V8.78463" stroke="#25292C" stroke-miterlimit="10" stroke-linecap="round" stroke-linejoin="round"/>
<path d="M9.8 6.44116H1" stroke="#25292C" stroke-miterlimit="10" stroke-linecap="round" stroke-linejoin="round"/>
<path d="M3.4 4.09766L1 6.44114L3.4 8.78462" stroke="#25292C" stroke-miterlimit="10" stroke-linecap="round" stroke-linejoin="round"/>
</svg>
