{
    "config_theme_color": {
        "main": {
            "main": {
                "hex": "#D0203F",
                "visible": 1
            },
            "button": {
                "hex": "#D0203F",
                "visible": 1
            }
        }
    },
    "config_theme_text": {
        "all": {
            "title": "Font Tahoma",
            "font": "Tahoma",
            "supported-fonts": [
                "Open Sans",
                "IBM Plex Sans",
                "Courier New",
                "Roboto",
                "Nunito",
                "Arial",
                "DejaVu Sans",
                "Tahoma",
                "Time News Roman"
            ]
        }
    },
    "default_customize_layout": [
        {"name" : "txt_slide_show_banner", "file": "slideshow-banner"},
        {"name" : "txt_block_banner", "file": "banner-box"},
        {"name" : "txt_block_product", "file": "product-blocks"},
        {"name" : "txt_block_partner", "file": "partner-box"},
        {"name" : "txt_block_blog", "file": "news-box"}
    ],
    "version": "1"
}