{
    "name": "header",
    "text": "Header",
    "visible": 1,
    "notify-bar": {
        "name": "Thanh thông báo",
        "visible": 1,
        "content": "Mua sắm online thuận tiện và dễ dàng",
        "url": "#"
    },
    "logo": {
        "name": "Logo",
        "url": "/catalog/view/theme/default/image/logo.png",
        "alt": "alt",
        "height": null
    },
    "menu": {
        "name": "Menu",
        "display-list": {
            "name": "Menu chính",
            "id": 1
        }
    }
}