<svg width="16" height="16" viewBox="0 0 16 16" fill="none" xmlns="http://www.w3.org/2000/svg">
<g clip-path="url(#clip0)">
<path d="M15.4741 2.90645C15.3922 2.82462 15.304 2.75158 15.21 2.68769C15.2458 2.18878 15.0602 1.68711 14.6864 1.31335C14.3127 0.93959 13.811 0.754022 13.3121 0.789748C13.2482 0.695729 13.1751 0.607524 13.0933 0.525695C12.4863 -0.081238 11.5368 -0.172475 10.8693 0.306652C10.7135 0.405484 10.6689 0.573361 10.6498 0.645407C10.6386 0.687446 10.245 2.29608 10.1052 2.87823C9.69433 2.75626 9.26352 2.69294 8.82293 2.69294C7.62526 2.69294 6.49925 3.15935 5.65236 4.00626L4.00482 5.65381C3.15793 6.5007 2.69149 7.6267 2.69152 8.82438C2.69152 9.26497 2.75485 9.69577 2.87681 10.1066C2.29469 10.2464 0.686029 10.64 0.64399 10.6512C0.571913 10.6703 0.404004 10.7149 0.305172 10.8708C-0.173955 11.5383 -0.0826864 12.4877 0.524278 13.0947C0.606107 13.1766 0.694312 13.2496 0.788331 13.3135C0.752574 13.8124 0.938173 14.3141 1.31194 14.6878C1.6857 15.0616 2.18739 15.2472 2.68627 15.2114C2.75016 15.3055 2.82321 15.3937 2.90503 15.4755C3.25173 15.8221 3.71013 16.0006 4.16394 16.0006C4.50463 16.0006 4.84276 15.9 5.12901 15.6945C5.28482 15.5957 5.32942 15.4278 5.34855 15.3558C5.35971 15.3137 5.75332 13.7051 5.89313 13.123C6.30399 13.2449 6.7348 13.3082 7.17538 13.3082C8.37306 13.3082 9.49907 12.8418 10.346 11.9949L11.9935 10.3474C12.8404 9.50048 13.3068 8.37448 13.3068 7.1768C13.3068 6.73621 13.2435 6.30541 13.1215 5.89455C13.7036 5.75474 15.3123 5.36116 15.3543 5.34997C15.4264 5.33084 15.5943 5.28624 15.6931 5.13043C16.1723 4.46292 16.081 3.51342 15.4741 2.90645ZM7.24468 3.99936C7.70887 3.76825 8.22162 3.6416 8.7537 3.63147V12.0018C8.28951 12.2329 7.77675 12.3596 7.24468 12.3697V3.99936ZM4.66785 6.31682L6.30696 4.67771V12.264C5.69193 12.1099 5.12782 11.7919 4.66785 11.3319C3.99806 10.6621 3.62921 9.7716 3.62921 8.82438C3.62921 7.87713 3.9981 6.98661 4.66785 6.31682ZM4.473 14.9969C4.18573 15.1315 3.81856 15.0629 3.5681 14.8124C3.48265 14.727 3.41723 14.6276 3.37366 14.5171L3.21297 14.1096L2.79548 14.2423C2.51752 14.3307 2.19552 14.2452 1.97504 14.0248C1.75455 13.8043 1.66916 13.4822 1.75752 13.2043L1.89021 12.7868L1.48269 12.6261C1.37217 12.5825 1.2728 12.5171 1.18738 12.4317C0.936892 12.1812 0.868316 11.8141 1.00294 11.5268C1.35279 11.4384 2.22502 11.2274 3.24332 10.9829C3.44542 11.3499 3.70041 11.6905 4.00485 11.9949C4.30928 12.2994 4.64994 12.5543 5.01686 12.7565C4.77244 13.7748 4.56143 14.647 4.473 14.9969ZM11.3305 9.68436L9.69142 11.3235V3.73715C10.3065 3.89127 10.8706 4.2093 11.3305 4.66927C12.0003 5.33906 12.3692 6.22958 12.3692 7.1768C12.3692 8.12405 12.0003 9.01457 11.3305 9.68436ZM14.9954 4.47442C14.6456 4.56284 13.7734 4.77382 12.7551 5.01828C12.553 4.65133 12.298 4.31067 11.9935 4.00623C11.6891 3.7018 11.3484 3.44684 10.9815 3.24471C11.2259 2.22641 11.437 1.35417 11.5254 1.00432C11.8127 0.869701 12.1798 0.938278 12.4303 1.18873C12.5158 1.27419 12.5812 1.37355 12.6248 1.48407L12.7854 1.89159L13.2029 1.75891C13.4809 1.67058 13.8029 1.75594 14.0234 1.97642C14.2439 2.1969 14.3292 2.51894 14.2409 2.79687L14.1082 3.21436L14.5157 3.37504C14.6262 3.41865 14.7256 3.48404 14.811 3.56949C15.0615 3.81998 15.1301 4.18711 14.9954 4.47442Z" fill="#707070"/>
</g>
<defs>
<clipPath id="clip0">
<rect width="16" height="16" fill="white"/>
</clipPath>
</defs>
</svg>
