<svg width="16" height="16" viewBox="0 0 16 16" fill="none" xmlns="http://www.w3.org/2000/svg">
<path d="M15.0425 1.01703C15.0326 1.00615 15.0227 0.996055 15.013 0.986522C15.0129 0.986423 15.0128 0.986325 15.0127 0.986226C15.0124 0.985995 15.0122 0.985797 15.012 0.985566C15.0072 0.980585 15.0021 0.975638 14.9969 0.970624C14.3655 0.336531 13.363 0.00134277 12.0947 0.00134277C10.6881 0.00134277 8.98812 0.416881 7.30789 1.1714C5.51334 1.97724 3.82965 3.1186 2.43882 4.47202C0.885356 5.9837 0.0426359 7.76301 0.00166919 9.6176C-0.0358012 11.3151 0.608451 12.9332 1.81565 14.1737L1.82518 14.1833C3.02809 15.3539 4.59696 15.9986 6.24276 15.9988C6.24302 15.9988 6.24315 15.9988 6.24338 15.9988C8.14741 15.9988 9.97445 15.1555 11.5269 13.5601C13.4156 11.6193 14.8966 9.08289 15.5903 6.60124C16.2882 4.10438 16.0878 2.07405 15.0425 1.01703ZM2.52138 13.4775C2.41719 13.3314 2.37276 12.8229 2.89394 11.8136C3.29556 11.0358 4.14801 9.73839 5.92825 7.97421C7.66208 6.25605 9.57564 4.632 11.3164 3.40125C12.977 2.22723 13.8736 1.84583 14.2397 1.75918C14.153 2.12518 13.7716 3.02206 12.5977 4.68246C11.3669 6.42325 9.74287 8.33681 8.02471 10.0707C6.26054 11.8509 4.96309 12.7034 4.18535 13.105C3.17586 13.6262 2.66734 13.5817 2.52138 13.4775ZM0.990972 9.63943C1.02603 8.04975 1.76538 6.50812 3.12889 5.18119C5.66424 2.71398 9.35115 0.990843 12.0947 0.990843C12.5004 0.990843 12.8666 1.02953 13.1883 1.1051C12.3733 1.48568 11.4221 2.11004 10.6389 2.6687C8.88353 3.92089 6.9632 5.55546 5.23168 7.27131C3.74996 8.73965 2.63756 10.1533 2.01471 11.3595C1.84068 11.6965 1.71511 11.9979 1.6278 12.268C1.19208 11.4645 0.970522 10.5657 0.990972 9.63943ZM14.6373 6.33489C13.9867 8.66214 12.5946 11.0441 10.8177 12.87C9.45581 14.2696 7.87414 15.0093 6.24335 15.0092C6.24325 15.0092 6.24292 15.0092 6.24282 15.0092C5.35937 15.0091 4.50157 14.7874 3.73215 14.3708C4.00189 14.2835 4.30294 14.1579 4.63935 13.9842C5.84553 13.3613 7.25921 12.2489 8.72754 10.7672C10.4434 9.03569 12.078 7.11536 13.3302 5.35993C13.8877 4.5784 14.5106 3.63003 14.8914 2.81634C15.102 3.72136 15.0218 4.9591 14.6373 6.33489Z" fill="#707070"/>
</svg>
