<svg width="22" height="19" viewBox="0 0 22 19" fill="none" xmlns="http://www.w3.org/2000/svg">
<path d="M10.5047 4.0886C13.1391 4.0886 15.2813 6.27409 15.2813 8.96614C15.2813 9.59815 15.1594 10.1964 14.9391 10.7512L17.7281 13.5976C19.1719 12.3674 20.3063 10.7801 21.0047 8.96614C19.35 4.68684 15.2719 1.65224 10.4953 1.65224C9.15938 1.65224 7.87969 1.89829 6.69375 2.3325L8.75626 4.44079C9.3 4.21886 9.88594 4.0886 10.5047 4.0886ZM0.956251 1.43032L3.13594 3.6544L3.57656 4.10308C1.9875 5.35744 0.745313 7.03635 0 8.96614C1.65 13.2454 5.72813 16.28 10.5047 16.28C11.9859 16.28 13.3969 15.9857 14.6859 15.4599L15.0891 15.87L17.8875 18.7164L19.1016 17.4765L2.16563 0.19043L0.956251 1.43032ZM6.23438 6.81925L7.71563 8.32931C7.66875 8.53194 7.64063 8.74904 7.64063 8.96132C7.64063 10.5775 8.92032 11.8849 10.5047 11.8849C10.7156 11.8849 10.9266 11.856 11.1234 11.8078L12.6047 13.3178C11.9672 13.6411 11.2594 13.834 10.5047 13.834C7.87032 13.834 5.72813 11.6485 5.72813 8.95649C5.72813 8.19423 5.92032 7.47538 6.23438 6.81925ZM10.35 6.06181L13.3594 9.135L13.3781 8.98062C13.3781 7.36442 12.0984 6.05699 10.5141 6.05699L10.35 6.06181Z" fill="#C2C2C2"/>
</svg>
