<svg width="14" height="24" viewBox="0 0 14 24" fill="none" xmlns="http://www.w3.org/2000/svg">
<path d="M9.67886 12L0.742162 3.07032C0.081226 2.40939 0.081226 1.34064 0.742162 0.686729C1.40309 0.0257702 2.47184 0.0328197 3.13277 0.686729L13.2578 10.8047C13.8976 11.4445 13.9116 12.4711 13.307 13.132L3.13982 23.3203C2.80934 23.6508 2.37341 23.8125 1.9445 23.8125C1.51559 23.8125 1.07966 23.6508 0.749194 23.3203C0.088258 22.6594 0.088258 21.5906 0.749194 20.9367L9.67886 12Z" fill="#FF6F96"/>
</svg>
