<svg width="16" height="16" viewBox="0 0 16 16" fill="none" xmlns="http://www.w3.org/2000/svg">
<path d="M8 1.46438L14.6584 8.73219L8 16L1.34159 8.73219L8 1.46438Z" fill="white"/>
<path d="M8.03741 1.50521C9.87607 3.51216 9.87607 6.76607 8.03741 8.77302C6.19874 10.78 3.21767 10.78 1.379 8.77302C-0.459667 6.76607 -0.459667 3.51216 1.379 1.50521C3.21767 -0.501738 6.19874 -0.501738 8.03741 1.50521Z" fill="white"/>
<path d="M14.621 1.50521C16.4597 3.51216 16.4597 6.76607 14.621 8.77302C12.7823 10.78 9.80126 10.78 7.96259 8.77302C6.12393 6.76607 6.12393 3.51216 7.96259 1.50521C9.80126 -0.501738 12.7823 -0.501736 14.621 1.50521Z" fill="white"/>
</svg>
