<svg width="18" height="18" viewBox="0 0 18 18" fill="none" xmlns="http://www.w3.org/2000/svg">
<path d="M17.2729 8.27289H0.727102C0.325547 8.27289 0 8.5984 0 8.99999C0 9.40158 0.325547 9.72709 0.727102 9.72709H17.2729C17.6745 9.72709 18 9.40158 18 8.99999C18 8.59844 17.6745 8.27289 17.2729 8.27289Z" fill="white"/>
<path d="M17.2729 2.75761H0.727102C0.325547 2.75761 0 3.08316 0 3.48472C0 3.88627 0.325547 4.21182 0.727102 4.21182H17.2729C17.6745 4.21182 18 3.88627 18 3.48472C18 3.08316 17.6745 2.75761 17.2729 2.75761Z" fill="white"/>
<path d="M17.2729 13.7882H0.727102C0.325547 13.7882 0 14.1137 0 14.5153C0 14.9169 0.325547 15.2424 0.727102 15.2424H17.2729C17.6745 15.2424 18 14.9169 18 14.5153C18 14.1137 17.6745 13.7882 17.2729 13.7882Z" fill="white"/>
</svg>
