<svg width="13" height="18" viewBox="0 0 13 18" fill="none" xmlns="http://www.w3.org/2000/svg">
<path d="M6.5 0C2.92484 0 0 2.83488 0 6.30004C0 11.025 6.5 18 6.5 18C6.5 18 13 11.025 13 6.30004C13 2.83488 10.0752 0 6.5 0ZM6.5 8.55004C5.20016 8.55004 4.17852 7.55984 4.17852 6.30004C4.17852 5.04016 5.20012 4.05004 6.5 4.05004C7.79988 4.05004 8.82148 5.04016 8.82148 6.30004C8.82148 7.55984 7.79984 8.55004 6.5 8.55004Z" fill="white"/>
</svg>
