<svg width="20" height="16" viewBox="0 0 20 16" fill="none" xmlns="http://www.w3.org/2000/svg">
<path d="M19.8702 3.31296C19.8702 1.5549 18.577 0.140644 16.9792 0.140644C14.8148 0.0390678 12.6075 0 10.3532 0H9.65001C7.3997 0 5.18846 0.0390678 3.0241 0.140644C1.43013 0.140644 0.136982 1.56272 0.136982 3.32077C0.0393118 4.71159 -0.0036629 6.1024 0.000243892 7.49322C-0.0036629 8.88404 0.0393118 10.2749 0.133075 11.6696C0.133075 13.4276 1.42622 14.8536 3.02019 14.8536C5.29394 14.9591 7.6263 15.006 9.99772 15.0021C12.373 15.0099 14.6976 14.963 16.9752 14.8536C18.5731 14.8536 19.8663 13.4276 19.8663 11.6696C19.96 10.2749 20.003 8.88404 19.9991 7.48931C20.0069 6.0985 19.9639 4.70768 19.8702 3.31296ZM8.0873 11.3258V3.64894L13.7521 7.48541L8.0873 11.3258Z" fill="white"/>
</svg>
