{
    "config_theme_color": {
        "main": {
            "main": {
                "hex": "#CA6971",
                "visible": 1
            },
            "button": {
                "hex": "#CA6971",
                "visible": 1
            }
        }
    },
    "config_theme_text": {
        "all": {
            "title": "Font Tahoma",
            "font": "Tahoma",
            "supported-fonts": [
                "Open Sans",
                "IBM Plex Sans",
                "Courier New",
                "Roboto",
                "Nunito",
                "Arial",
                "DejaVu Sans",
                "Tahoma",
                "Time News Roman"
            ]
        }
    },
    "image_size_suggestion": {
        "favicon": [
            35,
            35
        ],
        "logo": [
            200,
            50
        ],
        "home": {
            "banner_1": [
                590,
                227
            ],
            "banner_2": [
                590,
                227
            ],
            "banner_3": [
                1962,
                694
            ],
            "slide_show": [
                1692,
                546
            ]
        },
        "category": {
        }
    },
    "app_config_theme":  [
        {
            "name" : "Trang chủ",
            "value" : "home_page",
            "position": [
                {
                    "name": "Đầu trang",
                    "value": "bestme_app_after_header"
                },
                {
                    "name": "Dưới slide",
                    "value": "bestme_app_after_slide"
                },
                {
                    "name": "Dưới danh sách sản phẩm",
                    "value": "bestme_app_after_product"
                },
                {
                    "name": "Trên cuối trang",
                    "value": "bestme_app_before_footer"
                }

            ]
        },
        {
            "name" : "Sản phẩm",
            "value" : "product",
            "position": [
                {
                    "name": "Đầu trang",
                    "value": "bestme_app_after_header"
                },
                {
                    "name": "Dưới danh sách sản phẩm",
                    "value": "bestme_app_after_product"
                },
                {
                    "name": "Trên cuối trang",
                    "value": "bestme_app_before_footer"
                }

            ]
        }
    ]
}