<svg width="16" height="16" viewBox="0 0 16 16" fill="none" xmlns="http://www.w3.org/2000/svg">
<path d="M0 15.9996H16.0004L14.3554 3.60059H1.64491L0 15.9996Z" fill="white"/>
<path d="M12.6922 3.24671H12.0517C11.2044 1.61161 9.5488 0.590048 7.74625 0.590048C5.94371 0.590048 4.28813 1.61161 3.44078 3.24671H2.80029C3.69308 1.26686 5.62311 0 7.74625 0C9.8694 0 11.7994 1.26686 12.6922 3.24671Z" fill="white"/>
</svg>
