<svg width="15" height="15" viewBox="0 0 15 15" fill="none" xmlns="http://www.w3.org/2000/svg">
<path d="M14.5579 1.62524L13.32 0.3873C12.8206 -0.112112 11.9479 -0.112112 11.4476 0.3873L4.79823 7.03671L3.27882 11.7017L7.91029 10.1444L14.5579 3.49671C14.8076 3.24701 14.9453 2.91436 14.9453 2.56054C14.9453 2.20671 14.8076 1.87495 14.5579 1.62524ZM4.92706 9.49142L5.49 7.76465L7.18412 9.45789L5.47059 10.0341L4.92706 9.49142ZM6.02823 7.05436L9.54529 3.5373L11.4071 5.39906L7.89 8.91612L6.02823 7.05436ZM10.1691 2.91348L10.8124 2.27024L12.6741 4.13201L12.0309 4.77524L10.1691 2.91348ZM13.9341 2.87289L13.2988 3.50906L11.4371 1.6473L12.0724 1.01112C12.24 0.844359 12.5303 0.844359 12.6962 1.01112L13.9341 2.24906C14.0171 2.33289 14.0629 2.44318 14.0629 2.56142C14.0629 2.67965 14.0171 2.78906 13.9341 2.87289ZM13.2353 6.61671H14.1176V14.9991H0V1.76377H6.61765V2.64612H0.882353V14.1167H13.2353V6.61671Z" fill="#E58718"/>
</svg>
