{
    "css": [
        "node_modules/swiper/dist/css/swiper.min.css",
        "font/montserrat.css",
        "font/nunito.css",
        "font/roboto.css",
        "font/open_sans.css",
        "node_modules/bootstrap/dist/css/bootstrap.min.css",
        "node_modules/font-awesome/css/font-awesome.min.css",
        "node_modules/owl.carousel/dist/assets/owl.carousel.min.css",
        "node_modules/owl.carousel/dist/assets/owl.theme.default.min.css",
        "stylesheet/style.css",
        "stylesheet/responsive.css",
        "stylesheet/bestme.css",
        "stylesheet/bootstrapValidator.min.css",
        "stylesheet/bootstrap-select.min.css",
        "stylesheet/jquery-ui.css",
        "stylesheet/custom.css"
    ],
    "js": [
        "node_modules/jquery/dist/jquery.min.js",
        "js/jquery-ui.min.js",
        "js/popper.min.js",
        "node_modules/bootstrap/dist/js/bootstrap.min.js",
        "js/bootstrapValidator.min.js",
        "node_modules/owl.carousel/dist/owl.carousel.min.js",
        "node_modules/swiper/dist/js/swiper.min.js",
        "js/opencart_custom.js",
        "js/index.js",
        "js/bootstrap-select.min.js",
        "js/lazysizes.min.js"
    ],
    "version": 1
}
