<svg width="16" height="16" viewBox="0 0 16 16" fill="none" xmlns="http://www.w3.org/2000/svg">
<path d="M8 15.5C6.51664 15.5 5.0666 15.0601 3.83323 14.236C2.59986 13.4119 1.63856 12.2406 1.07091 10.8701C0.50325 9.49968 0.354725 7.99168 0.644114 6.53683C0.933503 5.08197 1.64781 3.7456 2.6967 2.6967C3.7456 1.64781 5.08197 0.933503 6.53683 0.644114C7.99168 0.354725 9.49968 0.50325 10.8701 1.07091C12.2406 1.63856 13.4119 2.59986 14.236 3.83323C15.0601 5.0666 15.5 6.51664 15.5 8C15.5 9.98913 14.7098 11.8968 13.3033 13.3033C11.8968 14.7098 9.98913 15.5 8 15.5ZM8 1.5C6.71442 1.5 5.45772 1.88122 4.3888 2.59545C3.31988 3.30968 2.48676 4.32484 1.99479 5.51256C1.50282 6.70028 1.3741 8.00721 1.6249 9.26809C1.8757 10.529 2.49477 11.6872 3.40381 12.5962C4.31285 13.5052 5.47104 14.1243 6.73192 14.3751C7.99279 14.6259 9.29973 14.4972 10.4874 14.0052C11.6752 13.5133 12.6903 12.6801 13.4046 11.6112C14.1188 10.5423 14.5 9.28558 14.5 8C14.5 6.2761 13.8152 4.6228 12.5962 3.40381C11.3772 2.18482 9.72391 1.5 8 1.5Z" fill="#EB3D3D"/>
<path d="M8 12C7.80222 12 7.60888 11.9414 7.44443 11.8315C7.27998 11.7216 7.15181 11.5654 7.07612 11.3827C7.00043 11.2 6.98063 10.9989 7.01922 10.8049C7.0578 10.6109 7.15304 10.4327 7.29289 10.2929C7.43275 10.153 7.61093 10.0578 7.80491 10.0192C7.99889 9.98063 8.19996 10.0004 8.38268 10.0761C8.56541 10.1518 8.72159 10.28 8.83147 10.4444C8.94135 10.6089 9 10.8022 9 11C9 11.2652 8.89464 11.5196 8.70711 11.7071C8.51957 11.8946 8.26522 12 8 12Z" fill="#EB3D3D"/>
<path d="M8 9C7.86739 9 7.74021 8.94732 7.64645 8.85355C7.55268 8.75979 7.5 8.63261 7.5 8.5V4C7.5 3.86739 7.55268 3.74021 7.64645 3.64645C7.74021 3.55268 7.86739 3.5 8 3.5C8.13261 3.5 8.25979 3.55268 8.35355 3.64645C8.44732 3.74021 8.5 3.86739 8.5 4V8.5C8.5 8.63261 8.44732 8.75979 8.35355 8.85355C8.25979 8.94732 8.13261 9 8 9Z" fill="#EB3D3D"/>
</svg>
