<svg width="16" height="16" viewBox="0 0 16 16" fill="none" xmlns="http://www.w3.org/2000/svg">
<path d="M5.5 3.5L10.0187 7.24887C10.2654 7.45353 10.2585 7.83417 10.0046 8.02978L5.5 11.5" stroke="#ED592A" stroke-width="2" stroke-linecap="round"/>
</svg>
