<svg width="24" height="24" viewBox="0 0 24 24" fill="none" xmlns="http://www.w3.org/2000/svg">
<path d="M12.0003 18.332C11.7351 18.332 11.4808 18.2266 11.2933 18.0391C11.1058 17.8516 11.0004 17.5973 11.0004 17.3321V16.8278C10.5645 16.6707 10.1702 16.416 9.84791 16.0831C9.5256 15.7501 9.28377 15.3478 9.14094 14.907C9.09525 14.7649 9.08408 14.614 9.10837 14.4668C9.13265 14.3196 9.1917 14.1803 9.28059 14.0604C9.36991 13.9384 9.48668 13.8391 9.62147 13.7705C9.75626 13.702 9.90529 13.6661 10.0565 13.6658H10.1462C10.349 13.6681 10.546 13.7339 10.7095 13.8538C10.8731 13.9738 10.995 14.142 11.0581 14.3347C11.1196 14.5073 11.2273 14.6596 11.3695 14.7751C11.5117 14.8907 11.6828 14.9649 11.8643 14.9897C12.0458 15.0146 12.2307 14.9891 12.3987 14.916C12.5667 14.843 12.7114 14.7252 12.817 14.5755C12.9226 14.4258 12.9851 14.25 12.9975 14.0672C13.01 13.8845 12.9721 13.7018 12.8878 13.5391C12.8035 13.3764 12.6762 13.2401 12.5197 13.1448C12.3632 13.0496 12.1835 12.9992 12.0003 12.9992C11.2922 12.9998 10.6068 12.7499 10.0652 12.2937C9.52369 11.8376 9.16096 11.2045 9.04124 10.5067C8.92152 9.80877 9.05253 9.09104 9.41109 8.48047C9.76965 7.86989 10.3326 7.40583 11.0004 7.17042V6.66647C11.0004 6.40128 11.1058 6.14695 11.2933 5.95943C11.4808 5.77191 11.7351 5.66656 12.0003 5.66656C12.2655 5.66656 12.5198 5.77191 12.7074 5.95943C12.8949 6.14695 13.0002 6.40128 13.0002 6.66647V7.17075C13.4362 7.3278 13.8304 7.58255 14.1527 7.91549C14.475 8.24843 14.7169 8.65073 14.8597 9.09156C14.9054 9.23361 14.9166 9.38451 14.8923 9.53174C14.868 9.67898 14.8089 9.81829 14.72 9.93814C14.6307 10.0602 14.514 10.1595 14.3792 10.228C14.2444 10.2966 14.0953 10.3325 13.9441 10.3328H13.8545C13.6517 10.3305 13.4547 10.2647 13.2911 10.1447C13.1276 10.0248 13.0057 9.8566 12.9426 9.66384C12.8811 9.49127 12.7733 9.33892 12.6312 9.2234C12.489 9.10789 12.3178 9.03366 12.1363 9.00881C11.9548 8.98396 11.77 9.00946 11.602 9.08251C11.434 9.15556 11.2893 9.27336 11.1836 9.42305C11.078 9.57273 11.0156 9.74856 11.0031 9.93133C10.9906 10.1141 11.0286 10.2968 11.1129 10.4594C11.1971 10.6221 11.3245 10.7585 11.481 10.8537C11.6375 10.9489 11.8171 10.9993 12.0003 10.9994C12.7084 10.9988 13.3939 11.2487 13.9354 11.7048C14.477 12.161 14.8397 12.794 14.9594 13.4919C15.0791 14.1898 14.9481 14.9075 14.5896 15.5181C14.231 16.1287 13.668 16.5927 13.0002 16.8281V17.3321C13.0002 17.5973 12.8949 17.8516 12.7074 18.0391C12.5198 18.2266 12.2655 18.332 12.0003 18.332ZM10.0565 14.3324C10.0101 14.3323 9.96435 14.3432 9.92303 14.3643C9.8817 14.3854 9.84599 14.416 9.81887 14.4537C9.79231 14.4892 9.77458 14.5305 9.76716 14.5742C9.75974 14.6179 9.76284 14.6627 9.77621 14.705C9.89789 15.0808 10.1119 15.42 10.3987 15.6916C10.6855 15.9632 11.0359 16.1585 11.4177 16.2595C11.4891 16.2781 11.5523 16.3199 11.5975 16.3783C11.6426 16.4367 11.667 16.5084 11.667 16.5822V17.3321C11.667 17.4205 11.7021 17.5053 11.7646 17.5678C11.8271 17.6303 11.9119 17.6654 12.0003 17.6654C12.0887 17.6654 12.1735 17.6303 12.236 17.5678C12.2985 17.5053 12.3336 17.4205 12.3336 17.3321V16.5822C12.3336 16.5084 12.3581 16.4367 12.4032 16.3783C12.4483 16.3199 12.5115 16.2781 12.5829 16.2595C13.134 16.1187 13.6146 15.7814 13.9345 15.3111C14.2543 14.8407 14.3913 14.2698 14.3198 13.7055C14.2482 13.1413 13.973 12.6226 13.5459 12.247C13.1187 11.8714 12.5691 11.6648 12.0003 11.666C11.7498 11.6665 11.5024 11.6104 11.2767 11.5017C11.051 11.393 10.8529 11.2346 10.6971 11.0384C10.5397 10.8401 10.4291 10.6087 10.3738 10.3616C10.3185 10.1144 10.3199 9.85802 10.3778 9.61151C10.4475 9.3112 10.6 9.03646 10.818 8.81847C11.036 8.60048 11.3107 8.44798 11.611 8.3783C12.011 8.2854 12.4312 8.34229 12.7921 8.53821C13.1529 8.73412 13.4295 9.05549 13.5695 9.44153C13.5875 9.50401 13.6245 9.55933 13.6754 9.59982C13.7263 9.64031 13.7885 9.66396 13.8535 9.6675H13.9431C13.9895 9.66762 14.0353 9.65668 14.0766 9.63558C14.1179 9.61448 14.1536 9.58383 14.1808 9.54618C14.2073 9.5107 14.2251 9.46939 14.2325 9.42569C14.2399 9.38198 14.2368 9.33714 14.2234 9.29487C14.1018 8.9191 13.8877 8.57987 13.6009 8.30828C13.3141 8.03669 12.9638 7.84142 12.5819 7.74036C12.5105 7.72152 12.4473 7.67948 12.4024 7.62083C12.3574 7.56219 12.3332 7.49028 12.3336 7.41639V6.66647C12.3336 6.57807 12.2985 6.49329 12.236 6.43079C12.1735 6.36828 12.0887 6.33317 12.0003 6.33317C11.9119 6.33317 11.8271 6.36828 11.7646 6.43079C11.7021 6.49329 11.667 6.57807 11.667 6.66647V7.41639C11.667 7.49018 11.6426 7.56189 11.5975 7.62028C11.5523 7.67867 11.4891 7.72043 11.4177 7.73903C10.8666 7.87986 10.386 8.21715 10.0662 8.68748C9.74631 9.15781 9.60929 9.72878 9.68086 10.293C9.75243 10.8573 10.0276 11.376 10.4548 11.7516C10.8819 12.1272 11.4315 12.3338 12.0003 12.3326C12.2508 12.332 12.4982 12.3882 12.7239 12.4969C12.9496 12.6056 13.1478 12.764 13.3035 12.9602C13.461 13.1585 13.5715 13.3899 13.6268 13.637C13.6821 13.8841 13.6808 14.1405 13.6228 14.387C13.5532 14.6874 13.4007 14.9621 13.1827 15.1801C12.9647 15.3981 12.6899 15.5506 12.3896 15.6202C11.9896 15.7132 11.5694 15.6564 11.2085 15.4604C10.8476 15.2645 10.5711 14.9431 10.4311 14.557C10.4128 14.4946 10.3756 14.4395 10.3245 14.3992C10.2734 14.359 10.2111 14.3356 10.1462 14.3324H10.0565Z" fill="#212B36"/>
<path d="M12.0003 21.9983C11.3084 21.9989 10.6182 21.9272 9.94121 21.7843C9.89456 21.7744 9.85058 21.7546 9.81224 21.7262C9.77391 21.6979 9.7421 21.6616 9.71897 21.6199C9.69585 21.5782 9.68194 21.532 9.67819 21.4845C9.67444 21.437 9.68093 21.3892 9.69723 21.3444L10.3905 19.4379C10.4174 19.3638 10.4697 19.3017 10.538 19.2626C10.6063 19.2234 10.6863 19.2097 10.7638 19.2239C11.1719 19.297 11.5857 19.3331 12.0003 19.3319C13.4222 19.3322 14.8135 18.9191 16.0047 18.1427C17.1959 17.3664 18.1356 16.2604 18.7094 14.9594C19.2832 13.6585 19.4662 12.2187 19.2362 10.8156C19.0063 9.41246 18.3732 8.10648 17.4141 7.05676L16.5689 7.90201C16.5259 7.94502 16.4719 7.97544 16.4129 7.98998C16.3538 8.00452 16.2919 8.00263 16.2338 7.9845C16.1758 7.96637 16.1238 7.9327 16.0835 7.88714C16.0432 7.84158 16.0162 7.78587 16.0053 7.72603L15.3387 4.05972C15.3293 4.0093 15.3317 3.9574 15.3457 3.90806C15.3597 3.85872 15.3848 3.81326 15.4193 3.77524C15.4537 3.73722 15.4964 3.70765 15.5441 3.68883C15.5918 3.67002 15.6432 3.66246 15.6943 3.66676L19.6939 4.00006C19.757 4.00554 19.8172 4.02887 19.8675 4.06734C19.9179 4.10581 19.9562 4.15781 19.978 4.21727C19.9998 4.27672 20.0042 4.34116 19.9908 4.40304C19.9773 4.46492 19.9465 4.52168 19.9019 4.56667L19.3039 5.16661C20.6353 6.59045 21.5216 8.37234 21.8538 10.2932C22.1859 12.214 21.9495 14.19 21.1735 15.9783C20.3976 17.7665 19.1159 19.289 17.4862 20.3586C15.8564 21.4281 13.9497 21.998 12.0003 21.9983ZM10.4578 21.204C12.4084 21.53 14.4121 21.2279 16.1799 20.3415C17.9478 19.4552 19.3884 18.0302 20.2941 16.2722C21.1998 14.5141 21.5238 12.5139 21.2192 10.5598C20.9147 8.60579 19.9974 6.79897 18.5997 5.39992C18.5372 5.33742 18.5021 5.25266 18.5021 5.16428C18.5021 5.0759 18.5372 4.99114 18.5997 4.92864L18.9213 4.607L16.0709 4.36936L16.5462 6.9821L17.1832 6.34516C17.2457 6.28265 17.3304 6.24752 17.4188 6.24751C17.4626 6.24752 17.5061 6.25618 17.5466 6.27299C17.587 6.28981 17.6238 6.31444 17.6548 6.3455C18.7733 7.46392 19.5351 8.88891 19.8438 10.4403C20.1524 11.9916 19.9942 13.5997 19.3889 15.0611C18.7837 16.5225 17.7587 17.7716 16.4435 18.6504C15.1283 19.5293 13.5821 19.9984 12.0003 19.9985C11.6399 19.9991 11.2798 19.9744 10.9228 19.9248L10.4578 21.204Z" fill="#212B36"/>
<path d="M8.33403 20.3318H8.30636L4.30676 19.9985C4.24366 19.993 4.18343 19.9696 4.13312 19.9312C4.08281 19.8927 4.04451 19.8407 4.02268 19.7813C4.00086 19.7218 3.99643 19.6574 4.0099 19.5955C4.02338 19.5336 4.05421 19.4768 4.09878 19.4318L4.69672 18.8319C3.24428 17.279 2.32462 15.3035 2.07126 13.1923C1.8179 11.0811 2.24402 8.94417 3.28777 7.09165C4.33152 5.23913 5.93855 3.76751 7.87555 2.89043C9.81255 2.01335 11.9787 1.77648 14.0595 2.21421C14.1061 2.22412 14.1501 2.24392 14.1884 2.27228C14.2268 2.30064 14.2586 2.3369 14.2817 2.3786C14.3048 2.4203 14.3187 2.46649 14.3225 2.51403C14.3262 2.56156 14.3197 2.60936 14.3034 2.65417L13.6102 4.56065C13.5833 4.63467 13.531 4.69678 13.4627 4.73594C13.3943 4.77511 13.3143 4.78882 13.2369 4.77463C12.8288 4.70155 12.4149 4.66541 12.0003 4.66664C10.5785 4.66629 9.18719 5.07945 7.99598 5.85579C6.80477 6.63213 5.86504 7.73814 5.29127 9.0391C4.7175 10.34 4.53446 11.7798 4.76443 13.1829C4.99441 14.5861 5.62748 15.892 6.58653 16.9418L7.43178 16.0965C7.47478 16.0535 7.52874 16.0231 7.58779 16.0085C7.64685 15.994 7.70876 15.9959 7.76682 16.014C7.82487 16.0321 7.87686 16.0658 7.91716 16.1114C7.95745 16.1569 7.9845 16.2127 7.99539 16.2725L8.66199 19.9388C8.67073 19.9868 8.66881 20.0362 8.65637 20.0834C8.64392 20.1306 8.62125 20.1745 8.58996 20.212C8.55868 20.2495 8.51954 20.2797 8.47531 20.3004C8.43108 20.321 8.38285 20.3318 8.33403 20.3318ZM5.07835 19.3925L7.92873 19.6302L7.45345 17.0174L6.81651 17.6544C6.75402 17.7169 6.66925 17.752 6.58087 17.752C6.53702 17.752 6.49361 17.7433 6.45311 17.7265C6.41262 17.7097 6.37584 17.6851 6.34489 17.654C5.22594 16.5356 4.46384 15.1104 4.155 13.5588C3.84616 12.0072 4.00446 10.3988 4.60987 8.93716C5.21528 7.47551 6.2406 6.22626 7.55612 5.34744C8.87165 4.46862 10.4183 3.99971 12.0003 4.00004C12.3608 3.99946 12.7209 4.02407 13.0779 4.0737L13.5445 2.79449C11.5938 2.46811 9.58982 2.76979 7.82164 3.65601C6.05347 4.54223 4.61249 5.96719 3.70655 7.72534C2.80061 9.48349 2.47653 11.484 2.78107 13.4382C3.08561 15.3925 4.00303 17.1995 5.40098 18.5986C5.46347 18.6611 5.49857 18.7459 5.49857 18.8342C5.49857 18.9226 5.46347 19.0074 5.40098 19.0699L5.07835 19.3925Z" fill="#212B36"/>
</svg>
