<svg width="20" height="20" viewBox="0 0 20 20" fill="none" xmlns="http://www.w3.org/2000/svg">
    <g clip-path="url(#clip0)">
        <path fill-rule="evenodd" clip-rule="evenodd" d="M6.04994 1.09333C5.69082 0.952594 5.23088 0.94915 4.62668 1.23847C4.11458 1.48369 3.98107 1.69501 3.95035 1.80171C3.92338 1.89538 3.93514 2.05522 4.13286 2.32101C4.32782 2.58308 4.64861 2.8694 5.05812 3.16405C5.40697 3.41506 5.80085 3.65852 6.1978 3.88564L6.29554 3.63422C6.48128 3.15642 7.00975 2.91159 7.5061 3.05427C7.38378 2.6937 7.23826 2.36332 7.06987 2.07694C6.77025 1.56741 6.42391 1.23988 6.04994 1.09333ZM5.20124 4.4573C5.411 4.58647 5.62326 4.71032 5.8316 4.82763L4.19284 9.04316C4.09972 9.28268 4.10688 9.55035 4.21279 9.78898L8.47421 19.3912C8.69794 19.8954 9.29296 20.1359 9.80416 19.9289L17.3969 16.8547C17.9081 16.6477 18.1425 16.0714 17.9208 15.5665L13.6623 5.86481C13.5556 5.62173 13.3554 5.42805 13.1057 5.32645L8.67972 3.52539C8.50848 2.80553 8.26183 2.13117 7.93188 1.57006C7.56434 0.945008 7.06795 0.418226 6.41481 0.162269C5.74682 -0.0995042 4.99527 -0.0467659 4.19479 0.336547C3.58316 0.629433 3.13722 1.01156 2.98938 1.52504C2.83779 2.05155 3.04838 2.53862 3.33053 2.91788C3.60393 3.2854 3.99862 3.62886 4.42067 3.93706L4.42004 3.93791L1.19497 8.25753C1.03776 8.46809 0.971674 8.7333 1.01118 8.99505L2.44465 18.4917C2.52697 19.037 3.03614 19.4192 3.58275 19.3459L7.28679 18.8495L6.87628 17.8957L3.43549 18.3568L2.00202 8.86022L4.92174 4.94958L5.20124 4.4573ZM7.24159 4.00294L7.80686 4.23296C7.89144 4.6938 7.94594 5.17526 7.96992 5.65737C7.4387 5.85589 7.04758 6.35357 7.04758 6.96117C7.04758 7.75276 7.71142 8.35777 8.48403 8.35777C9.25664 8.35777 9.92048 7.75276 9.92048 6.96117C9.92048 6.34309 9.51576 5.83877 8.97055 5.64738C8.95548 5.32406 8.92762 4.99717 8.88633 4.67223L12.7346 6.2382L16.9931 15.9399L9.40032 19.0141L5.13889 9.41187L7.24159 4.00294ZM8.04758 6.96117C8.04758 6.76241 8.22227 6.56458 8.48403 6.56458C8.74579 6.56458 8.92047 6.76241 8.92047 6.96117C8.92047 7.15994 8.74579 7.35777 8.48403 7.35777C8.22227 7.35777 8.04758 7.15994 8.04758 6.96117ZM11.3431 10.4495L9.95689 15.614L10.7683 15.3262L12.1545 10.1617L11.3431 10.4495ZM8.61803 13.652C8.88242 13.7814 9.19494 13.7821 9.55557 13.6542C9.9162 13.5263 10.1528 13.3308 10.2655 13.0677C10.3781 12.8046 10.36 12.4807 10.2113 12.0961C10.0626 11.7115 9.856 11.4545 9.5916 11.3251C9.32721 11.1957 9.0147 11.195 8.65406 11.3229C8.29343 11.4508 8.0568 11.6463 7.94418 11.9094C7.83155 12.1725 7.8496 12.4964 7.99833 12.881C8.14707 13.2656 8.35363 13.5226 8.61803 13.652ZM9.55399 12.9451C9.53107 13.0425 9.46634 13.1101 9.35979 13.1479C9.25324 13.1857 9.15815 13.1748 9.07452 13.1152C8.98937 13.0517 8.91265 12.9316 8.84436 12.755L8.72598 12.4489C8.65768 12.2722 8.63499 12.1352 8.65791 12.0379C8.67932 11.9365 8.7433 11.867 8.84985 11.8292C8.9564 11.7914 9.05224 11.8043 9.13739 11.8678C9.22102 11.9274 9.29698 12.0455 9.36528 12.2221L9.48365 12.5282C9.55195 12.7049 9.5754 12.8438 9.55399 12.9451ZM12.5198 14.4506C12.7842 14.58 13.0967 14.5807 13.4573 14.4528C13.818 14.3249 14.0546 14.1294 14.1672 13.8663C14.2798 13.6032 14.2618 13.2793 14.1131 12.8947C13.9643 12.51 13.7578 12.253 13.4934 12.1237C13.229 11.9943 12.9165 11.9936 12.5558 12.1215C12.1952 12.2494 11.9586 12.4449 11.8459 12.708C11.7333 12.9711 11.7514 13.2949 11.9001 13.6796C12.0488 14.0642 12.2554 14.3212 12.5198 14.4506ZM13.4558 13.7437C13.4328 13.8411 13.3681 13.9087 13.2615 13.9465C13.155 13.9843 13.0599 13.9734 12.9763 13.9138C12.8911 13.8503 12.8144 13.7302 12.7461 13.5536L12.6277 13.2474C12.5594 13.0708 12.5368 12.9338 12.5597 12.8364C12.5811 12.7351 12.6451 12.6656 12.7516 12.6278C12.8582 12.59 12.954 12.6028 13.0392 12.6664C13.1228 12.726 13.1987 12.8441 13.267 13.0207L13.3854 13.3268C13.4537 13.5034 13.4772 13.6424 13.4558 13.7437Z" fill="#212B36"/>
    </g>
    <defs>
        <clipPath id="clip0">
            <rect width="20" height="20" fill="white"/>
        </clipPath>
    </defs>
</svg>