<svg width="20" height="20" viewBox="0 0 20 20" fill="none" xmlns="http://www.w3.org/2000/svg">
<path fill-rule="evenodd" clip-rule="evenodd" d="M12.9995 8L9.99951 5L6.99951 8H12.9995ZM12.899 12H7.10002L9.99951 14.8995L12.899 12Z" fill="#637381"/>
</svg>
