<svg width="20" height="20" viewBox="0 0 20 20" fill="none" xmlns="http://www.w3.org/2000/svg">
<circle cx="10" cy="10" r="10" fill="#EB3D3D"/>
<path d="M14.8483 6.34563L11.2945 9.89941L14.8483 13.4532L13.7548 14.5467L10.201 10.9929L6.64724 14.5467L5.55379 13.4532L9.10758 9.89941L5.55379 6.34563L6.64724 5.25217L10.201 8.80596L13.7548 5.25217L14.8483 6.34563Z" fill="white"/>
</svg>
