<svg width="17" height="18" viewBox="0 0 17 18" fill="none" xmlns="http://www.w3.org/2000/svg">
<path d="M12.8483 5.34563L9.29448 8.89941L12.8483 12.4532L11.7548 13.5467L8.20103 9.99287L4.64724 13.5467L3.55379 12.4532L7.10758 8.89941L3.55379 5.34563L4.64724 4.25217L8.20103 7.80596L11.7548 4.25217L12.8483 5.34563Z" fill="white"/>
</svg>
