<svg width="19" height="20" viewBox="0 0 19 20" fill="none" xmlns="http://www.w3.org/2000/svg">
<path d="M18.0625 16.9294C18.0625 15.8769 17.4094 14.9369 16.4194 14.5794C14.965 14.0537 12.5662 13.4375 9.3125 13.4375C6.05875 13.4375 3.66 14.0537 2.20563 14.5794C1.21563 14.9369 0.5625 15.8769 0.5625 16.9294V19.6875H18.0625V16.9294Z" stroke="#637381" stroke-miterlimit="10" stroke-linecap="round" stroke-linejoin="round"/>
<path d="M9.3125 10.9375C6.89625 10.9375 4.9375 8.97875 4.9375 6.5625V5.3125C4.9375 2.89625 6.89625 0.9375 9.3125 0.9375C11.7287 0.9375 13.6875 2.89625 13.6875 5.3125V6.5625C13.6875 8.97875 11.7287 10.9375 9.3125 10.9375Z" stroke="#637381" stroke-miterlimit="10" stroke-linecap="round" stroke-linejoin="round"/>
</svg>
