<svg width="10" height="10" viewBox="0 0 10 10" fill="none" xmlns="http://www.w3.org/2000/svg">
<rect width="10" height="10" fill="white"/>
<path d="M9.62 2.98532L4.99942 7.60532L0.380005 2.98532L0.795887 2.56944L4.99883 6.77296L9.20353 2.56885L9.62 2.98532Z" fill="#5C5E60"/>
</svg>
