{
  "config_theme_color": {
    "main": {
      "main": {
        "hex": "#13203D",
        "visible": 1
      },
      "button": {
        "hex": "#13203D",
        "visible": 1
      }
    }
  },
  "config_theme_text": {
    "all": {
      "title": "Font Roboto",
      "font": "Roboto",
      "supported-fonts": [
        "Open Sans",
        "IBM Plex Sans",
        "Courier New",
        "Roboto",
        "Nunito",
        "Arial",
        "DejaVu Sans",
        "Tahoma",
        "Time News Roman",
        "Mulish"
      ]
    }
  },
  "image_size_suggestion": {
    "favicon": [
      35,
      35
    ],
    "logo": [
      300,
      75
    ],
    "home": {
      "banner_1": [
        1116,
        214
      ],
      "banner_2": [
        360,
        205
      ],
      "banner_3": [
        555,
        210
      ],
      "slide_show": [
        1442,
        582
      ]
    },
    "category": {
      "banner_1": [
        263,
        307
      ]
    }
  },
  "app_config_theme": [
    {
      "name": "Trang chủ",
      "value": "home_page",
      "position": [
        {
          "name": "Đầu trang",
          "value": "bestme_app_after_header"
        },
        {
          "name": "Dưới slide",
          "value": "bestme_app_after_slide"
        },
        {
          "name": "Dưới danh sách sản phẩm",
          "value": "bestme_app_after_product"
        },
        {
          "name": "Trên cuối trang",
          "value": "bestme_app_before_footer"
        }
      ]
    },
    {
      "name": "Sản phẩm",
      "value": "product",
      "position": [
        {
          "name": "Đầu trang",
          "value": "bestme_app_after_header"
        },
        {
          "name": "Dưới danh sách sản phẩm",
          "value": "bestme_app_after_product"
        },
        {
          "name": "Trên cuối trang",
          "value": "bestme_app_before_footer"
        }
      ]
    }
  ],
  "default_customize_layout": [
    {"name" : "txt_slide_show_banner", "file": "slideshow-banner"},
    {"name" : "txt_about_us", "file": "about-us"},
    {"name" : "txt_why_choose", "file": "why-choose"},
    {"name" : "txt_block_product", "file": "block-products"},
    {"name" : "txt_intro_award", "file": "intro-award"},
    {"name" : "txt_block_projects", "file": "projects-box"},
    {"name" : "txt_service", "file": "service"},
    {"name" : "txt_block_news", "file": "news-box"}
  ],
  "version": "1"
}