<svg width="24" height="22" viewBox="0 0 24 22" fill="none" xmlns="http://www.w3.org/2000/svg">
<path d="M21.4921 3.00805C20.9349 2.45087 20.2734 2.00888 19.5455 1.70733C18.8175 1.40579 18.0373 1.25058 17.2493 1.25058C16.4613 1.25058 15.6811 1.40579 14.9531 1.70733C14.2252 2.00888 13.5637 2.45087 13.0065 3.00805C12.5865 3.42805 12.2701 3.90505 12.0001 4.40155C11.7338 3.88995 11.3942 3.41998 10.9921 3.00655C9.8668 1.8813 8.34064 1.24915 6.7493 1.24915C5.15796 1.24915 3.6318 1.8813 2.50655 3.00655C1.3813 4.1318 0.749146 5.65796 0.749146 7.2493C0.749146 8.84064 1.3813 10.3668 2.50655 11.4921L12.0001 20.7501L21.4921 11.4921C22.0495 10.9352 22.4918 10.274 22.7936 9.54609C23.0953 8.81821 23.2506 8.038 23.2506 7.25005C23.2506 6.46211 23.0953 5.68189 22.7936 4.95401C22.4918 4.22614 22.0495 3.56488 21.4921 3.00805V3.00805Z" stroke="#969696" stroke-miterlimit="10" stroke-linecap="round" stroke-linejoin="round"/>
</svg>
