{
    "config_theme_color": {
        "main": {
            "main": {
                "hex": "#D0203F",
                "visible": 1
            },
            "button": {
                "hex": "#D0203F",
                "visible": 1
            }
        }
    },
    "config_theme_text": {
        "all": {
            "title": "Font Tahoma",
            "font": "Tahoma",
            "supported-fonts": [
                "Open Sans",
                "IBM Plex Sans",
                "Courier New",
                "Roboto",
                "Nunito",
                "Arial",
                "DejaVu Sans",
                "Tahoma",
                "Time News Roman"
            ]
        }
    }
}