<svg width="16" height="19" viewBox="0 0 16 19" fill="none" xmlns="http://www.w3.org/2000/svg">
<path d="M12.5586 12.3189L12.5586 12.3189C13.7969 12.6849 14.625 13.7922 14.625 15.0794V18.5H1.37504V15.0689H1.37505L1.37504 15.0663C1.37183 14.4457 1.57098 13.8409 1.94232 13.3437C2.31366 12.8464 2.83696 12.4837 3.43293 12.3105L3.43293 12.3105L3.43537 12.3098C4.97309 11.8545 6.50893 11.625 8.00004 11.625C9.46275 11.625 10.9964 11.8571 12.5586 12.3189Z" stroke="#464646"/>
<path d="M11.625 4.75C11.625 5.7542 11.2193 6.86558 10.5415 7.72281C9.86372 8.57994 8.96395 9.125 8 9.125C7.03605 9.125 6.13628 8.57994 5.45853 7.72281C4.78069 6.86558 4.375 5.7542 4.375 4.75C4.375 2.75177 6.00177 1.125 8 1.125C9.99823 1.125 11.625 2.75177 11.625 4.75Z" stroke="#464646"/>
</svg>
