{
    "$schema": "http://json-schema.org/draft-07/schema#",
    "$id": "http://api.example.com/profile.json#",
    "type": "object",
    "properties": {
        "main": {
            "type": "object",
            "properties": {
                "background": {
                    "type": "object",
                    "properties": {
                        "hex": {
                            "type": "string",
                            "minLength": 4,
                            "maxLength": 7,
                            "pattern": "^#[a-fA-F0-9]+$"
                        },
                        "visible": {
                            "type": "boolean"
                        }
                    },
                    "required": [
                        "hex",
                        "visible"
                    ],
                    "additionalProperties": false
                },
                "big-header": {
                    "type": "object",
                    "properties": {
                        "hex": {
                            "type": "string",
                            "minLength": 4,
                            "maxLength": 7,
                            "pattern": "^#[a-fA-F0-9]+$"
                        },
                        "visible": {
                            "type": "boolean"
                        }
                    },
                    "required": [
                        "hex",
                        "visible"
                    ],
                    "additionalProperties": false
                },
                "content": {
                    "type": "object",
                    "properties": {
                        "hex": {
                            "type": "string",
                            "minLength": 4,
                            "maxLength": 7,
                            "pattern": "^#[a-fA-F0-9]+$"
                        },
                        "visible": {
                            "type": "boolean"
                        }
                    },
                    "required": [
                        "hex",
                        "visible"
                    ],
                    "additionalProperties": false
                },
                "horizontal-line": {
                    "type": "object",
                    "properties": {
                        "hex": {
                            "type": "string",
                            "minLength": 4,
                            "maxLength": 7,
                            "pattern": "^#[a-fA-F0-9]+$"
                        },
                        "visible": {
                            "type": "boolean"
                        }
                    },
                    "required": [
                        "hex",
                        "visible"
                    ],
                    "additionalProperties": false
                },
                "button": {
                    "type": "object",
                    "properties": {
                        "hex": {
                            "type": "string",
                            "minLength": 4,
                            "maxLength": 7,
                            "pattern": "^#[a-fA-F0-9]+$"
                        },
                        "visible": {
                            "type": "boolean"
                        }
                    },
                    "required": [
                        "hex",
                        "visible"
                    ],
                    "additionalProperties": false
                },
                "button-text": {
                    "type": "object",
                    "properties": {
                        "hex": {
                            "type": "string",
                            "minLength": 4,
                            "maxLength": 7,
                            "pattern": "^#[a-fA-F0-9]+$"
                        },
                        "visible": {
                            "type": "boolean"
                        }
                    },
                    "required": [
                        "hex",
                        "visible"
                    ],
                    "additionalProperties": false
                },
                "additional": {
                    "type": "object",
                    "properties": {
                        "hex": {
                            "type": "string",
                            "minLength": 4,
                            "maxLength": 7,
                            "pattern": "^#[a-fA-F0-9]+$"
                        },
                        "visible": {
                            "type": "boolean"
                        }
                    },
                    "required": [
                        "hex",
                        "visible"
                    ],
                    "additionalProperties": false
                },
                "coupon-tag": {
                    "type": "object",
                    "properties": {
                        "hex": {
                            "type": "string",
                            "minLength": 4,
                            "maxLength": 7,
                            "pattern": "^#[a-fA-F0-9]+$"
                        },
                        "visible": {
                            "type": "boolean"
                        }
                    },
                    "required": [
                        "hex",
                        "visible"
                    ],
                    "additionalProperties": false
                }
            },
            "required": [
                "background",
                "big-header",
                "content",
                "horizontal-line",
                "button",
                "button-text",
                "additional",
                "coupon-tag"
            ],
            "additionalProperties": false
        }
    },
    "required": [
        "main"
    ],
    "additionalProperties": false
}