<svg width="16" height="17" viewBox="0 0 16 17" fill="none" xmlns="http://www.w3.org/2000/svg">
<path d="M14.3281 2.39169C13.9567 1.95578 13.5157 1.61 13.0304 1.37409C12.5451 1.13817 12.0249 1.01675 11.4996 1.01675C10.9743 1.01675 10.4542 1.13817 9.96883 1.37409C9.48352 1.61 9.04255 1.95578 8.67111 2.39169C8.39111 2.72027 8.18012 3.09345 8.00012 3.48189C7.8226 3.08164 7.59621 2.71396 7.32812 2.39052C6.57795 1.51019 5.56051 1.01563 4.49962 1.01562C3.43872 1.01563 2.42128 1.51019 1.67111 2.39052C0.92095 3.27085 0.499512 4.46483 0.499512 5.7098C0.499512 6.95477 0.92095 8.14876 1.67111 9.02909L8.00012 16.272L14.3281 9.02909C14.6998 8.59346 14.9946 8.07613 15.1958 7.50668C15.397 6.93723 15.5005 6.32683 15.5005 5.71039C15.5005 5.09395 15.397 4.48355 15.1958 3.9141C14.9946 3.34465 14.6998 2.82732 14.3281 2.39169Z" fill="#3F4755" stroke="#3F4755" stroke-miterlimit="10" stroke-linecap="round" stroke-linejoin="round"/>
</svg>
