<svg width="720" height="400" viewBox="0 0 720 400" fill="none" xmlns="http://www.w3.org/2000/svg">
<path d="M0 0H720V400H0V0Z" fill="#FBE8D4"/>
<g opacity="0.2">
<path d="M131.879 297.879V101.867C131.879 101.867 121.136 90.5743 114.872 62.6589C108.607 34.7436 96.0787 23.1213 20.0001 23.1213C-56.0786 23.1213 -68.6072 34.7436 -74.8716 62.6589C-81.1359 90.5743 -91.8787 101.867 -91.8787 101.867V297.879" stroke="#9999A3" stroke-width="3" stroke-miterlimit="10" stroke-linecap="round" stroke-linejoin="round"/>
<path d="M131.879 203.005C97.6998 203.005 63.5482 203.005 29.3691 203.005" stroke="#9999A3" stroke-width="3" stroke-miterlimit="10" stroke-linecap="round" stroke-linejoin="round"/>
<path d="M-91.8787 154.538C-36.4888 141.047 21.9508 138.519 78.4946 145.086" stroke="#9999A3" stroke-width="3" stroke-miterlimit="10" stroke-linecap="round" stroke-linejoin="round"/>
<path d="M-81.1357 192.262V163.083C-49.7317 156.159 -14.9482 152.505 20.0002 152.505C54.9486 152.505 89.7321 156.159 121.136 163.083V192.262H-81.1357Z" fill="#BDBFC4"/>
<path d="M100.337 59.1694V134.728C75.1702 130.606 48.1347 128.326 20.0001 128.326C-8.1344 128.326 -35.1699 130.579 -60.3372 134.728V59.1694C-53.853 40.5134 -38.5494 32.6003 20.0001 32.6003C78.5496 32.6003 93.8258 40.5134 100.337 59.1694Z" fill="#BDBFC4"/>
<path d="M109.954 97.9653V149.84C117.289 151.213 124.598 152.779 131.879 154.538" stroke="#9999A3" stroke-width="3" stroke-miterlimit="10" stroke-linecap="round" stroke-linejoin="round"/>
<path d="M93.4685 203.005V245.592" stroke="#9999A3" stroke-width="3" stroke-miterlimit="10" stroke-linecap="round" stroke-linejoin="round"/>
</g>
<path d="M690.331 180.919L626 200.005L561.649 180.919L553.595 183.322V190.812L626 212.282L698.385 190.812V183.322L690.331 180.919Z" fill="#EFE0D1"/>
<path d="M626 156.004L548.005 179.136L626 202.269L703.995 179.136L626 156.004Z" stroke="#E7D8CA" stroke-width="3" stroke-miterlimit="10" stroke-linecap="round" stroke-linejoin="round"/>
<path d="M626 285.204L553.354 308.336L626 331.469L698.645 308.336L626 285.204Z" stroke="#E7D8CA" stroke-width="3" stroke-miterlimit="10" stroke-linecap="round" stroke-linejoin="round"/>
<path d="M548.005 179.136V194.999L626 218.131L703.995 194.999V179.136" stroke="#E7D8CA" stroke-width="3" stroke-miterlimit="10" stroke-linecap="round" stroke-linejoin="round"/>
<path d="M687.045 200.005L701.11 331.469" stroke="#E7D8CA" stroke-width="3" stroke-miterlimit="10" stroke-linecap="round" stroke-linejoin="round"/>
<path d="M564.934 200.005L550.87 331.469" stroke="#E7D8CA" stroke-width="3" stroke-miterlimit="10" stroke-linecap="round" stroke-linejoin="round"/>
<path d="M626 218.131V393.996" stroke="#E7D8CA" stroke-width="3" stroke-miterlimit="10" stroke-linecap="round" stroke-linejoin="round"/>
<path d="M571.486 178.015L626 194.177L680.494 178.015L626 161.832L571.486 178.015Z" fill="#EFE0D1"/>
</svg>
