<svg width="720" height="400" viewBox="0 0 720 400" fill="none" xmlns="http://www.w3.org/2000/svg">
<rect width="720" height="400" fill="#F4F4F4"/>
<path d="M102.676 151.325H132.024V126.271H40.9758V151.325H92.6647" stroke="#E5E5E5" stroke-width="3" stroke-miterlimit="10" stroke-linecap="round" stroke-linejoin="round"/>
<path d="M109.499 129.677H44.3875V147.906H109.499V129.677Z" fill="#E5E5E5"/>
<path d="M113.438 151.325L127.361 200.02" stroke="#E5E5E5" stroke-width="3" stroke-miterlimit="10" stroke-linecap="round" stroke-linejoin="round"/>
<path d="M59.5622 151.325L45.6389 200.02" stroke="#E5E5E5" stroke-width="3" stroke-miterlimit="10" stroke-linecap="round" stroke-linejoin="round"/>
<path d="M63.8433 56.4436L59.5623 85.972H113.438L106.614 38.98H66.3724L65.3713 45.9628" stroke="#E5E5E5" stroke-width="3" stroke-miterlimit="10" stroke-linecap="round" stroke-linejoin="round"/>
<path d="M74.0256 82.5533L79.861 42.3989H103.664L109.499 82.5533H74.0256Z" fill="#E5E5E5"/>
<path d="M97.9996 103.462C101.582 99.0003 103.44 94.9215 96.6428 93.7995C87.9621 92.3739 90.8337 85.9587 90.8337 85.9587H82.1794C82.1794 85.9587 85.0378 92.3739 76.3572 93.7995C67.6765 95.2251 73.1036 101.482 78.2145 107.184C83.3254 112.874 85.894 116.583 70.5481 126.258H102.465C91.5187 119.355 89.6877 115.487 91.387 111.778" stroke="#E5E5E5" stroke-width="3" stroke-miterlimit="10" stroke-linecap="round" stroke-linejoin="round"/>
<path d="M80.9017 122.853C83.7338 120.2 85.1564 117.797 85.4989 115.276C86.1049 110.867 83.1411 107.567 80.7437 104.901C79.2157 103.198 75.7645 99.3569 75.2507 97.6145C75.5274 97.4957 76.0411 97.3109 76.8973 97.1789C80.9017 96.5189 83.6416 94.8557 85.0642 92.2157C85.578 91.2653 85.8414 90.3017 85.96 89.3909H87.0269C87.1323 90.2885 87.4089 91.2521 87.9227 92.2157C89.3453 94.8557 92.0852 96.5321 96.0896 97.1789C96.959 97.3241 97.4595 97.4957 97.7362 97.6145C97.2224 99.3569 93.7844 103.198 92.2432 104.901C89.8458 107.567 86.882 110.88 87.488 115.276C87.8305 117.797 89.2531 120.2 92.0852 122.853H80.9017Z" fill="#E5E5E5"/>
<path d="M504.321 222.324H695.679V268.195H504.321V314.066H695.679V359.959H504.321" stroke="#D9D9D9" stroke-width="3" stroke-miterlimit="10" stroke-linecap="round" stroke-linejoin="round"/>
<path d="M645.266 230.922H504.321V259.597H645.266V230.922Z" fill="#E6E6E6"/>
<path d="M560.756 245.259H588.83" stroke="#D9D9D9" stroke-width="3" stroke-miterlimit="10" stroke-linecap="round" stroke-linejoin="round"/>
<path d="M695.679 276.793H554.734V305.468H695.679V276.793Z" fill="#E6E6E6"/>
<path d="M611.17 291.131H639.244" stroke="#D9D9D9" stroke-width="3" stroke-miterlimit="10" stroke-linecap="round" stroke-linejoin="round"/>
<path d="M670.483 322.686H529.539V351.361H670.483V322.686Z" fill="#E6E6E6"/>
<path d="M585.974 337.024H614.026" stroke="#D9D9D9" stroke-width="3" stroke-miterlimit="10" stroke-linecap="round" stroke-linejoin="round"/>
<path d="M644.491 359.959L660.166 381.676" stroke="#D9D9D9" stroke-width="3" stroke-miterlimit="10" stroke-linecap="round" stroke-linejoin="round"/>
<path d="M555.509 359.959L539.856 381.676" stroke="#D9D9D9" stroke-width="3" stroke-miterlimit="10" stroke-linecap="round" stroke-linejoin="round"/>
</svg>
