<svg width="10" height="18" viewBox="0 0 10 18" fill="none" xmlns="http://www.w3.org/2000/svg">
<path d="M9.1301 0.691964C8.8589 0.651785 7.92474 0.571427 6.83992 0.571427C4.56983 0.571427 3.01291 1.95759 3.01291 4.49888V6.68862H0.451528V9.66183H3.01291V17.2857H6.08657V9.66183H8.63791L9.02965 6.68862H6.08657V4.79018C6.08657 3.93638 6.3176 3.34375 7.55309 3.34375H9.1301V0.691964Z" fill="white"/>
</svg>
