<svg width="66" height="45" viewBox="0 0 66 45" fill="none" xmlns="http://www.w3.org/2000/svg">
<path d="M62.7498 0.729248H3.24984C1.68442 0.729248 0.416504 1.75477 0.416504 3.02091V41.9792C0.416504 43.2454 1.68442 44.2709 3.24984 44.2709H62.7498C64.3153 44.2709 65.5832 43.2454 65.5832 41.9792V3.02091C65.5832 1.75477 64.3153 0.729248 62.7498 0.729248ZM58.021 8.46362L33.9377 25.6511C33.6699 25.8425 33.3342 25.9376 32.9998 25.9376C32.6655 25.9376 32.3298 25.8425 32.062 25.6511L7.97867 8.46362C7.39217 8.04539 7.3355 7.32123 7.854 6.84685C8.3725 6.37133 9.26642 6.3255 9.85434 6.74487L32.9998 23.2632L56.1453 6.74487C56.7318 6.3255 57.6272 6.37133 58.1457 6.84685C58.6628 7.32123 58.6075 8.04539 58.021 8.46362Z" fill="#D0203F"/>
</svg>
