{
    "products": [
        104,
        105,
        106,
        107,
        108,
        109,
        110,
        111,
        112,
        113,
        114,
        115,
        116,
        117,
        118,
        119,
        120,
        121,
        122,
        123,
        124,
        125,
        126,
        127,
        128,
        129,
        130,
        131
    ],
    "categories": [
        22,
        21
    ],
    "collections": [
        10,
        11,
        12,
        9,
        13,
        14,
        15,
        16,
        17,
        18,
        19,
        20,
        4,
        5,
        6,
        7,
        8,
        21,
        22,
        23,
        24,
        25,
        26,
        27,
        28,
        29,
        30,
        31,
        32,
        33,
        34,
        35
    ],
    "seo_urls": [],
    "theme_builder_configs": [],
    "blogs": []
}