{   //////// CÁI NÀY KHÔNG DÙNG NỮA
    "name": "map",
    "text": "Bản đồ",
    "visible": 1,
    "setting": {
        "title": "Bản đồ"
    },
    "display": {
        "address": "<iframe src=\"https://www.google.com/maps/embed?pb=!1m18!1m12!1m3!1d3724.043949938738!2d105.78184861424786!3d21.03092738599717!2m3!1f0!2f0!3f0!3m2!1i1024!2i768!4f13.1!3m3!1m2!1s0x3135ab23dbae9cef%3A0x26c5664dafc0fbd0!2sNovaon+Ads!5e0!3m2!1sen!2s!4v1544096628331\" width=\"600\" height=\"450\" frameborder=\"0\" style=\"border:0\" allowfullscreen></iframe>"
    }
}