<svg width="32" height="32" viewBox="0 0 32 32" fill="none" xmlns="http://www.w3.org/2000/svg">
<path d="M26.6875 14.6641L10.456 14.6641L17.9374 7.18269L16 5.3125L5.3125 16L16 26.6875L17.8701 24.8173L10.456 17.3359L26.6875 17.3359L26.6875 14.6641Z" fill="#999999"/>
</svg>
