<svg width="16" height="16" viewBox="0 0 16 16" fill="none" xmlns="http://www.w3.org/2000/svg">
<path d="M9.52428 8.00135L5.55327 12.0341C5.25959 12.3326 5.25959 12.8153 5.55327 13.1106C5.84695 13.4091 6.32185 13.4059 6.61554 13.1106L11.1146 8.54117C11.3989 8.25221 11.4051 7.7886 11.1364 7.49011L6.61867 2.88891C6.47182 2.73966 6.27811 2.66663 6.08753 2.66663C5.89694 2.66663 5.70324 2.73966 5.5564 2.88891C5.26271 3.1874 5.26271 3.67006 5.5564 3.96537L9.52428 8.00135Z" fill="#797979"/>
</svg>
