<svg width="12" height="12" viewBox="0 0 12 12" fill="none" xmlns="http://www.w3.org/2000/svg">
<path d="M11.25 0.758358C11.0943 0.602314 10.8829 0.51462 10.6625 0.51462C10.4421 0.51462 10.2307 0.602314 10.075 0.758358L6.00001 4.82502L1.92501 0.750025C1.76931 0.593981 1.55794 0.506287 1.33751 0.506287C1.11707 0.506287 0.905699 0.593981 0.750006 0.750025C0.425006 1.07502 0.425006 1.60002 0.750006 1.92502L4.82501 6.00002L0.750006 10.075C0.425006 10.4 0.425006 10.925 0.750006 11.25C1.07501 11.575 1.60001 11.575 1.92501 11.25L6.00001 7.17502L10.075 11.25C10.4 11.575 10.925 11.575 11.25 11.25C11.575 10.925 11.575 10.4 11.25 10.075L7.17501 6.00002L11.25 1.92502C11.5667 1.60836 11.5667 1.07502 11.25 0.758358Z" fill="white"/>
</svg>
