<svg width="23" height="21" viewBox="0 0 23 21" fill="none" xmlns="http://www.w3.org/2000/svg">
<path d="M15.4986 5.03959H16.2482C16.5231 5.03959 16.748 4.81469 16.748 4.53981C16.748 4.26494 16.5231 4.04004 16.2482 4.04004H15.4986C15.2237 4.04004 14.9988 4.26494 14.9988 4.53981C14.9988 4.81469 15.2237 5.03959 15.4986 5.03959Z" fill="#27282B"/>
<path d="M22.8951 0.591743C22.7202 0.241901 22.3703 0.0419922 21.9955 0.0419922H1.00502C0.630191 0.0419922 0.28035 0.26689 0.105429 0.591743C-0.0694913 0.941584 -0.019514 1.3414 0.205384 1.64127L9.02638 12.7362V19.958C9.02638 20.3328 9.22629 20.6576 9.55115 20.8326C9.70108 20.9075 9.85101 20.9575 10.0259 20.9575C10.2258 20.9575 10.4257 20.9075 10.6007 20.7826L13.3744 18.8585C13.7742 18.5586 13.9991 18.1088 13.9991 17.634V12.7112L22.7951 1.64127C23.02 1.3414 23.07 0.941584 22.8951 0.591743ZM13.0995 12.2365C13.0496 12.3114 12.9996 12.4114 12.9996 12.5363V17.609C12.9996 17.7839 12.9246 17.9339 12.7997 18.0338L10.0259 19.958V12.5363C10.0259 12.3614 9.95096 12.2115 9.82602 12.1365L4.17858 5.03972H13.2495C13.5243 5.03972 13.7492 4.81483 13.7492 4.53995C13.7492 4.26508 13.5243 4.04018 13.2495 4.04018H3.50389C3.4789 4.04018 3.42892 4.04018 3.40393 4.04018L1.00502 1.04154H21.9955L13.0995 12.2365Z" fill="#27282B"/>
</svg>
