<svg width="20" height="20" viewBox="0 0 20 20" fill="none" xmlns="http://www.w3.org/2000/svg">
<path d="M5.95 15.6999C4.87741 15.6999 4 16.5773 4 17.6499C4 18.7225 4.87741 19.5999 5.95 19.5999C7.02259 19.5999 7.90005 18.7225 7.90005 17.6499C7.9 16.5773 7.02255 15.6999 5.95 15.6999ZM0.25 0.399902V2.3499H2.2L5.71014 9.46L4.24258 11.8485C4.09642 12.0922 3.99883 12.4336 3.99883 12.7749C3.99883 14.0804 4.89062 14.7249 6.1 14.7249H17.5V12.8499H6.33873C6.19258 12.8499 6.09498 12.7524 6.09498 12.6062C6.09498 12.5576 6.19844 12.3624 6.19844 12.3624L7.17259 10.825H14.4361C15.1674 10.825 15.8014 10.4351 16.1423 9.80139L19.6524 3.76389C19.7104 3.64853 19.75 3.47111 19.75 3.27643C19.75 2.7399 19.3111 2.34995 18.775 2.34995H4.34519L3.41875 0.399902H0.25ZM15.55 15.6999C14.4774 15.6999 13.6 16.5773 13.6 17.6499C13.6 18.7225 14.4774 19.5999 15.55 19.5999C16.6225 19.5999 17.5 18.7225 17.5 17.6499C17.5 16.5773 16.6225 15.6999 15.55 15.6999Z" fill="white"/>
</svg>
