<svg width="16" height="16" viewBox="0 0 16 16" fill="none" xmlns="http://www.w3.org/2000/svg">
<path d="M8 16C3.58862 16 0 12.4114 0 8C0 3.58862 3.58862 0 8 0C12.4114 0 16 3.58862 16 8C16 12.4114 12.4114 16 8 16ZM8 1C4.14001 1 1 4.14001 1 8C1 11.86 4.14001 15 8 15C11.86 15 15 11.86 15 8C15 4.14001 11.86 1 8 1Z" fill="#E12C43"/>
<path d="M5.52527 10.9746C5.39722 10.9746 5.26917 10.926 5.17188 10.828C4.97656 10.6327 4.97656 10.316 5.17188 10.1207L10.1218 5.17065C10.3173 4.97534 10.6339 4.97534 10.8292 5.17065C11.0245 5.36597 11.0245 5.68262 10.8292 5.87805L5.87915 10.828C5.78052 10.926 5.65259 10.9746 5.52527 10.9746Z" fill="#E12C43"/>
<path d="M10.4745 10.9745C10.3466 10.9745 10.2186 10.9259 10.1213 10.8279L5.17133 5.87851C4.97589 5.6832 4.97589 5.36655 5.17133 5.17123C5.36664 4.9758 5.68329 4.9758 5.8786 5.17123L10.8286 10.1212C11.024 10.3165 11.024 10.6331 10.8286 10.8285C10.7307 10.9259 10.6026 10.9745 10.4745 10.9745Z" fill="#E12C43"/>
</svg>
