<svg width="16" height="14" viewBox="0 0 16 14" fill="none" xmlns="http://www.w3.org/2000/svg">
<path d="M10.7641 1.84312C10.1606 1.84312 9.57485 1.94383 9.01619 2.14223C8.69421 1.38299 8.09869 0.791563 7.33583 0.475552C5.7439 -0.183813 3.91229 0.574858 3.25287 2.16676L0.239587 9.44149C-0.0798622 10.2127 -0.0798622 11.062 0.239587 11.8332C0.559004 12.6044 1.15962 13.205 1.93082 13.5245C2.32064 13.6859 2.72481 13.7623 3.12262 13.7623C4.34945 13.7623 5.51585 13.0353 6.01379 11.8332L6.64425 10.3112C7.62684 11.5651 9.13578 12.3149 10.7641 12.3149C13.6512 12.3149 16 9.96611 16 7.07901C16 4.19191 13.6512 1.84312 10.7641 1.84312ZM14.8261 5.67279H8.56553L9.02707 4.55855C9.22734 4.07498 9.30199 3.56067 9.25109 3.05417C9.73277 2.87253 10.2402 2.78056 10.7641 2.78056C12.642 2.78056 14.2423 3.99114 14.8261 5.67279ZM15.0626 7.07901C15.0626 7.23741 15.0537 7.39377 15.0369 7.5478H7.78886L8.17721 6.61023H15.0369C15.0537 6.76425 15.0626 6.92062 15.0626 7.07901ZM4.11894 2.52552C4.46754 1.68394 5.28393 1.1751 6.14281 1.1751C6.42123 1.1751 6.70428 1.22866 6.9771 1.34165C7.51691 1.56523 7.93739 1.98568 8.16096 2.52555C8.38458 3.06536 8.38458 3.65998 8.16096 4.19979L6.8337 7.40409L2.79168 5.72982L4.11894 2.52552ZM5.14772 11.4745C4.79911 12.3161 3.98273 12.825 3.12384 12.8249C2.84542 12.8249 2.56238 12.7713 2.28955 12.6584C1.74971 12.4348 1.32927 12.0143 1.10566 11.4745C0.882046 10.9346 0.882046 10.34 1.10566 9.80022L2.43292 6.59592L6.47495 8.27019L5.14772 11.4745ZM10.7641 11.3775C9.24162 11.3775 7.8463 10.5788 7.07153 9.27966L7.40058 8.48527H14.8261C14.2423 10.1669 12.642 11.3775 10.7641 11.3775Z" fill="#707070"/>
</svg>
