<svg width="10" height="16" viewBox="0 0 10 16" fill="none" xmlns="http://www.w3.org/2000/svg">
<path d="M9.5 6.5C9.5 5.96922 9.22262 5.50228 8.80547 5.23559C8.93456 4.83903 9 4.42534 9 4C9 1.79437 7.20559 0 5 0C2.79437 0 1 1.79437 1 4C1 4.42534 1.06547 4.83903 1.19453 5.23559C0.777375 5.50228 0.5 5.96922 0.5 6.5C0.5 6.82816 0.606219 7.13184 0.785687 7.37906L3.52506 14.9646C3.74872 15.5839 4.34147 16 5 16C5.32434 16 5.636 15.9014 5.90091 15.7153C6.16603 15.5292 6.3645 15.2697 6.47497 14.9645L9.21406 7.37941C9.39369 7.13213 9.5 6.82831 9.5 6.5ZM1.5 6.5C1.5 6.24466 1.69253 6.03375 1.94 6.00397C1.94444 6.00341 1.94878 6.00281 1.95334 6.00238C1.96872 6.00094 1.98425 6 2 6H8C8.01575 6 8.03128 6.00094 8.04669 6.00238C8.05119 6.00278 8.0555 6.00341 8.05987 6.00394C8.30741 6.03369 8.5 6.24459 8.5 6.5C8.5 6.77569 8.27569 7 8 7H2C1.72431 7 1.5 6.77569 1.5 6.5ZM5 1C6.65422 1 8 2.34578 8 4C8 4.34556 7.94281 4.68066 7.82966 5H2.17037C2.05719 4.68066 2 4.34553 2 4C2 2.34578 3.34578 1 5 1ZM5.53453 14.6245C5.4945 14.7352 5.42256 14.8293 5.32622 14.8969C5.23022 14.9643 5.11741 15 5 15C4.76137 15 4.54663 14.8492 4.46559 14.6249L2.07312 8H7.92675L5.53453 14.6245Z" fill="#707070"/>
</svg>
