<svg width="16" height="16" viewBox="0 0 16 16" fill="none" xmlns="http://www.w3.org/2000/svg">
<path d="M12.9502 5.27944C12.9405 5.2619 12.9118 5.21463 11.3153 2.55828V0.502165C11.3153 0.224813 11.0905 0 10.8131 0H5.11744C4.84008 0 4.61527 0.224813 4.61527 0.502165V2.56286C2.91695 5.49955 2.97608 5.34303 2.97608 5.532V15.4978C2.97608 15.7752 3.20089 16 3.47825 16H12.5166C12.7939 16 13.0187 15.7752 13.0187 15.4978C13.0188 4.70575 13.0533 5.45618 12.9502 5.27944ZM5.40712 3.19976H9.94264L8.8843 5.02984H4.34875L5.40712 3.19976ZM10.8215 3.6863L11.6289 5.02984H10.0445L10.8215 3.6863ZM5.6196 1.00433H10.311V2.19543H5.6196V1.00433ZM3.98044 6.03417H8.67182V14.9957H3.98044V6.03417ZM12.0144 14.9957H9.67612V6.03417H12.0144V14.9957Z" fill="#707070"/>
<path d="M6.86729 4.65744C7.16628 4.65744 7.40865 4.41506 7.40865 4.11607C7.40865 3.81709 7.16628 3.57471 6.86729 3.57471C6.5683 3.57471 6.32593 3.81709 6.32593 4.11607C6.32593 4.41506 6.5683 4.65744 6.86729 4.65744Z" fill="#707070"/>
</svg>
