<svg width="16" height="16" viewBox="0 0 16 16" fill="none" xmlns="http://www.w3.org/2000/svg">
<path d="M15.5801 12.3439L12.3417 10.1842C11.9307 9.91237 11.3798 10.0018 11.076 10.3898L10.1327 11.6027C10.0114 11.7625 9.79107 11.8089 9.61569 11.7115L9.43625 11.6126C8.8414 11.2883 8.10126 10.8847 6.61001 9.39289C5.11876 7.90111 4.71429 7.16041 4.39006 6.56665L4.29167 6.38721C4.1929 6.21186 4.23839 5.99055 4.39831 5.86835L5.61038 4.9253C5.99819 4.62144 6.08777 4.07071 5.81622 3.65961L3.65654 0.421157C3.37824 0.00253195 2.81988 -0.123137 2.38904 0.135856L1.03484 0.949329C0.609337 1.19948 0.297165 1.60461 0.163778 2.07982C-0.323868 3.85662 0.0429833 6.9231 4.56019 11.4408C8.15353 15.0339 10.8286 16.0002 12.6673 16.0002C13.0904 16.002 13.5119 15.9469 13.9204 15.8365C14.3957 15.7032 14.8009 15.391 15.0509 14.9654L15.8652 13.612C16.1246 13.1811 15.999 12.6224 15.5801 12.3439ZM15.4058 13.3384L14.5934 14.6926C14.4139 14.9998 14.1224 15.2257 13.7801 15.3229C12.1398 15.7733 9.27414 15.4003 4.93744 11.0636C0.600745 6.72688 0.227769 3.86143 0.678108 2.22089C0.775469 1.87819 1.00162 1.58639 1.3092 1.4066L2.66341 0.594194C2.85035 0.481711 3.09269 0.536234 3.21345 0.717894L4.38662 2.47923L5.37129 3.95607C5.48921 4.13439 5.45046 4.37338 5.28224 4.50533L4.06989 5.44838C3.70094 5.73049 3.59558 6.24095 3.82274 6.64608L3.919 6.82099C4.25976 7.44596 4.68342 8.22344 6.23013 9.76989C7.77684 11.3163 8.55406 11.74 9.17875 12.0807L9.35391 12.1773C9.75901 12.4044 10.2695 12.2991 10.5516 11.9301L11.4947 10.7178C11.6266 10.5496 11.8655 10.5109 12.0439 10.6287L15.2821 12.7884C15.4639 12.9091 15.5184 13.1515 15.4058 13.3384Z" fill="#21201E"/>
<path d="M9.06593 2.668C11.5681 2.67078 13.5958 4.69851 13.5986 7.20067C13.5986 7.34793 13.718 7.46729 13.8652 7.46729C14.0125 7.46729 14.1318 7.34793 14.1318 7.20067C14.1287 4.40412 11.8625 2.13783 9.06593 2.13477C8.91867 2.13477 8.79932 2.25412 8.79932 2.40138C8.79932 2.54864 8.91867 2.668 9.06593 2.668Z" fill="#21201E"/>
<path d="M9.06593 4.26785C10.6849 4.26976 11.9969 5.58175 11.9988 7.20076C11.9988 7.34802 12.1182 7.46738 12.2655 7.46738C12.4127 7.46738 12.5321 7.34802 12.5321 7.20076C12.5299 5.28736 10.9793 3.73681 9.06593 3.73462C8.91867 3.73462 8.79932 3.85398 8.79932 4.00124C8.79932 4.1485 8.91867 4.26785 9.06593 4.26785Z" fill="#21201E"/>
<path d="M9.06593 5.86758C9.80182 5.86846 10.3982 6.46481 10.3991 7.20073C10.3991 7.34799 10.5185 7.46735 10.6657 7.46735C10.8129 7.46735 10.9323 7.34799 10.9323 7.20073C10.9311 6.17045 10.0962 5.33551 9.06593 5.33435C8.91867 5.33435 8.79932 5.45371 8.79932 5.60097C8.79932 5.74823 8.91867 5.86758 9.06593 5.86758Z" fill="#21201E"/>
</svg>
