<svg width="18" height="18" viewBox="0 0 18 18" fill="none" xmlns="http://www.w3.org/2000/svg">
<path d="M18 2.11762L11.1176 8.99995L18 15.8823L15.8823 18L8.99997 11.1176L2.11761 18L0 15.8823L6.88237 8.99995L0 2.11762L2.11761 0L8.99997 6.88235L15.8823 0L18 2.11762Z" fill="#E12C43"/>
</svg>
