<svg width="14" height="14" viewBox="0 0 14 14" fill="none" xmlns="http://www.w3.org/2000/svg">
<path d="M13.2222 9.72223C12.2854 9.72221 11.3542 9.57798 10.4612 9.29461C10.1889 9.21674 9.87791 9.25549 9.68352 9.48905L7.9722 11.2C5.75546 10.0724 3.96674 8.2833 2.83879 6.06652L4.55011 4.35564C4.7445 4.16121 4.82216 3.85018 4.7445 3.57787C4.43326 2.68352 4.27777 1.75 4.27777 0.777766C4.27777 0.350146 3.9278 0 3.5 0H0.777766C0.349964 0 0 0.350146 0 0.777766C0 8.08879 5.91121 14 13.2222 14C13.6499 14 14 13.6499 14 13.2222V10.5C14 10.0724 13.6499 9.72223 13.2222 9.72223Z" fill="white"/>
</svg>
