<svg width="40" height="40" viewBox="0 0 40 40" fill="none" xmlns="http://www.w3.org/2000/svg">
<g clip-path="url(#clip0)">
<path d="M39.5957 8.6527L24.0171 0.0983124C23.783 -0.0301666 23.4992 -0.0301666 23.2651 0.0983124L17.3932 3.3225C17.2693 3.35515 17.1537 3.41741 17.0578 3.50682L7.68679 8.6527C7.43685 8.78972 7.28152 9.05217 7.28152 9.33751V19.6836C5.70071 20.178 4.25204 21.0499 3.04751 22.2547C-0.0921393 25.394 -0.892616 30.1823 1.05563 34.1694C1.24484 34.5569 1.71267 34.7178 2.10024 34.5283C2.48812 34.3387 2.64865 33.8709 2.45944 33.4833C0.804162 30.0956 1.4844 26.0273 4.15225 23.3594C5.82064 21.691 8.03866 20.7722 10.398 20.7722C12.7573 20.7722 14.9753 21.691 16.6437 23.3594C18.3118 25.0275 19.2307 27.2455 19.2307 29.6049C19.2307 31.9642 18.3118 34.1822 16.6434 35.8506C13.9756 38.5184 9.90725 39.1987 6.5195 37.5434C6.13192 37.3539 5.66409 37.5147 5.47488 37.9023C5.28537 38.2902 5.44589 38.758 5.83377 38.9472C7.2861 39.657 8.84433 40.0019 10.3913 40.0019C13.0899 40.0016 15.7526 38.9512 17.7484 36.9553C18.6637 36.0401 19.3869 34.9842 19.8987 33.8364L23.2651 35.6849C23.3823 35.7493 23.5117 35.7813 23.6411 35.7813C23.7705 35.7813 23.9002 35.7493 24.0171 35.6849L39.5957 27.1308C39.8456 26.9935 40.0009 26.731 40.0009 26.446V21.0166C40.0009 20.5851 39.6512 20.2353 39.2197 20.2353C38.7882 20.2353 38.4384 20.5851 38.4384 21.0166V25.9836L24.4248 33.6786V18.3527L29.0497 15.813V19.8389C29.0497 20.1154 29.1956 20.3711 29.4333 20.5115C29.556 20.5839 29.6933 20.6202 29.831 20.6202C29.9604 20.6202 30.0901 20.5881 30.2076 20.5234L33.5459 18.686C33.7955 18.5486 33.9502 18.2865 33.9502 18.0018V13.122L38.4384 10.6577V14.7669C38.4384 15.1984 38.7882 15.5481 39.2197 15.5481C39.6512 15.5481 40.0009 15.1984 40.0009 14.7669V9.33751C40.0009 9.05248 39.8456 8.78972 39.5957 8.6527ZM23.6411 1.67424L37.5965 9.33751L33.1943 11.7548L19.2389 4.09154L23.6411 1.67424ZM23.6411 17.0005L9.6857 9.33751L14.2493 6.83141L28.205 14.4944L23.6411 17.0005ZM29.8279 13.6033L15.8725 5.9403L17.6157 4.98296L31.5714 12.6459L29.8279 13.6033ZM17.7484 22.2547C15.7849 20.2912 13.1745 19.21 10.398 19.21C9.87277 19.21 9.35397 19.2487 8.84402 19.3247V10.6577L22.8626 18.3555V33.6814L20.4294 32.3453C20.669 31.4634 20.7929 30.5436 20.7929 29.6049C20.7929 26.8284 19.7116 24.2179 17.7484 22.2547ZM32.388 17.54L30.6122 18.5175V14.9552L32.388 13.9802V17.54Z" fill="#FF984E"/>
<path d="M39.2188 17.1047C39.0134 17.1047 38.8116 17.1884 38.6664 17.3336C38.5211 17.4789 38.4375 17.6803 38.4375 17.886C38.4375 18.0914 38.5211 18.2928 38.6664 18.438C38.8116 18.5836 39.0134 18.6669 39.2188 18.6669C39.4241 18.6669 39.6259 18.5836 39.7711 18.438C39.9164 18.2928 40 18.0914 40 17.886C40 17.6803 39.9164 17.4789 39.7711 17.3336C39.6259 17.1884 39.4241 17.1047 39.2188 17.1047Z" fill="#FF984E"/>
<path d="M7.77004 30.3843C7.96993 30.3843 8.17012 30.308 8.3224 30.1557C8.62758 29.8506 8.62758 29.3559 8.3224 29.0507L7.78133 28.5093H12.3986C13.5186 28.5093 14.4299 29.4206 14.4299 30.5406C14.4299 31.6606 13.5186 32.5718 12.3986 32.5718H9.66274C9.23122 32.5718 8.88149 32.9216 8.88149 33.3531C8.88149 33.7843 9.23122 34.134 9.66274 34.134H12.3986C14.3801 34.134 15.9924 32.5221 15.9924 30.5406C15.9924 28.5591 14.3801 26.9471 12.3986 26.9471H7.78133L8.3224 26.4057C8.62758 26.1005 8.62758 25.6059 8.3224 25.3007C8.01753 24.9958 7.52284 24.9958 7.21767 25.3007L5.34267 27.1757C5.0378 27.4809 5.0378 27.9756 5.34267 28.2807L7.21767 30.1554C7.37026 30.308 7.57015 30.3843 7.77004 30.3843Z" fill="#FF984E"/>
<path d="M3.59961 37.1835C3.37744 37.1835 3.1568 37.0889 3.00268 36.9055L3.00116 36.9036C2.72345 36.5734 2.76617 36.0809 3.09637 35.8032C3.42657 35.5252 3.91943 35.5679 4.19714 35.8981C4.47454 36.2286 4.43274 36.7221 4.10254 36.9998C3.95575 37.1231 3.77722 37.1835 3.59961 37.1835Z" fill="#FF984E"/>
</g>
<defs>
<clipPath id="clip0">
<rect width="40" height="40" fill="white"/>
</clipPath>
</defs>
</svg>
