<svg width="16" height="16" viewBox="0 0 16 16" fill="none" xmlns="http://www.w3.org/2000/svg">
<path d="M12.8583 8.00135L8.88726 12.0341C8.59357 12.3326 8.59357 12.8153 8.88726 13.1106C9.18094 13.4091 9.65584 13.4059 9.94952 13.1106L14.4486 8.54117C14.7329 8.25221 14.7391 7.7886 14.4704 7.49011L9.95265 2.88891C9.8058 2.73966 9.6121 2.66663 9.42151 2.66663C9.23093 2.66663 9.03722 2.73966 8.89038 2.88891C8.5967 3.1874 8.5967 3.67006 8.89038 3.96537L12.8583 8.00135Z" fill="#797979"/>
<path d="M6.19128 8.00135L2.22026 12.0341C1.92658 12.3326 1.92658 12.8153 2.22026 13.1106C2.51395 13.4091 2.98884 13.4059 3.28253 13.1106L7.78156 8.54117C8.06587 8.25221 8.07211 7.7886 7.80342 7.49011L3.28566 2.88891C3.13881 2.73966 2.94511 2.66663 2.75452 2.66663C2.56394 2.66663 2.37023 2.73966 2.22339 2.88891C1.9297 3.1874 1.9297 3.67006 2.22339 3.96537L6.19128 8.00135Z" fill="#797979"/>
</svg>
