<svg width="48" height="48" viewBox="0 0 48 48" fill="none" xmlns="http://www.w3.org/2000/svg">
<path d="M0 35.4419V12.5581C0 5.64706 5.64706 0 12.5581 0H35.4419C42.3529 0 48 5.64706 48 12.5581V35.4419C48 42.3529 42.3529 48 35.4419 48H12.5581C5.64706 48 0 42.3529 0 35.4419Z" fill="#FF0000"/>
<path d="M37.2651 20.762C37.2651 17.5773 34.6879 15 31.5032 15H16.7617C13.577 15 10.9998 17.5773 10.9998 20.762V27.6238C10.9998 30.8085 13.577 33.3858 16.7617 33.3858H31.5032C34.6879 33.3858 37.2651 30.8085 37.2651 27.6238V20.762ZM28.5976 24.7018L21.982 27.9685C21.7193 28.1163 20.8493 27.9193 20.8493 27.6238V20.9097C20.8493 20.6142 21.7357 20.4172 21.9984 20.565L28.3185 24.0123C28.5812 24.1765 28.8602 24.554 28.5976 24.7018Z" fill="white"/>
</svg>
