{
    "css": [
        "node_modules/bootstrap/dist/css/bootstrap.min.css",
        "node_modules/font-awesome/css/font-awesome.min.css",
        "node_modules/swiper/css/swiper.min.css",
        "node_modules/jquery-modal/jquery.modal.min.css",
        "node_modules/select2/dist/css/select2.min.css",
        "stylesheet/_variable.scss",
        "stylesheet/_font-face.scss",
        "stylesheet/_config.scss",
        "stylesheet/_home.scss",
        "stylesheet/_account.scss",
        "stylesheet/_category.scss",
        "stylesheet/_news.scss",
        "stylesheet/_news-single.scss",
        "stylesheet/_login.scss",
        "stylesheet/style.css",
        "stylesheet/bestme.css",
        "stylesheet/glasscase.minf195.css",
        "stylesheet/jssor_slider.css"
    ],
    "js": [
        "node_modules/jquery/dist/jquery.min.js",
        "js/popper.min.js",
        "node_modules/bootstrap/dist/js/bootstrap.min.js",
        "node_modules/jquery-match-height/dist/jquery.matchHeight-min.js",
        "node_modules/swiper/js/swiper.min.js",
        "node_modules/jquery-modal/jquery.modal.min.js",
        "node_modules/select2/dist/js/select2.min.js",
        "js/opencart_custom.js",
        "js/home.js",
        "js/single.js",
        "js/modernizr.custom.js",
        "js/jquery.glasscase.minf195.js",
        "js/jssor_slider.min.js"
    ],
    "version": 2
}
