<svg width="32" height="32" viewBox="0 0 32 32" fill="none" xmlns="http://www.w3.org/2000/svg">
<path d="M30.5546 14.6493C30.1585 14.1655 29.5642 13.8879 28.924 13.8879H23.1464L17.25 1.51342C17.0558 1.08043 16.5377 0.882556 16.0928 1.07176C15.648 1.26085 15.4448 1.76525 15.6391 2.1983L21.2283 13.888H10.7717L16.5465 2.1983C16.7408 1.76525 16.5377 1.2609 16.0928 1.07176C15.648 0.882556 15.1299 1.08031 14.9357 1.51342L8.85362 13.888H3.07604C2.43584 13.888 1.84153 14.1655 1.44537 14.6493C1.05649 15.1244 0.912992 15.735 1.05168 16.3249L4.13705 29.4442C4.3525 30.3602 5.18494 31 6.16141 31H25.8386C26.8151 31 27.6475 30.3602 27.8629 29.4442L30.9483 16.3249C31.087 15.735 30.9435 15.1243 30.5546 14.6493ZM25.8386 29.2887H6.16141C6.01217 29.2887 5.88145 29.1935 5.85057 29.0622L2.7652 15.9431C2.741 15.8401 2.7816 15.7626 2.82004 15.7158C2.85567 15.6722 2.93635 15.5992 3.07604 15.5992H8.08598L7.85576 16.1123C7.66153 16.5454 7.86461 17.0497 8.30946 17.2389C8.42395 17.2876 8.54324 17.3106 8.66072 17.3106C8.99951 17.3106 9.32236 17.1188 9.46662 16.7973L10.0041 15.5993H21.996L22.5335 16.7973C22.6778 17.1189 23.0006 17.3106 23.3394 17.3106C23.4568 17.3106 23.5762 17.2876 23.6907 17.2389C24.1355 17.0498 24.3387 16.5454 24.1444 16.1123L23.9141 15.5992H28.9241C29.0638 15.5992 29.1444 15.6722 29.1801 15.7158C29.2185 15.7627 29.2591 15.8402 29.2349 15.943L26.1495 29.0622C26.1186 29.1935 25.9878 29.2887 25.8386 29.2887Z" fill="#333333"/>
<path d="M16.0928 1.07176C16.5377 0.882556 17.0558 1.08043 17.25 1.51342L23.1464 13.8879H28.924C29.5642 13.8879 30.1585 14.1655 30.5546 14.6493C30.9435 15.1243 31.087 15.735 30.9483 16.3249L27.8629 29.4442C27.6475 30.3602 26.8151 31 25.8386 31H6.16141C5.18494 31 4.3525 30.3602 4.13705 29.4442L1.05168 16.3249C0.912992 15.735 1.05649 15.1244 1.44537 14.6493C1.84153 14.1655 2.43584 13.888 3.07604 13.888H8.85362L14.9357 1.51342C15.1299 1.08031 15.648 0.882556 16.0928 1.07176ZM16.0928 1.07176C15.648 1.26085 15.4448 1.76525 15.6391 2.1983L21.2283 13.888H10.7717L16.5465 2.1983C16.7408 1.76525 16.5377 1.2609 16.0928 1.07176ZM25.8386 29.2887H6.16141C6.01217 29.2887 5.88145 29.1935 5.85057 29.0622L2.7652 15.9431C2.741 15.8401 2.7816 15.7626 2.82004 15.7158C2.85567 15.6722 2.93635 15.5992 3.07604 15.5992H8.08598L7.85576 16.1123C7.66153 16.5454 7.86461 17.0497 8.30946 17.2389C8.42395 17.2876 8.54324 17.3106 8.66072 17.3106C8.99951 17.3106 9.32236 17.1188 9.46662 16.7973L10.0041 15.5993H21.996L22.5335 16.7973C22.6778 17.1189 23.0006 17.3106 23.3394 17.3106C23.4568 17.3106 23.5762 17.2876 23.6907 17.2389C24.1355 17.0498 24.3387 16.5454 24.1444 16.1123L23.9141 15.5992H28.9241C29.0638 15.5992 29.1444 15.6722 29.1801 15.7158C29.2185 15.7627 29.2591 15.8402 29.2349 15.943L26.1495 29.0622C26.1186 29.1935 25.9878 29.2887 25.8386 29.2887Z" stroke="#333333" stroke-width="0.5"/>
</svg>
