<svg width="12" height="8" viewBox="0 0 12 8" fill="none" xmlns="http://www.w3.org/2000/svg">
<path fill-rule="evenodd" clip-rule="evenodd" d="M12 0.808009L4.78451 8L0 3.38829L1.01063 2.56524L4.76744 6.18637L10.974 0L12 0.808009Z" fill="#3A8E08"/>
</svg>
