<svg width="36" height="40" viewBox="0 0 36 40" fill="none" xmlns="http://www.w3.org/2000/svg">
<path d="M17.9996 12.3794C13.7971 12.3794 10.3782 15.7983 10.3782 20.0005C10.3782 24.2031 13.7971 27.622 17.9996 27.622C22.2019 27.622 25.6208 24.2031 25.6208 20.0005C25.6208 15.7983 22.2019 12.3794 17.9996 12.3794ZM22.5245 18.5653L17.0646 24.0252C16.8354 24.2544 16.5348 24.3691 16.2345 24.3691C15.9342 24.3691 15.6339 24.2547 15.4047 24.0252L13.3182 21.9387C12.8599 21.4807 12.8599 20.7375 13.3182 20.2792C13.7763 19.8208 14.5194 19.8208 14.9778 20.2792L16.2345 21.5359L20.8649 16.9058C21.323 16.4474 22.0661 16.4474 22.5245 16.9058C22.9828 17.3638 22.9828 18.1069 22.5245 18.5653Z" fill="white"/>
<path d="M34.9912 10.8529L34.9899 10.8218C34.9725 10.4375 34.9609 10.0311 34.9539 9.57878C34.9213 7.37329 33.168 5.54895 30.9622 5.42566C26.3633 5.16901 22.8055 3.66938 19.7657 0.706434L19.7397 0.681715C18.7482 -0.227401 17.2526 -0.227401 16.2607 0.681715L16.2348 0.706434C13.195 3.66938 9.63723 5.16901 5.03824 5.42596C2.83274 5.54895 1.07921 7.37329 1.04656 9.57909C1.03984 10.0283 1.02794 10.4348 1.01054 10.8218L1.00871 10.8941C0.919297 15.5837 0.808214 21.4202 2.76072 26.7177C3.83433 29.6309 5.4603 32.1633 7.59317 34.2449C10.0224 36.6155 13.2041 38.4975 17.0499 39.8384C17.175 39.882 17.3051 39.9174 17.4375 39.944C17.6243 39.9812 17.8123 39.9998 18.0002 39.9998C18.1882 39.9998 18.3765 39.9812 18.563 39.944C18.6954 39.9174 18.8264 39.8817 18.9521 39.8378C22.7933 38.4944 25.9717 36.6115 28.3988 34.2412C30.5307 32.159 32.1567 29.626 33.2312 26.7122C35.1911 21.3988 35.0803 15.5514 34.9912 10.8529ZM17.9996 29.969C12.5028 29.969 8.03109 25.4973 8.03109 20.0005C8.03109 14.5037 12.5028 10.032 17.9996 10.032C23.4961 10.032 27.9682 14.5037 27.9682 20.0005C27.9682 25.4973 23.4961 29.969 17.9996 29.969Z" fill="white"/>
</svg>
