<svg width="31" height="31" viewBox="0 0 31 31" fill="none" xmlns="http://www.w3.org/2000/svg">
<path d="M25.2067 14.2081C25.2067 14.208 25.2066 14.2079 25.2066 14.2077C25.1171 13.8798 24.9036 13.6147 24.6208 13.4807C21.2081 11.9166 21.1225 11.6921 20.4617 11.6921C20.2052 11.6921 19.955 11.7491 19.7182 11.8613L16.3027 13.4806C16.0198 13.6147 15.8063 13.8796 15.7167 14.2081C15.6059 14.6161 15.4199 15.4582 15.4199 16.5142C15.4199 19.348 16.7095 21.9595 19.4297 23.9169C20.0594 24.3702 20.8632 24.3706 21.4937 23.9169C24.2198 21.955 25.5035 19.3413 25.5035 16.5142C25.5035 15.4581 25.3175 14.6161 25.2067 14.2081ZM20.9596 23.1747C20.6491 23.398 20.2751 23.3987 19.9639 23.1748C17.4867 21.3918 16.3344 19.0428 16.3344 16.5142C16.3344 15.5642 16.5003 14.8118 16.599 14.4484C16.6212 14.3668 16.6642 14.3212 16.6944 14.307C20.2667 12.6415 20.1419 12.6065 20.4617 12.6065C20.7795 12.6065 20.6601 12.6431 24.2292 14.307C24.2591 14.3212 24.302 14.3667 24.3243 14.4479C24.4233 14.8119 24.5892 15.5644 24.5892 16.5143C24.5891 19.0381 23.4411 21.3883 20.9596 23.1747Z" fill="white"/>
<path d="M25.9848 0H10.0756C8.87697 0 7.90186 0.975109 7.90186 2.17364V22.9356H5.27878C3.96624 22.9356 2.89844 24.0034 2.89844 25.316V28.0562C2.89844 29.6793 4.21897 30.9998 5.84205 30.9998C12.841 30.9998 19.9541 30.9998 24.8396 31C26.6383 31 28.1017 29.5366 28.1017 27.738V2.11684C28.1016 0.949619 27.152 0 25.9848 0ZM6.38195 30.0214C5.01619 30.3595 3.81288 29.3431 3.81288 28.0562V25.316C3.81288 24.5076 4.47048 23.85 5.27878 23.85H7.90222C7.90222 23.8501 7.90222 23.8502 7.90222 23.8502V23.8503C7.90222 23.8504 7.90222 23.8506 7.90222 23.8507C7.90222 23.851 7.90222 23.8514 7.90222 23.8519C7.90222 23.8559 7.90222 23.8593 7.90222 23.8616C7.90222 23.8624 7.90222 23.863 7.90222 23.8636C7.90222 23.864 7.90222 23.8645 7.90222 23.865C7.90222 23.8653 7.90222 23.8654 7.90222 23.8656C7.90222 23.8658 7.90222 23.8659 7.90222 23.8661C7.90228 23.9658 7.90265 24.6165 7.90446 28.0561C7.90446 29.0003 7.25643 29.7958 6.38195 30.0214ZM27.1872 27.738C27.1872 29.0325 26.1341 30.0856 24.8396 30.0856H8.00654C8.99237 29.0504 8.80383 27.8824 8.81884 27.2867V23.3928C8.81884 23.3765 8.81793 23.3605 8.8163 23.3447V2.17364C8.8163 1.47928 9.38126 0.914381 10.0756 0.914381H25.9848C26.6478 0.914381 27.1872 1.45379 27.1872 2.11678V27.738Z" fill="white"/>
<path d="M23.1539 15.739C22.9573 15.5805 22.6695 15.6114 22.511 15.8079C19.4483 19.5867 19.6492 19.3931 19.5894 19.3971C19.5304 19.4009 19.5907 19.412 18.3712 18.2702C18.188 18.0964 17.8987 18.1038 17.7248 18.2869C17.5509 18.4701 17.5584 18.7594 17.7416 18.9334L18.9093 20.0421C19.0917 20.2153 19.3352 20.3117 19.5855 20.3117C19.8754 20.3117 20.1596 20.181 20.3488 19.9465L23.2228 16.3821C23.3813 16.1853 23.3504 15.8975 23.1539 15.739Z" fill="white"/>
<path d="M22.3358 3.49353H10.6921C10.4396 3.49353 10.2349 3.69818 10.2349 3.95072C10.2349 4.20326 10.4396 4.40791 10.6921 4.40791H22.3358C22.5883 4.40791 22.793 4.20326 22.793 3.95072C22.793 3.69818 22.5883 3.49353 22.3358 3.49353Z" fill="white"/>
<path d="M25.0458 3.49353H24.1642C23.9117 3.49353 23.707 3.69818 23.707 3.95072C23.707 4.20326 23.9117 4.40791 24.1642 4.40791H25.0458C25.2983 4.40791 25.503 4.20326 25.503 3.95072C25.503 3.69818 25.2984 3.49353 25.0458 3.49353Z" fill="white"/>
<path d="M25.0462 26.526H14.195C13.9425 26.526 13.7378 26.7306 13.7378 26.9832C13.7378 27.2357 13.9425 27.4404 14.195 27.4404H25.0462C25.2987 27.4404 25.5034 27.2357 25.5034 26.9832C25.5035 26.7306 25.2988 26.526 25.0462 26.526Z" fill="white"/>
<path d="M12.3662 26.526H10.6921C10.4396 26.526 10.2349 26.7306 10.2349 26.9832C10.2349 27.2357 10.4396 27.4404 10.6921 27.4404H12.3662C12.6187 27.4404 12.8234 27.2357 12.8234 26.9832C12.8234 26.7306 12.6187 26.526 12.3662 26.526Z" fill="white"/>
<path d="M25.0463 6.78522H10.6921C10.4396 6.78522 10.2349 6.98987 10.2349 7.24241C10.2349 7.49495 10.4396 7.6996 10.6921 7.6996H25.0463C25.2988 7.6996 25.5035 7.49495 25.5035 7.24241C25.5035 6.98987 25.2988 6.78522 25.0463 6.78522Z" fill="white"/>
<path d="M25.0463 10.077H16.6945C16.442 10.077 16.2373 10.2816 16.2373 10.5342C16.2373 10.7867 16.442 10.9913 16.6945 10.9913H25.0463C25.2988 10.9913 25.5035 10.7867 25.5035 10.5342C25.5035 10.2816 25.2988 10.077 25.0463 10.077Z" fill="white"/>
<path d="M14.8656 10.077H10.6921C10.4396 10.077 10.2349 10.2816 10.2349 10.5342C10.2349 10.7867 10.4396 10.9913 10.6921 10.9913H14.8656C15.1181 10.9913 15.3228 10.7867 15.3228 10.5342C15.3228 10.2816 15.1181 10.077 14.8656 10.077Z" fill="white"/>
<path d="M14.0689 13.3687H10.6921C10.4396 13.3687 10.2349 13.5733 10.2349 13.8258C10.2349 14.0784 10.4396 14.283 10.6921 14.283H14.0689C14.3214 14.283 14.5261 14.0784 14.5261 13.8258C14.5261 13.5733 14.3214 13.3687 14.0689 13.3687Z" fill="white"/>
<path d="M14.0689 16.6605H10.6921C10.4396 16.6605 10.2349 16.8652 10.2349 17.1177C10.2349 17.3702 10.4396 17.5749 10.6921 17.5749H14.0689C14.3214 17.5749 14.5261 17.3702 14.5261 17.1177C14.5261 16.8652 14.3214 16.6605 14.0689 16.6605Z" fill="white"/>
<path d="M14.8614 19.9524H10.6921C10.4396 19.9524 10.2349 20.157 10.2349 20.4096C10.2349 20.6621 10.4396 20.8668 10.6921 20.8668H14.8614C15.1139 20.8668 15.3186 20.6621 15.3186 20.4096C15.3186 20.157 15.1139 19.9524 14.8614 19.9524Z" fill="white"/>
<path d="M16.3395 23.2441H10.6921C10.4396 23.2441 10.2349 23.4488 10.2349 23.7013C10.2349 23.9539 10.4396 24.1585 10.6921 24.1585H16.3395C16.592 24.1585 16.7967 23.9539 16.7967 23.7013C16.7968 23.4488 16.5921 23.2441 16.3395 23.2441Z" fill="white"/>
</svg>
