<svg width="30" height="30" viewBox="0 0 30 30" fill="none" xmlns="http://www.w3.org/2000/svg">
<g clip-path="url(#clip0)">
<path d="M20.3918 9.09076C20.0677 9.09076 19.8047 9.3526 19.8047 9.67647C19.8047 10.0001 20.0677 10.2624 20.3918 10.2624C20.7165 10.2624 20.9789 10.0001 20.9789 9.67647C20.9789 9.3526 20.7165 9.09076 20.3918 9.09076Z" fill="white"/>
<path d="M9.72478 19.7368C9.40005 19.7368 9.1377 19.9993 9.1377 20.3227C9.1377 20.6468 9.40005 20.9086 9.72478 20.9086C10.0488 20.9086 10.3119 20.6468 10.3119 20.3227C10.3119 19.9993 10.0488 19.7368 9.72478 19.7368Z" fill="white"/>
<path d="M29.3576 3.60472C29.1595 3.55871 28.9512 3.61845 28.8081 3.76265L26.3742 6.211H25.2074L23.9229 4.88279V3.70199L26.322 1.27195C26.4639 1.12821 26.5217 0.921534 26.4747 0.724925C26.4279 0.528544 26.283 0.370158 26.0913 0.305613C25.4886 0.102824 24.8579 5.55889e-05 24.2165 5.55889e-05C22.3043 5.55889e-05 20.5672 0.889949 19.4503 2.44154C18.405 3.89402 18.0828 5.67404 18.5445 7.37761L14.22 11.6936L7.01537 4.4866V3.07211C7.01537 2.86634 6.90713 2.67546 6.73031 2.56971L2.57921 0.0835975C2.34805 -0.0548761 2.05244 -0.0184838 1.8621 0.171717L0.201753 1.82859C0.0114091 2.01879 -0.0250543 2.31382 0.113461 2.54454L2.60398 6.68753C2.70993 6.864 2.90096 6.9718 3.10713 6.97203L4.52393 6.97249L11.7292 14.1795L7.42128 18.4791C5.71438 18.0186 3.92997 18.3406 2.47395 19.3845C0.920243 20.4985 0.0292969 22.2318 0.0292969 24.1402C0.0292969 24.7802 0.132266 25.4098 0.335452 26.0111C0.400352 26.2036 0.560654 26.3489 0.758795 26.3947C0.957165 26.4407 1.16517 26.381 1.3085 26.2368L3.74215 23.7887H4.9154L6.25216 25.1228V26.2938L3.79925 28.7227C3.65477 28.8657 3.59492 29.0733 3.64101 29.2713C3.68688 29.4691 3.8325 29.6291 4.02537 29.6938C4.62782 29.8966 5.2587 29.9994 5.89991 29.9994C7.81206 29.9994 9.54855 29.11 10.6649 27.5593C11.7109 26.1061 12.0336 24.3254 11.5722 22.6218L15.0321 19.1687L15.8246 20.0279L15.4609 20.3907C15.2316 20.6196 15.2316 20.9906 15.4609 21.2195C15.6902 21.4481 16.0617 21.4481 16.2913 21.2195L16.6206 20.8908L24.0569 28.9525C24.0624 28.9584 24.0681 28.9642 24.0738 28.9699C25.4498 30.3432 27.6791 30.3436 29.0558 28.9696C30.4286 27.5989 30.4286 25.3684 29.0558 23.9976C29.0498 23.9917 29.0436 23.986 29.0375 23.9802L20.9474 16.5727L21.273 16.2477C21.5024 16.019 21.5024 15.648 21.273 15.4191C21.0437 15.1903 20.6722 15.1903 20.4426 15.4191L20.0814 15.7799L19.2189 14.9898L22.6956 11.5199C23.1898 11.6518 23.6998 11.7186 24.2165 11.7186C27.4537 11.7186 30.0871 9.0901 30.0871 5.85943C30.0871 5.21925 29.9841 4.58983 29.7809 3.98832C29.716 3.79583 29.5557 3.65049 29.3576 3.60472ZM5.18303 5.97273C5.07295 5.86264 4.92365 5.80656 4.76771 5.80656L3.43989 5.8061L1.3562 2.33397L2.36823 1.32391L5.8412 3.40399V4.72922C5.8412 4.8844 5.90289 5.03317 6.01274 5.14303L13.3898 12.5224L12.5594 13.351L5.18303 5.97273ZM20.1163 17.4022L28.2339 24.8347C29.1406 25.7493 29.1379 27.2301 28.2254 28.1413C27.3108 29.0541 25.8303 29.0569 24.912 28.1493L17.4515 20.0613L20.1163 17.4022ZM19.2503 16.6091L16.6555 19.1984L15.8629 18.3392L18.3878 15.819L19.2503 16.6091ZM24.2165 10.5467C23.703 10.5467 23.198 10.4645 22.716 10.3025C22.5048 10.2318 22.2713 10.2862 22.1135 10.4435C19.1703 13.381 12.8284 19.7102 10.4932 22.0412C10.3354 22.1986 10.2806 22.4316 10.3519 22.6427C10.8399 24.089 10.6064 25.6316 9.71114 26.8756C8.81836 28.1159 7.42908 28.8275 5.89991 28.8275C5.72814 28.8275 5.55729 28.8181 5.38805 28.8L7.25273 26.9534C7.36372 26.8436 7.42633 26.6939 7.42633 26.5375V24.88C7.42633 24.7246 7.36441 24.5756 7.25433 24.4657L5.57357 22.7882C5.4635 22.6784 5.3142 22.6166 5.15849 22.6166H3.49768C3.34105 22.6166 3.19107 22.6791 3.08076 22.7898L1.23076 24.6509C1.21241 24.482 1.20324 24.3114 1.20324 24.14C1.20324 22.6136 1.91599 21.2273 3.15896 20.3362C4.40514 19.4427 5.95105 19.2094 7.40041 19.6967C7.61163 19.7679 7.84509 19.7132 8.00286 19.5557C8.0352 19.5237 19.615 7.96629 19.6232 7.95805C19.781 7.80058 19.8356 7.56781 19.7645 7.35678C19.2763 5.91047 19.5093 4.36827 20.4039 3.12521C21.2973 1.88375 22.6869 1.17193 24.2163 1.17193C24.3933 1.17193 24.5692 1.18177 24.7435 1.201L22.9176 3.05059C22.8093 3.16023 22.7488 3.30786 22.7488 3.46167V5.11923C22.7488 5.27121 22.8077 5.41701 22.9134 5.52618L24.5355 7.20366C24.646 7.3181 24.7985 7.38264 24.9579 7.38264H26.6187C26.7751 7.38264 26.9251 7.32039 27.0354 7.20938L28.8854 5.34857C28.9038 5.51748 28.9129 5.688 28.9129 5.85943C28.9129 8.44397 26.8061 10.5467 24.2165 10.5467Z" fill="white"/>
<path d="M18.3163 10.9192L10.9697 18.2515C10.7406 18.4801 10.7406 18.8511 10.9697 19.08C11.199 19.3089 11.5708 19.3089 11.8001 19.08L19.1467 11.7478C19.376 11.5191 19.376 11.1481 19.1467 10.9192C18.9173 10.6903 18.5456 10.6903 18.3163 10.9192Z" fill="white"/>
<path d="M25.7354 26.4844C25.9647 26.7126 26.3364 26.7126 26.5658 26.4831C26.7946 26.254 26.7939 25.8829 26.5644 25.6545L21.2726 20.39C21.043 20.1616 20.6711 20.1623 20.4424 20.3914C20.2133 20.6207 20.214 20.9915 20.4436 21.2199L25.7354 26.4844Z" fill="white"/>
</g>
<defs>
<clipPath id="clip0">
<rect width="30" height="30" fill="white"/>
</clipPath>
</defs>
</svg>
