<svg width="32" height="32" viewBox="0 0 32 32" fill="none" xmlns="http://www.w3.org/2000/svg">
<g clip-path="url(#clip0)">
<path d="M27.9484 4.16146H27.5687C28.2925 2.98317 28.0252 1.40126 26.8637 0.539469C25.6121 -0.389013 23.8336 -0.0901441 22.9602 1.21508L20.9886 4.16152H4.05162C2.65946 4.16152 1.52686 5.29413 1.52686 6.68629V22.8281C1.52686 24.2203 2.65946 25.3529 4.05162 25.3529H13.8586L13.1176 28.4651H11.5183C10.476 28.4651 9.62801 29.313 9.62801 30.3553V30.75H7.65649C7.3113 30.75 7.0315 31.0299 7.0315 31.375C7.0315 31.7201 7.3113 32 7.65649 32H24.3436C24.6888 32 24.9686 31.7201 24.9686 31.375C24.9686 31.0299 24.6888 30.75 24.3436 30.75H22.3721V30.3553C22.3721 29.313 21.5241 28.4651 20.4818 28.4651H18.8825L18.1415 25.3529H27.9485C29.3406 25.3529 30.4732 24.2203 30.4732 22.8281V19.2763V6.68622C30.4732 5.29406 29.3406 4.16146 27.9484 4.16146ZM18.9935 15.1487C18.0163 15.8327 16.1856 14.9029 14.4374 15.8358C14.0109 13.6199 14.2798 11.5359 16.5001 11.0759C16.787 11.0161 17.0959 10.989 17.3589 10.9943C18.1104 11.5518 18.8705 12.1157 19.6199 12.6718C19.9479 13.626 19.8248 14.5668 18.9935 15.1487ZM19.6233 8.44956L21.3925 9.76216L20.0319 11.4209C19.4718 11.0054 18.9903 10.6481 18.4302 10.2325C18.5465 10.0587 19.517 8.60837 19.6233 8.44956ZM23.9991 1.91025C24.4725 1.20271 25.4379 1.03808 26.1189 1.54339C26.8001 2.04875 26.9221 3.02036 26.3823 3.67853C25.4245 4.8462 23.1474 7.62246 22.186 8.79462L20.3192 7.40952L23.9991 1.91025ZM21.122 30.3553V30.75H10.878V30.3553C10.878 30.0023 11.1652 29.7151 11.5183 29.7151H20.4817C20.8348 29.7151 21.122 30.0023 21.122 30.3553ZM17.5975 28.4651H14.4025L15.1435 25.3529H16.8566L17.5975 28.4651ZM29.2232 22.8281C29.2232 23.531 28.6514 24.1029 27.9485 24.1029C26.9564 24.1029 5.16716 24.1029 4.05168 24.1029C3.34876 24.1029 2.77689 23.531 2.77689 22.8281V19.9013H4.56286C4.90804 19.9013 5.18785 19.6214 5.18785 19.2763C5.18785 18.9312 4.90804 18.6513 4.56286 18.6513H2.77677V6.68622C2.77677 5.9833 3.34863 5.41144 4.05156 5.41144H20.1522C19.5534 6.30623 17.8067 8.91668 17.2534 9.74348C16.0286 9.75454 14.8058 10.1812 14.0053 11.1157C12.916 12.3872 12.7246 14.3852 13.4365 17.054C13.5582 17.5104 14.1276 17.6739 14.4722 17.3448C16.0882 15.8006 18.1009 17.4849 19.9033 16.0261C21.0035 15.1355 21.2639 13.7196 20.849 12.3957C21.4098 11.7119 26.0154 6.0968 26.5776 5.41144H27.9483C28.6513 5.41144 29.2231 5.9833 29.2231 6.68622V18.6512H9.56264C9.21746 18.6512 8.93765 18.9311 8.93765 19.2762C8.93765 19.6213 9.21746 19.9012 9.56264 19.9012H29.2232V22.8281Z" fill="white"/>
<path d="M6.94195 18.6632C6.64108 18.7247 6.43945 18.9848 6.43945 19.2764C6.43945 19.6674 6.79689 19.9667 7.18633 19.8889C7.53239 19.8187 7.74321 19.4852 7.67695 19.1539C7.60739 18.812 7.27577 18.596 6.94195 18.6632Z" fill="white"/>
</g>
<defs>
<clipPath id="clip0">
<rect width="32" height="32" fill="white"/>
</clipPath>
</defs>
</svg>
