<svg width="14" height="13" viewBox="0 0 14 13" fill="none" xmlns="http://www.w3.org/2000/svg">
<path d="M10.8178 8.53248C10.3958 8.11654 9.86898 8.11654 9.44969 8.53248C9.12985 8.84913 8.81 9.16578 8.49553 9.4878C8.40952 9.57636 8.33695 9.59514 8.23213 9.53611C8.02517 9.4234 7.80478 9.33216 7.60588 9.20872C6.6786 8.6264 5.90183 7.87771 5.21377 7.03509C4.87242 6.61647 4.5687 6.16832 4.35637 5.66382C4.31336 5.56185 4.32143 5.49476 4.40475 5.41158C4.72459 5.10297 5.03637 4.78632 5.35084 4.46967C5.78895 4.02958 5.78895 3.51434 5.34815 3.07157C5.09819 2.81932 4.84823 2.57244 4.59827 2.32019C4.34024 2.06257 4.0849 1.80227 3.82419 1.54734C3.40221 1.13677 2.87541 1.13677 2.45611 1.55003C2.13358 1.86668 1.82449 2.19138 1.49658 2.50267C1.19286 2.7898 1.03966 3.14134 1.00741 3.55191C0.95634 4.2201 1.12029 4.85073 1.35144 5.46525C1.82449 6.73722 2.54481 7.86697 3.41834 8.9028C4.59827 10.3036 6.00666 11.4119 7.65426 12.2116C8.39608 12.5711 9.16479 12.8475 10.0007 12.8932C10.5759 12.9254 11.0758 12.7805 11.4763 12.3323C11.7504 12.0264 12.0595 11.7473 12.3498 11.4548C12.7798 11.0201 12.7825 10.4941 12.3552 10.0648C11.8445 9.55221 11.3311 9.04234 10.8178 8.53248Z" fill="white"/>
<path d="M10.3042 6.39209L11.296 6.22299C11.1401 5.31305 10.71 4.48901 10.0569 3.83407C9.36614 3.14424 8.49261 2.7094 7.53039 2.5752L7.39062 3.57102C8.13514 3.67571 8.81246 4.01123 9.34732 4.54538C9.85263 5.05 10.1832 5.68884 10.3042 6.39209Z" fill="white"/>
<path d="M11.8552 2.08788C10.7102 0.944645 9.26145 0.222743 7.66223 0L7.52246 0.995634C8.90398 1.18886 10.1565 1.81415 11.1456 2.79905C12.0836 3.73564 12.6991 4.91913 12.9222 6.2207L13.914 6.05163C13.6533 4.54342 12.941 3.17476 11.8552 2.08788Z" fill="white"/>
</svg>
