[
  {
    "name": "shopee",
    "text": "Shopee",
    "url": "https://shopee.vn"
  },
  {
    "name": "lazada",
    "text": "Lazada",
    "url": "https://www.lazada.vn"
  },
  {
    "name": "tiki",
    "text": "Tiki",
    "url": "https://tiki.vn"
  },
  {
    "name": "sendo",
    "text": "Sendo",
    "url": "https://www.sendo.vn"
  }
]