<svg width="16" height="17" viewBox="0 0 16 17" fill="none" xmlns="http://www.w3.org/2000/svg">
<path d="M8.00004 2.2981C4.32004 2.2981 1.33337 5.21443 1.33337 8.80777C1.33337 12.4011 4.32004 15.3174 8.00004 15.3174C11.68 15.3174 14.6667 12.4011 14.6667 8.80777C14.6667 5.21443 11.68 2.2981 8.00004 2.2981ZM8.00004 4.251C9.10671 4.251 10 5.12329 10 6.2039C10 7.28451 9.10671 8.1568 8.00004 8.1568C6.89337 8.1568 6.00004 7.28451 6.00004 6.2039C6.00004 5.12329 6.89337 4.251 8.00004 4.251ZM8.00004 13.4947C6.33337 13.4947 4.86004 12.6615 4.00004 11.3986C4.02004 10.1032 6.66671 9.39364 8.00004 9.39364C9.32671 9.39364 11.98 10.1032 12 11.3986C11.14 12.6615 9.66671 13.4947 8.00004 13.4947Z" fill="#D0203F"/>
</svg>
