<svg width="16" height="16" viewBox="0 0 16 16" fill="none" xmlns="http://www.w3.org/2000/svg">
<path d="M8 8.5C6.07614 8.5 4.5 6.92386 4.5 5V4C4.5 2.07614 6.07614 0.5 8 0.5C9.92386 0.5 11.5 2.07614 11.5 4V5C11.5 6.92386 9.92386 8.5 8 8.5Z" fill="#3F4755" stroke="#3F4755"/>
<path d="M6 11.5H10C12.3546 11.5 14.2325 13.22 14.4738 15.5H1.52624C1.76754 13.22 3.64542 11.5 6 11.5Z" fill="#3F4755" stroke="#3F4755"/>
</svg>
