<svg width="14" height="24" viewBox="0 0 14 24" fill="none" xmlns="http://www.w3.org/2000/svg">
<path d="M4.32102 12L13.2577 3.07032C13.9187 2.40939 13.9187 1.34064 13.2577 0.686729C12.5968 0.0257702 11.528 0.0328197 10.8671 0.686729L0.742109 10.8047C0.102269 11.4445 0.0882282 12.4711 0.692908 13.132L10.8601 23.3203C11.1905 23.6508 11.6265 23.8125 12.0554 23.8125C12.4843 23.8125 12.9202 23.6508 13.2507 23.3203C13.9116 22.6594 13.9116 21.5906 13.2507 20.9367L4.32102 12Z" fill="#FF6F96"/>
</svg>
