<svg width="16" height="12" viewBox="0 0 16 12" fill="none" xmlns="http://www.w3.org/2000/svg">
<path d="M16 5.13172C16 4.15504 15.2054 3.36041 14.2287 3.36041C13.446 3.36041 12.7749 3.87166 12.5436 4.5851H11.1386C10.9891 4.27713 10.7892 3.97888 10.5394 3.69179C10.0351 3.11229 9.33653 2.58882 8.46306 2.13588C6.83525 1.29179 5.02012 0.907349 4.02253 0.907349C2.92434 0.907349 1.89994 1.45335 1.13794 2.44479C0.404156 3.3996 0 4.66219 0 6.00007C0 7.33791 0.404156 8.60054 1.13797 9.55538C1.89994 10.5468 2.92438 11.0928 4.02256 11.0928C5.02016 11.0928 6.83528 10.7084 8.46309 9.86429C9.33656 9.41135 10.0352 8.88785 10.5394 8.30838C10.7892 8.02129 10.9892 7.723 11.1386 7.41504H12.5436C12.7749 8.12847 13.446 8.63972 14.2287 8.63972C15.2054 8.63972 16 7.84513 16 6.86841C16 6.5616 15.9208 6.26322 15.7726 6.00007C15.9208 5.73691 16 5.43847 16 5.13172ZM4.02256 10.1553C2.32144 10.1553 0.9375 8.29125 0.9375 6.00007C0.9375 3.70885 2.32144 1.84482 4.02256 1.84482C5.72366 1.84482 7.10759 3.70885 7.10759 6.00007C7.10759 8.29125 5.72366 10.1553 4.02256 10.1553ZM8.0315 9.03204C7.67631 9.21622 7.30556 9.37844 6.93497 9.51826C7.65103 8.56794 8.04506 7.32079 8.04506 6.0001C8.04506 4.67941 7.651 3.43225 6.93497 2.48194C7.30556 2.62172 7.67628 2.78397 8.0315 2.96816C9.17188 3.55941 10.5312 4.56547 10.5312 6.00007C10.5312 7.43466 9.17188 8.44072 8.0315 9.03204ZM14.8501 6.31272C14.9871 6.46572 15.0625 6.66307 15.0625 6.86841C15.0625 7.32816 14.6885 7.70222 14.2287 7.70222C13.788 7.70222 13.4225 7.35804 13.3966 6.91866L13.3706 6.47754H11.4327C11.4566 6.32022 11.4688 6.16104 11.4688 6.00007C11.4688 5.83907 11.4566 5.67988 11.4327 5.5226H13.3706L13.3966 5.08147C13.4225 4.6421 13.788 4.29791 14.2287 4.29791C14.6885 4.29791 15.0625 4.67194 15.0625 5.13172C15.0625 5.33707 14.9871 5.53441 14.8501 5.68741L14.5702 6.00007L14.8501 6.31272Z" fill="#707070"/>
</svg>
