<svg width="30" height="30" viewBox="0 0 30 30" fill="none" xmlns="http://www.w3.org/2000/svg">
<path d="M25.6066 19.3934C23.9729 17.7596 22.0283 16.5502 19.9066 15.8181C22.179 14.253 23.6719 11.6337 23.6719 8.67188C23.6719 3.89021 19.7817 0 15 0C10.2183 0 6.32812 3.89021 6.32812 8.67188C6.32812 11.6337 7.82104 14.253 10.0935 15.8181C7.9718 16.5502 6.02719 17.7596 4.39342 19.3934C1.83804 21.9488 0.318166 25.2638 0.0447183 28.8292C-0.00477385 29.4745 0.524666 30 1.17188 30C1.81908 30 2.33806 29.4736 2.39744 28.8292C2.99014 22.3972 8.41602 17.3438 15 17.3438C21.584 17.3438 27.0099 22.3972 27.6026 28.8292C27.6619 29.4736 28.1809 30 28.8281 30C29.4753 30 30.0048 29.4745 29.9553 28.8292C29.6818 25.2638 28.162 21.9488 25.6066 19.3934ZM15 15C11.5107 15 8.67188 12.1613 8.67188 8.67188C8.67188 5.1825 11.5107 2.34375 15 2.34375C18.4893 2.34375 21.3281 5.1825 21.3281 8.67188C21.3281 12.1613 18.4893 15 15 15Z" fill="white"/>
</svg>
