<svg width="11" height="14" viewBox="0 0 11 14" fill="none" xmlns="http://www.w3.org/2000/svg">
<path d="M5.9819 0C3.23379 0 0.998047 2.23223 0.998047 4.97599C0.998047 8.38109 5.45811 13.38 5.648 13.5911C5.82636 13.7895 6.13777 13.7891 6.3158 13.5911C6.5057 13.38 10.9658 8.38109 10.9658 4.97599C10.9657 2.23223 8.72999 0 5.9819 0ZM5.9819 7.47956C4.59926 7.47956 3.47443 6.35646 3.47443 4.97599C3.47443 3.59552 4.59929 2.47246 5.9819 2.47246C7.36452 2.47246 8.48935 3.59555 8.48935 4.97602C8.48935 6.35649 7.36452 7.47956 5.9819 7.47956Z" fill="white"/>
</svg>
