<svg width="60" height="60" viewBox="0 0 60 60" fill="none" xmlns="http://www.w3.org/2000/svg">
<g clip-path="url(#clip0)">
<path d="M18.2813 43.3596C17.6344 43.3596 17.1094 43.8846 17.1094 44.5315C17.1094 45.1784 17.6344 45.7034 18.2813 45.7034C18.9281 45.7034 19.4531 45.1784 19.4531 44.5315C19.4531 43.8846 18.9281 43.3596 18.2813 43.3596Z" fill="#3A6182"/>
<path d="M52.7509 22.2664L59.6567 15.3606C59.9472 15.0701 60.0643 14.6487 59.9655 14.25C59.8667 13.8512 59.5662 13.5334 59.1736 13.4123L42.3572 8.22203C40.8413 3.34925 36.3357 0.000854492 31.1716 0.000854492C26.3711 0.000854492 22.0778 2.92644 20.3009 7.33972L0.8227 13.4133C0.431176 13.5354 0.13188 13.8535 0.0337936 14.2518C-0.0642923 14.65 0.0528952 15.0707 0.342934 15.3607L7.43032 22.4481L2.96032 29.8983C2.77739 30.2031 2.74282 30.5745 2.8661 30.9079C2.98938 31.2413 3.25739 31.5006 3.59465 31.613L10.0778 33.7739V51.7976C10.0778 52.286 10.3809 52.7233 10.8382 52.8948C14.8023 54.3812 29.5311 59.9052 29.6102 59.9332C29.8427 60.0151 30.1046 60.0263 30.3599 59.9437C30.3633 59.9425 30.3668 59.9418 30.3702 59.9406L51.464 52.9094C51.9425 52.7499 52.2653 52.302 52.2653 51.7976V33.2914L59.1791 31.1187C59.5701 30.9959 59.8684 30.6778 59.966 30.2799C60.0635 29.8819 59.9462 29.4619 59.6566 29.1721L52.7509 22.2664ZM42.8903 11.7196C42.8903 11.4218 42.8778 11.1248 42.8554 10.8286L56.6242 15.0784L50.7769 20.9256L41.2228 17.7413C42.3047 15.933 42.8903 13.8463 42.8903 11.7196ZM22.3036 8.66945C23.6045 4.8864 27.1683 2.3446 31.1716 2.3446C35.4842 2.3446 39.2246 5.26164 40.2674 9.4382C40.4527 10.1803 40.5466 10.9479 40.5466 11.7196C40.5466 13.8962 39.8242 15.9364 38.4573 17.6202C36.6671 19.8283 34.0115 21.0946 31.1716 21.0946C28.1017 21.0946 25.2223 19.5878 23.4685 17.0629C22.3748 15.4919 21.7966 13.6441 21.7966 11.7196C21.7966 10.673 21.9671 9.64679 22.3036 8.66945ZM3.37059 15.0739L19.5776 10.0203C19.4963 10.5802 19.4528 11.1474 19.4528 11.7195C19.4528 13.6063 19.8998 15.4339 20.7517 17.0828L9.22246 20.9256L3.37059 15.0739ZM5.72172 29.8514L9.42719 23.6754L28.2432 29.9474L24.5378 36.1234C22.5286 35.4537 7.86696 30.5664 5.72172 29.8514ZM28.8278 57.138L12.4216 50.9856V34.5552C25.3298 38.8351 24.6994 38.7045 25.0588 38.7045C25.4617 38.7045 25.8475 38.496 26.0639 38.1354L28.8278 33.5287V57.138ZM29.9997 28.0625L12.6119 22.2666L22.0799 19.1107C24.2959 21.835 27.6319 23.4384 31.1716 23.4384C34.446 23.4384 37.5235 22.0908 39.737 19.7166L47.3875 22.2665L29.9997 28.0625ZM49.9216 50.953L31.1716 57.203V32.6382L35.326 37.8307C35.6282 38.2084 36.1313 38.3615 36.5924 38.2166L49.9216 34.028V50.953ZM36.655 35.7403L31.9647 29.8779L50.7769 23.6072L56.6321 29.4624L36.655 35.7403Z" fill="#3A6182"/>
<path d="M25.7239 45.9607L23.1176 44.9833C22.5117 44.7562 21.8362 45.0631 21.6089 45.6691C21.3816 46.2752 21.6887 46.9507 22.2946 47.1779L24.9009 48.1552C25.5082 48.3828 26.1828 48.0744 26.4097 47.4695C26.6369 46.8635 26.3299 46.1879 25.7239 45.9607Z" fill="#3A6182"/>
<path d="M25.7236 50.967L18.6924 48.3303C18.0864 48.1031 17.411 48.4101 17.1836 49.0161C16.9563 49.6221 17.2634 50.2976 17.8694 50.5249L24.9006 53.1616C25.0362 53.2124 25.1752 53.2366 25.312 53.2366C25.7865 53.2366 26.2329 52.9463 26.4094 52.4758C26.6368 51.8697 26.3297 51.1942 25.7236 50.967Z" fill="#3A6182"/>
<path d="M37.8599 7.37463C37.4023 6.91689 36.6602 6.91701 36.2025 7.37463L29.9999 13.5774L28.4848 12.0622C28.0272 11.6046 27.2851 11.6046 26.8274 12.0622C26.3697 12.5199 26.3698 13.2619 26.8274 13.7196L29.1713 16.0633C29.6289 16.5209 30.3709 16.5209 30.8286 16.0633L37.8599 9.03201C38.3175 8.57439 38.3175 7.83236 37.8599 7.37463Z" fill="#3A6182"/>
</g>
<defs>
<clipPath id="clip0">
<rect width="60" height="60" fill="white"/>
</clipPath>
</defs>
</svg>
