<svg width="40" height="40" viewBox="0 0 40 40" fill="none" xmlns="http://www.w3.org/2000/svg">
<g clip-path="url(#clip0)">
<path d="M38.8 18.2C36.6 12.4 30.8 9.4 24.4 10.6C18.2 4.4 9.6 0.2 1 0C0.4 0 0 0.4 0 1C0.2 9.6 4.4 18.2 10.4 24.4C9.4 30.6 12.2 36.6 18 38.8C17 36.2 16.8 33.2 17.6 30.2C18.6 30.8 19.6 31.4 20.6 31.8C21 32 21.4 32 21.8 31.6L31.8 21.6C32 21.4 32 21 31.8 20.6C31.4 19.6 30.8 18.6 30.2 17.8C33.2 17 36.2 17.2 38.8 18.2ZM16.8 16.8C15.2 18.4 12.8 18.4 11.2 16.8C9.6 15.2 9.6 12.8 11.2 11.2C12.8 9.6 15.2 9.6 16.8 11.2C18.4 12.8 18.4 15.2 16.8 16.8Z" fill="white"/>
<path d="M39.4 28.8L35.2 24.6C34.4 23.8 33.2 23.8 32.4 24.6C31.6 25.4 31.6 26.6 32.4 27.4L36.6 31.6C37.4 32.4 38.6 32.4 39.4 31.6C40.2 30.8 40.2 29.6 39.4 28.8Z" fill="white"/>
<path d="M31.6 36.5999L27.4 32.3999C26.6 31.5999 25.4 31.5999 24.6 32.3999C23.8 33.1999 23.8 34.3999 24.6 35.1999L28.8 39.3999C29.6 40.1999 30.8 40.1999 31.6 39.3999C32.4 38.5999 32.4 37.3999 31.6 36.5999Z" fill="white"/>
<path d="M36.9999 34.4L31.1999 28.6C30.3999 27.8 29.1999 27.8 28.3999 28.6C27.5999 29.4 27.5999 30.6 28.3999 31.4L34.1999 37.2C34.9999 38 36.1999 38 36.9999 37.2C37.7999 36.4 37.7999 35.2 36.9999 34.4Z" fill="white"/>
</g>
<defs>
<clipPath id="clip0">
<rect width="40" height="40" fill="white"/>
</clipPath>
</defs>
</svg>
