<svg width="40" height="40" viewBox="0 0 40 40" fill="none" xmlns="http://www.w3.org/2000/svg">
<path d="M32.4616 34.8388L30.968 30.3575C30.4461 28.7929 29.1145 27.6381 27.4913 27.3426L23.1797 26.5581V26.2239C23.93 25.7884 24.5829 25.2059 25.1029 24.5162H26.4055C27.4726 24.5162 28.341 23.6478 28.341 22.5807V14.8388C28.341 10.2142 24.5784 6.45166 19.9539 6.45166C15.3293 6.45166 11.5668 10.2142 11.5668 14.8388V19.3549C11.5668 20.5988 12.4513 21.6394 13.6242 21.882C13.9861 23.7362 15.1448 25.3052 16.728 26.2239V26.5581L12.4158 27.3426C10.7932 27.6381 9.46095 28.7929 8.93966 30.3575L8.68159 31.1323L6.48417 28.9349C6.23256 28.6833 6.23256 28.2736 6.48417 28.022L9.03256 25.4742L4.24933 20.691L1.36933 23.571C0.51643 24.4239 0.0467529 25.5581 0.0467529 26.7646C0.0467529 27.971 0.51643 29.1046 1.36933 29.9575L10.0887 38.6768C10.9416 39.5297 12.0758 40 13.2822 40C14.4887 40 15.6222 39.5297 16.4551 38.6962L19.5977 35.8168L18.6177 34.8388H32.4616ZM27.0506 22.5807C27.0506 22.9368 26.761 23.2259 26.4055 23.2259H25.8629C26.05 22.7994 26.1919 22.3497 26.2835 21.882C26.5597 21.8246 26.8139 21.7149 27.0506 21.5768V22.5807ZM26.4055 20.4659V18.2439C26.7893 18.4678 27.0506 18.8794 27.0506 19.3549C27.0506 19.8304 26.7893 20.242 26.4055 20.4659ZM13.5022 20.4659C13.1184 20.242 12.8571 19.8304 12.8571 19.3549C12.8571 18.8794 13.1184 18.4678 13.5022 18.2439V20.4659ZM13.5022 16.1291V16.8659C13.2726 16.9259 13.0571 17.0162 12.8571 17.1329V14.8388C12.8571 10.9259 16.0409 7.74198 19.9539 7.74198C23.8668 7.74198 27.0506 10.9259 27.0506 14.8388V17.1329C26.8506 17.0162 26.6351 16.9252 26.4055 16.8659V16.1291H25.7603C23.8526 16.1291 22.059 15.3859 20.7093 14.0368L19.9539 13.2813L19.1984 14.0368C17.8487 15.3859 16.0551 16.1291 14.1474 16.1291H13.5022ZM14.7926 20.6452V17.3949C16.73 17.2491 18.5364 16.4497 19.9539 15.102C21.3713 16.4497 23.1777 17.2497 25.1151 17.3949V20.6452C25.1151 21.5859 24.8584 22.4659 24.4171 23.2259H19.9539V24.5162H23.3564C22.4468 25.3168 21.2577 25.8065 19.9539 25.8065C17.108 25.8065 14.7926 23.491 14.7926 20.6452ZM21.8893 26.7994V26.8297L19.9539 28.7652L18.0184 26.8297V26.7994C18.63 26.9917 19.2797 27.0968 19.9539 27.0968C20.628 27.0968 21.2777 26.9917 21.8893 26.7994ZM10.1629 30.7652C10.5351 29.6478 11.4868 28.8226 12.6461 28.611L17.1558 27.7917L19.9539 30.5897L22.7513 27.7923L27.2603 28.6117C28.4197 28.8233 29.3713 29.6478 29.7435 30.7659L30.6719 33.5484H17.3274L14.8145 31.0355L12.0222 33.5613C11.779 33.8059 11.3539 33.8059 11.11 33.5613L9.70095 32.1523L10.1629 30.7652ZM4.24869 22.5155L7.2074 25.4742L6.50675 26.1749L3.54804 23.2162L4.24869 22.5155ZM15.5616 37.7659C14.9526 38.3736 14.1422 38.7097 13.2809 38.7097C12.4197 38.7097 11.6093 38.3736 10.9997 37.7646L2.2803 29.0459C1.67127 28.4368 1.33579 27.6265 1.33579 26.7652C1.33579 25.9033 1.67127 25.093 2.2803 24.4839L2.63514 24.1291L5.59385 27.0878L5.57062 27.111C4.81643 27.8659 4.81643 29.0936 5.57062 29.8484L10.1971 34.4749C10.5629 34.84 11.0487 35.042 11.5661 35.042C12.0835 35.042 12.5693 34.8407 12.9113 34.4975L12.9597 34.4542L15.9319 37.4265L15.5616 37.7659ZM16.8842 36.5529L13.9184 33.5871L14.7706 32.8168L17.7313 35.7775L16.8842 36.5529Z" fill="#3A8E08"/>
<path d="M38.0184 0H28.9861C27.919 0 27.0507 0.868387 27.0507 1.93548V7.09677C27.0507 8.16387 27.919 9.03226 28.9861 9.03226H30.7094L30.0423 12.9232L36.2681 9.03226H38.0184C39.0855 9.03226 39.9539 8.16387 39.9539 7.09677V1.93548C39.9539 0.868387 39.0855 0 38.0184 0ZM38.6636 7.09677C38.6636 7.45226 38.3739 7.74194 38.0184 7.74194H35.8977L31.8003 10.3026L32.2397 7.74194H28.9861C28.6307 7.74194 28.341 7.45226 28.341 7.09677V1.93548C28.341 1.58 28.6307 1.29032 28.9861 1.29032H38.0184C38.3739 1.29032 38.6636 1.58 38.6636 1.93548V7.09677Z" fill="#3A8E08"/>
<path d="M37.3732 2.58069H29.6312V3.87101H37.3732V2.58069Z" fill="#3A8E08"/>
<path d="M34.7925 5.16125H29.6312V6.45158H34.7925V5.16125Z" fill="#3A8E08"/>
<path d="M37.3732 5.16125H36.0829V6.45158H37.3732V5.16125Z" fill="#3A8E08"/>
<path d="M19.9539 1.93555C11.5242 1.93555 4.26292 7.76652 2.37517 15.9001L1.15259 13.862L0.0461426 14.5259L2.31388 18.3046L6.09259 16.0368L5.42872 14.9304L3.68034 15.9794C5.50872 8.53877 12.1997 3.22587 19.9539 3.22587C21.6487 3.22587 23.321 3.47748 24.9242 3.97426L25.3061 2.742C23.579 2.20651 21.7784 1.93555 19.9539 1.93555Z" fill="#3A8E08"/>
<path d="M39.6402 14.2852L35.8615 12.0175L33.5944 15.7968L34.7009 16.4607L35.8299 14.5787C36.4241 16.3175 36.728 18.1362 36.728 20C36.728 23.8368 35.399 27.5878 32.9867 30.5613L33.9886 31.3742C36.5873 28.1717 38.0183 24.1317 38.0183 20C38.0183 18.0265 37.7002 16.0994 37.0802 14.2542L38.9764 15.3917L39.6402 14.2852Z" fill="#3A8E08"/>
</svg>
