<svg width="32" height="32" viewBox="0 0 32 32" fill="none" xmlns="http://www.w3.org/2000/svg">
<path d="M27.6437 15.0103C27.3268 14.6232 26.8513 14.4012 26.3392 14.4012H21.7171L17 4.50162C16.8446 4.15522 16.4301 3.99693 16.0743 4.14829C15.7184 4.29956 15.5559 4.70308 15.7113 5.04952L20.1826 14.4012H11.8174L16.4372 5.04952C16.5926 4.70308 16.4301 4.2996 16.0743 4.14829C15.7184 3.99693 15.3039 4.15513 15.1485 4.50162L10.2829 14.4012H5.66083C5.14867 14.4012 4.67322 14.6232 4.3563 15.0103C4.04519 15.3904 3.93039 15.8789 4.04135 16.3508L6.50964 26.8462C6.682 27.5791 7.34795 28.0909 8.12913 28.0909H23.8709C24.652 28.0909 25.318 27.5791 25.4904 26.8462L27.9587 16.3508C28.0696 15.8789 27.9548 15.3903 27.6437 15.0103ZM23.8709 26.7219H8.12913C8.00974 26.7219 7.90516 26.6457 7.88046 26.5406L5.41216 16.0453C5.3928 15.963 5.42528 15.901 5.45603 15.8635C5.48453 15.8287 5.54908 15.7702 5.66083 15.7702H9.66878L9.48461 16.1808C9.32922 16.5272 9.49169 16.9307 9.84756 17.082C9.93916 17.121 10.0346 17.1394 10.1286 17.1394C10.3996 17.1394 10.6579 16.9859 10.7733 16.7287L11.2033 15.7703H20.7968L21.2268 16.7287C21.3422 16.986 21.6005 17.1394 21.8715 17.1394C21.9655 17.1394 22.0609 17.121 22.1525 17.082C22.5084 16.9307 22.6709 16.5272 22.5155 16.1808L22.3313 15.7702H26.3393C26.451 15.7702 26.5156 15.8287 26.5441 15.8635C26.5748 15.901 26.6073 15.963 26.5879 16.0453L24.1196 26.5407C24.0949 26.6457 23.9903 26.7219 23.8709 26.7219Z" fill="white"/>
<path d="M16 18V24" stroke="white" stroke-linecap="round"/>
<path d="M13 21H19" stroke="white" stroke-linecap="round"/>
</svg>
