{
    "products": [
        135,
        134,
        133,
        132
    ],
    "categories": [
        34,
        32,
        33
    ],
    "collections": [

    ],
    "seo_urls": [],
    "theme_builder_configs": [],
    "blogs": []
}