{
    "css": [
        "stylesheet/style.css",
        "stylesheet/jquery-ui.css",
        "node_modules/swiper/dist/css/swiper.min.css",
        "stylesheet/style.css",
        "stylesheet/bestme.css",
        "stylesheet/bootstrap-select.min.css",
        "node_modules/bootstrap/dist/css/bootstrap.min.css",
        "node_modules/owl.carousel/dist/assets/owl.carousel.min.css",
        "node_modules/owl.carousel/dist/assets/owl.theme.default.min.css",
        "node_modules/font-awesome/css/font-awesome.min.css",
        "fonts/montserrat.css",
        "fonts/nunito.css",
        "fonts/opensans.css",
        "fonts/roboto.css"
    ],
    "js": [
        "node_modules/jquery/dist/jquery.min.js",
        "js/jquery-ui.min.js",
        "js/popper.min.js",
        "node_modules/bootstrap/dist/js/bootstrap.min.js",
        "node_modules/owl.carousel/dist/owl.carousel.min.js",
        "node_modules/swiper/dist/js/swiper.min.js",
        "js/bootstrap-select.min.js",
        "js/lazysizes.min.js"
    ],
    "version": 2
}
