<svg width="16" height="16" viewBox="0 0 16 16" fill="none" xmlns="http://www.w3.org/2000/svg">
<g clip-path="url(#clip0)">
<path d="M11.75 3.78137H8.46562V1.37028L11.3501 0.932312C11.606 0.893468 11.782 0.654437 11.7431 0.398499C11.7043 0.142562 11.4652 -0.0336881 11.2093 0.00543689L7.9265 0.503874C7.69741 0.538656 7.52809 0.735593 7.52809 0.967312V3.78134H4.25C3.47459 3.78134 2.84375 4.41216 2.84375 5.18759V6.12509C2.84375 6.38397 3.05362 6.59384 3.3125 6.59384H3.8225L4.71791 15.5777C4.74181 15.8175 4.9435 16 5.18437 16H10.8125C11.0534 16 11.2552 15.8174 11.279 15.5776L12.1714 6.59387H12.6875C12.9464 6.59387 13.1562 6.384 13.1562 6.12512V5.18762C13.1562 4.41219 12.5254 3.78137 11.75 3.78137ZM10.7171 11.7501H5.27856L5.09153 9.87353H10.9034L10.7171 11.7501ZM5.60872 15.0625L5.372 12.6876H10.6239L10.388 15.0625H5.60872ZM10.9966 8.93603H4.99809L4.76466 6.59384H11.2292L10.9966 8.93603ZM12.2188 5.65637C11.8257 5.65637 4.35337 5.65637 3.78125 5.65637V5.18762C3.78125 4.92916 3.99153 4.71887 4.25 4.71887H11.75C12.0085 4.71887 12.2188 4.92912 12.2188 5.18762V5.65637Z" fill="#707070"/>
</g>
<defs>
<clipPath id="clip0">
<rect width="16" height="16" fill="white"/>
</clipPath>
</defs>
</svg>
