<svg width="24" height="24" viewBox="0 0 24 24" fill="none" xmlns="http://www.w3.org/2000/svg">
<path d="M19 8.85C19.4694 8.85 19.85 8.46944 19.85 8C19.85 7.53056 19.4694 7.15 19 7.15V8.85ZM11 7.15C10.5306 7.15 10.15 7.53056 10.15 8C10.15 8.46944 10.5306 8.85 11 8.85V7.15ZM19 7.15H11V8.85H19V7.15Z" fill="#707070"/>
<path d="M13 16.85C13.4694 16.85 13.85 16.4694 13.85 16C13.85 15.5306 13.4694 15.15 13 15.15V16.85ZM5 15.15C4.53056 15.15 4.15 15.5306 4.15 16C4.15 16.4694 4.53056 16.85 5 16.85V15.15ZM13 15.15H5V16.85H13V15.15Z" fill="#707070"/>
<circle cx="7" cy="8" r="3.5" stroke="#707070" stroke-width="1.7"/>
<circle cx="17" cy="16" r="3.5" stroke="#707070" stroke-width="1.7"/>
</svg>
