<svg width="10" height="16" viewBox="0 0 10 16" fill="none" xmlns="http://www.w3.org/2000/svg">
<path d="M9.37432 11.0304L7.59107 5.29534H8.07847V2.47297H6.71344L5.94451 0H4.05529L3.28632 2.47297H1.92125V5.29534H2.40866L0.625411 11.0304C0.25988 12.2059 0.468849 13.4487 1.19879 14.4401C1.92869 15.4314 3.05338 16 4.28444 16H5.71529C6.94638 16 8.07107 15.4314 8.80094 14.4401C9.53088 13.4487 9.73988 12.2059 9.37432 11.0304ZM4.74551 0.9375H5.25422L5.73166 2.47297H4.26804L4.74551 0.9375ZM2.85875 3.41047H7.14097V4.35784H2.85875V3.41047ZM8.04607 13.8842C7.49472 14.633 6.64516 15.0625 5.71532 15.0625H4.28447C3.3546 15.0625 2.50507 14.633 1.95372 13.8842C1.40238 13.1354 1.24457 12.1967 1.52066 11.3088L3.39047 5.29534H6.60935L8.47916 11.3088C8.75522 12.1967 8.59738 13.1354 8.04607 13.8842Z" fill="#707070"/>
<path d="M6.86092 9.26201C6.60608 8.44238 5.85814 7.89172 4.99986 7.89172C4.14157 7.89172 3.39366 8.44238 3.13879 9.26201L2.41582 11.5871C2.22735 12.1932 2.33744 12.8325 2.71794 13.341C3.08532 13.8319 3.67876 14.125 4.30539 14.125H5.6943C6.32095 14.125 6.91436 13.8319 7.28174 13.3409C7.66224 12.8325 7.77233 12.1932 7.58386 11.5871L6.86092 9.26201ZM6.53114 12.7793C6.33986 13.0349 6.02702 13.1875 5.69433 13.1875H4.30542C3.97273 13.1875 3.65988 13.0349 3.4686 12.7793C3.27032 12.5143 3.21288 12.1812 3.31107 11.8655L4.03404 9.54042C4.16632 9.11507 4.55445 8.82926 4.99989 8.82926C5.44533 8.82926 5.83345 9.11507 5.96573 9.54042L6.6887 11.8655C6.78686 12.1812 6.72942 12.5143 6.53114 12.7793Z" fill="#707070"/>
</svg>
