<svg width="32" height="32" viewBox="0 0 32 32" fill="none" xmlns="http://www.w3.org/2000/svg">
<rect width="32" height="32" fill="#E5E5E5"/>
<rect width="1440" height="3785" transform="translate(-1021 -3650)" fill="white"/>
<rect x="-1021" y="-187" width="1440" height="322" fill="#F6F7F9"/>
<path d="M0 0V32H17.042V19.6391H12.876V14.593H17.042V10.3552C17.042 7.27315 19.5404 4.77469 22.6224 4.77469H26.9777V9.31225H23.8613C22.882 9.31225 22.088 10.1062 22.088 11.0855V14.5931H26.8994L26.2344 19.6391H22.088V32H32V0H0Z" fill="#3A559F"/>
</svg>
