<svg width="18" height="14" viewBox="0 0 18 14" fill="none" xmlns="http://www.w3.org/2000/svg">
<path d="M15.5938 1H2.40625C1.63181 1 1 1.63112 1 2.40625V11.7812C1 12.5538 1.629 13.1875 2.40625 13.1875H15.5938C16.3663 13.1875 17 12.5585 17 11.7812V2.40625C17 1.63375 16.371 1 15.5938 1ZM15.3996 1.9375L9.02981 8.30728L2.60497 1.9375H15.3996ZM1.9375 11.5871V2.59591L6.45247 7.07216L1.9375 11.5871ZM2.60041 12.25L7.11822 7.73219L8.70125 9.30163C8.8845 9.48331 9.18022 9.48272 9.36272 9.30019L10.9062 7.75666L15.3996 12.25H2.60041ZM16.0625 11.5871L11.5692 7.09375L16.0625 2.60037V11.5871Z" fill="white" stroke="white" stroke-width="0.5"/>
</svg>
