<svg width="11" height="11" viewBox="0 0 11 11" fill="none" xmlns="http://www.w3.org/2000/svg">
<path d="M5.11661 0.815217C5.21 0.546549 5.58996 0.546548 5.68335 0.815216L6.74212 3.86117C6.78332 3.97969 6.89393 4.06006 7.01938 4.06261L10.2434 4.12831C10.5278 4.13411 10.6452 4.49547 10.4186 4.66731L7.84887 6.61552C7.74888 6.69133 7.70663 6.82135 7.74297 6.94146L8.67677 10.028C8.75913 10.3003 8.45174 10.5236 8.21827 10.3611L5.57133 8.51924C5.46834 8.44757 5.33162 8.44757 5.22862 8.51924L2.58169 10.3611C2.34822 10.5236 2.04082 10.3003 2.12319 10.028L3.05699 6.94146C3.09333 6.82135 3.05108 6.69133 2.95109 6.61552L0.381391 4.66731C0.154731 4.49547 0.272145 4.13411 0.556522 4.12831L3.78058 4.06261C3.90603 4.06006 4.01664 3.97969 4.05784 3.86117L5.11661 0.815217Z" fill="#3F3F3F"/>
</svg>
