<svg width="11" height="11" viewBox="0 0 11 11" fill="none" xmlns="http://www.w3.org/2000/svg">
<path d="M4.33018 4.02534L5.20004 1.52286L6.0699 4.02534C6.17976 4.34139 6.47472 4.55569 6.80925 4.56251L9.45806 4.61649L7.34686 6.21708C7.08022 6.41923 6.96756 6.76597 7.06445 7.08624L7.83164 9.62208L5.65699 8.10883C5.38233 7.91771 5.01775 7.91771 4.7431 8.10883L2.56845 9.62208L3.33563 7.08624C3.43253 6.76597 3.31987 6.41924 3.05323 6.21708L0.942028 4.61649L3.59083 4.56251C3.92536 4.55569 4.22032 4.3414 4.33018 4.02534Z" stroke="#3F3F3F"/>
</svg>
