{
    "products": [
        136,
        135,
        134,
        133,
        132
    ],
    "categories": [
        33,
        32
    ],
    "collections": [

    ],
    "seo_urls": [],
    "theme_builder_configs": [],
    "blogs": []
}