{
    "config_theme_color": {
        "main": {
            "main": {
                "hex": "#0058AB ",
                "visible": 1
            },
            "button": {
                "hex": "#0058AB ",
                "visible": 1
            }
        }
    },
    "config_theme_text": {
        "all": {
            "title": "Font Tahoma",
            "font": "Tahoma",
            "supported-fonts": [
                "Open Sans",
                "IBM Plex Sans",
                "Courier New",
                "Roboto",
                "Nunito",
                "Arial",
                "DejaVu Sans",
                "Tahoma",
                "Time News Roman"
            ]
        }
    },
    "image_size_suggestion": {
        "favicon": [
            35,
            35
        ],
        "logo": [
            211,
            50
        ],
        "home": {
            "banner_1": [
                532,
                152
            ],
            "banner_2": [
                532,
                152
            ],
            "banner_3": [
                1080,
                615
            ],
            "slide_show": [
                1020,
                329
            ]
        },
        "category": {
            "banner_1": [
                1180,
                334
            ]
        }
    },
    "default_customize_layout": [
        {"name" : "txt_slide_show_banner", "file": "slideshow-banner"},
        {"name" : "txt_block_banner", "file": "banner-box"},
        {"name" : "txt_block_product", "file": "block-products"},
        {"name" : "txt_block_partner", "file": "partner-box"},
        {"name" : "txt_block_blog", "file": "news-box"},
        {"name" : "txt_block_rate", "file": "rate-box"}
    ]
}