{
    "products": [
        148,
        147,
        146,
        145,
        144,
        143,
        142,
        141,
        140,
        139,
        138,
        137,
        136,
        135,
        134,
        133,
        132,
        149,
        150,
        151,
        152,
        153,
        154,
        155,
        156,
        157,
        158,
        159,
        160,
        161,
        162,
        163,
        164,
        165,
        166,
        167,
        168,
        169,
        170,
        171,
        172,
        173,
        174,
        175,
        176,
        177,
        178,
        179
    ],
    "categories": [
        103,
        104,
        105,
        102,
        101,
        98,
        100,
        99,
        93,
        97,
        96,
        95,
        94,
        89,
        92,
        91,
        90,
        86,
        88,
        87,
        82,
        84,
        83,
        85,
        80,
        81,
        79
    ],
    "collections": [
        13,
        12,
        11,
        10,
        9,
        25,
        16,
        17,
        26,
        24,
        27,
        28,
        29,
        30
    ],
    "seo_urls": [],
    "theme_builder_configs": [],
    "blogs": []
}