<svg width="11" height="20" viewBox="0 0 11 20" fill="none" xmlns="http://www.w3.org/2000/svg">
<path d="M10.3452 0.00416134L7.76675 0C4.86997 0 2.99794 1.9319 2.99794 4.92203V7.19141H0.405434C0.181411 7.19141 0 7.37409 0 7.59943V10.8875C0 11.1128 0.181618 11.2953 0.405434 11.2953H2.99794V19.5922C2.99794 19.8175 3.17935 20 3.40337 20H6.78585C7.00987 20 7.19128 19.8173 7.19128 19.5922V11.2953H10.2225C10.4465 11.2953 10.628 11.1128 10.628 10.8875L10.6292 7.59943C10.6292 7.49123 10.5864 7.38762 10.5105 7.31105C10.4345 7.23448 10.3311 7.19141 10.2236 7.19141H7.19128V5.26763C7.19128 4.34298 7.41034 3.87358 8.60782 3.87358L10.3448 3.87295C10.5686 3.87295 10.75 3.69027 10.75 3.46514V0.411972C10.75 0.187052 10.5688 0.00457747 10.3452 0.00416134Z" fill="white"/>
</svg>
