<svg width="39" height="31" viewBox="0 0 39 31" fill="none" xmlns="http://www.w3.org/2000/svg">
  <path fill-rule="evenodd" clip-rule="evenodd" d="M24 1C22.8954 1 22 1.89543 22 3V9C22 10.1046 22.8954 11 24 11H24.5V13.5L27.8333 11H34.5C35.6046 11 36.5 10.1046 36.5 9V3C36.5 1.89543 35.6046 1 34.5 1H24Z" fill="#E38FB5"/>
  <path d="M36.1278 1H23.8716C22.8397 1 22 1.76408 22 2.70314V9.3792C22 10.3185 22.8397 11.0829 23.8716 11.0829H24.455V13.7291C24.455 13.8359 24.5235 13.9323 24.6306 13.9762C24.6699 13.9921 24.7113 14 24.7526 14C24.8241 14 24.8946 13.9767 24.95 13.9317L28.4804 11.0829H36.1275C37.1597 11.0829 37.9994 10.3188 37.9994 9.3792V7.99133C37.9994 7.84182 37.8664 7.72048 37.7018 7.72048C37.5372 7.72048 37.4041 7.84182 37.4041 7.99133V9.3792C37.4041 10.0198 36.8314 10.5412 36.1275 10.5412H28.3676C28.2949 10.5412 28.2247 10.5653 28.1702 10.6094L25.0506 13.1268V10.812C25.0506 10.6625 24.9175 10.5412 24.7529 10.5412H23.8719C23.1683 10.5412 22.5956 10.02 22.5956 9.3792V2.70314C22.5956 2.06284 23.1683 1.54171 23.8719 1.54171H36.1281C36.832 1.54171 37.4047 2.06257 37.4047 2.70314V4.06988C37.4047 4.21939 37.5378 4.34074 37.7024 4.34074C37.867 4.34074 38 4.21939 38 4.06988V2.70314C37.9997 1.76408 37.16 1 36.1278 1Z" fill="#1E243C" stroke="#1E243C" stroke-width="0.5"/>
  <path d="M37.689 5.5C37.5291 5.5 37.3999 5.54984 37.3999 5.61125V6.38875C37.3999 6.45016 37.5291 6.5 37.689 6.5C37.8488 6.5 37.978 6.45016 37.978 6.38875V5.61125C37.978 5.54984 37.8488 5.5 37.689 5.5Z" fill="#1E243C" stroke="#1E243C" stroke-width="0.5"/>
  <mask id="mask0" mask-type="alpha" maskUnits="userSpaceOnUse" x="1" y="21" width="3" height="5">
    <rect x="1" y="26" width="5" height="3" transform="rotate(-90 1 26)" fill="#C4C4C4"/>
  </mask>
  <g mask="url(#mask0)">
    <circle cx="3.5" cy="23.5" r="2" transform="rotate(-90 3.5 23.5)" fill="#E38FB5" stroke="#1E243C"/>
  </g>
  <mask id="mask1" mask-type="alpha" maskUnits="userSpaceOnUse" x="13" y="13" width="5" height="3">
    <rect x="13" y="13" width="5" height="3" fill="white"/>
  </mask>
  <g mask="url(#mask1)">
    <circle cx="15.5" cy="15.5" r="2" stroke="#1E243C"/>
  </g>
  <mask id="mask2" mask-type="alpha" maskUnits="userSpaceOnUse" x="26" y="21" width="3" height="5">
    <rect x="29" y="21" width="5" height="3" transform="rotate(90 29 21)" fill="#C4C4C4"/>
  </mask>
  <g mask="url(#mask2)">
    <circle cx="26.5" cy="23.5" r="2" transform="rotate(90 26.5 23.5)" fill="#E38FB5" stroke="#1E243C"/>
  </g>
  <path d="M29.876 6.52946C30.414 6.52946 30.8501 6.09332 30.8501 5.55532C30.8501 5.01731 30.414 4.58118 29.876 4.58118C29.338 4.58118 28.9019 5.01731 28.9019 5.55532C28.9019 6.09332 29.338 6.52946 29.876 6.52946Z" fill="#B9256A" stroke="#1E243C"/>
  <path d="M25.9741 6.52946C26.5121 6.52946 26.9483 6.09332 26.9483 5.55532C26.9483 5.01731 26.5121 4.58118 25.9741 4.58118C25.4361 4.58118 25 5.01731 25 5.55532C25 6.09332 25.4361 6.52946 25.9741 6.52946Z" fill="#B9256A" stroke="#1E243C"/>
  <path d="M33.7779 6.52946C34.3159 6.52946 34.752 6.09332 34.752 5.55532C34.752 5.01731 34.3159 4.58118 33.7779 4.58118C33.2398 4.58118 32.8037 5.01731 32.8037 5.55532C32.8037 6.09332 33.2398 6.52946 33.7779 6.52946Z" fill="#B9256A" stroke="#1E243C"/>
  <rect x="3.5" y="15.5" width="23" height="15" rx="7.5" stroke="#1E243C"/>
  <rect x="5.5" y="17.5" width="19" height="11" rx="5.5" fill="white" stroke="#1E243C"/>
  <path d="M16.577 25.113C16.562 25.1321 16.2038 25.5816 15.5477 25.5816C14.8793 25.5816 14.5397 25.141 14.5223 25.1185C14.4287 24.9904 14.2492 24.9615 14.12 25.0546C13.9905 25.148 13.9613 25.3286 14.0546 25.4581C14.0752 25.4868 14.5718 26.1597 15.5474 26.1597C16.4981 26.1597 17.0146 25.492 17.036 25.4636C17.132 25.337 17.1071 25.1575 16.9814 25.0607C16.8562 24.9647 16.6747 24.9873 16.577 25.113Z" fill="#1E243C"/>
  <line x1="15.5" y1="10" x2="15.5" y2="14" stroke="#1E243C"/>
  <circle cx="15.5" cy="10.5" r="1" fill="#B9256A" stroke="#1E243C"/>
  <circle cx="10.25" cy="22.25" r="1.25" fill="#1E243C"/>
  <circle cx="20.25" cy="22.25" r="1.25" fill="#1E243C"/>
</svg>
