<svg width="31" height="31" viewBox="0 0 31 31" fill="none" xmlns="http://www.w3.org/2000/svg">
  <circle cx="13.3816" cy="17.0732" r="12.4292" fill="#E38FB5"/>
  <path d="M25.5497 17.2747C25.5497 16.8234 25.5244 16.378 25.4777 15.9393C24.8111 22.1952 19.518 27.0683 13.0854 27.0683C6.65278 27.0683 1.35967 22.1949 0.693093 15.9393C0.64642 16.3783 0.62085 16.8236 0.62085 17.2747C0.62085 24.1587 6.20145 29.7393 13.0854 29.7393C15.6824 29.7393 18.0933 28.9443 20.0895 27.5854L20.0893 27.5859L25.2826 29.4389L23.4797 24.0502C25.2826 20.6987 25.4777 19.8298 25.5497 17.2747Z" fill="#E38FB5"/>
  <path d="M2.18851 10.8029C1.96336 11.1941 1.76313 11.5927 1.58475 11.9962C5.28319 6.90682 12.3016 5.32385 17.8767 8.53275C23.4518 11.7417 25.6082 18.6058 23.0653 24.36C23.3247 24.0028 23.5691 23.6296 23.7941 23.2386C27.2281 17.2724 25.1754 9.65187 19.2091 6.21782C16.9583 4.92229 14.4723 4.4086 12.0643 4.59058L12.0647 4.59027L9.90524 4.74666L7.36246 5.96329C4.12807 7.96864 3.5255 8.62437 2.18851 10.8029Z" fill="white"/>
  <path d="M24.1146 24.3181C25.4606 22.2151 26.1704 19.7869 26.1704 17.2748C26.1704 10.0596 20.3003 4.18958 13.0852 4.18958C5.87007 4.18958 0 10.0596 0 17.2748C0 24.4899 5.87007 30.3597 13.0852 30.3597C15.6154 30.3597 18.0591 29.6398 20.173 28.2746L25.0741 30.0233C25.2995 30.104 25.552 30.0474 25.7213 29.8776C25.8911 29.708 25.9475 29.4561 25.867 29.2302L24.1146 24.3181ZM20.2976 27.0013C20.1117 26.9345 19.9039 26.9613 19.74 27.0728C17.7731 28.4114 15.4722 29.1187 13.0852 29.1187C6.55427 29.1187 1.24129 23.8057 1.24129 17.275C1.24129 10.7443 6.55427 5.43111 13.0852 5.43111C19.6161 5.43111 24.9291 10.7443 24.9291 17.275C24.9291 19.6449 24.2318 21.9319 22.9118 23.8889C22.8015 24.0525 22.7752 24.2588 22.8418 24.4445L24.2581 28.4146L20.2976 27.0013Z" fill="#1E243C"/>
  <mask id="path-5-inside-1" fill="white">
    <path d="M21.4029 18.92C20.5568 22.9371 17.2865 25.9309 13.3813 25.9309C9.47613 25.9309 6.20589 22.9371 5.35975 18.92C5.2819 18.5503 5.55066 18.2162 5.92841 18.2162C6.2346 18.2162 6.51667 18.4395 6.58439 18.7381C7.34511 22.0925 10.0997 24.5774 13.3813 24.5774C16.6629 24.5774 19.4176 22.0925 20.1783 18.7381C20.246 18.4395 20.5028 18.2162 20.809 18.2162C21.1868 18.2162 21.4808 18.5503 21.4029 18.92Z"/>
  </mask>
  <path d="M21.4029 18.92L11.6176 16.8589L11.6176 16.8589L21.4029 18.92ZM5.35975 18.92L-4.42554 20.9811L5.35975 18.92ZM6.58439 18.7381L16.3368 16.5265V16.5265L6.58439 18.7381ZM20.1783 18.7381L29.9306 20.9498L29.9306 20.9498L20.1783 18.7381ZM20.809 18.2162L20.8091 28.2162L20.809 18.2162ZM13.3813 35.9309C22.7405 35.9309 29.5252 28.8762 31.1882 20.9811L11.6176 16.8589C11.6236 16.8304 11.6663 16.6609 11.9077 16.4471C12.1745 16.2106 12.6963 15.9309 13.3813 15.9309V35.9309ZM-4.42554 20.9811C-2.76258 28.8762 4.02211 35.9309 13.3813 35.9309V15.9309C14.0663 15.9309 14.5881 16.2106 14.855 16.4471C15.0964 16.6609 15.139 16.8304 15.145 16.8589L-4.42554 20.9811ZM13.3813 14.5774C14.3445 14.5774 15.128 14.9589 15.6076 15.3769C16.0615 15.7724 16.2627 16.1998 16.3368 16.5265L-3.16797 20.9498C-1.54066 28.1255 4.71597 34.5774 13.3813 34.5774V14.5774ZM10.4259 16.5265C10.5 16.1997 10.7012 15.7724 11.155 15.3769C11.6347 14.9589 12.4182 14.5774 13.3813 14.5774V34.5774C22.0467 34.5774 28.3033 28.1255 29.9306 20.9498L10.4259 16.5265ZM20.8091 28.2162C15.3917 28.2162 10.2738 23.2387 11.6176 16.8589L31.1882 20.9811C32.6877 13.8619 26.9818 8.21615 20.8089 8.21619L20.8091 28.2162ZM20.8089 8.21619C15.4191 8.21623 11.4325 12.0881 10.4259 16.5265L29.9306 20.9498C29.0595 24.791 25.5865 28.2162 20.8091 28.2162L20.8089 8.21619ZM5.92841 8.21619C-0.858828 8.21619 -5.80077 14.4519 -4.42554 20.9811L15.145 16.8589C16.3646 22.6487 11.9602 28.2162 5.92841 28.2162V8.21619ZM5.92841 28.2162C1.60682 28.2162 -2.19322 25.248 -3.16797 20.9498L16.3368 16.5265C15.2266 11.631 10.8624 8.21619 5.92841 8.21619V28.2162Z" fill="#1E243C" mask="url(#path-5-inside-1)"/>
</svg>
