<svg width="31" height="31" viewBox="0 0 31 31" fill="none" xmlns="http://www.w3.org/2000/svg">
  <g clip-path="url(#clip0)">
    <path d="M13.8924 16.3462C13.829 16.8668 13.5772 17.3462 13.1846 17.694C12.7919 18.0417 12.2856 18.2337 11.7611 18.2337C11.2366 18.2337 10.7303 18.0417 10.3377 17.694C9.94503 17.3462 9.69325 16.8668 9.62986 16.3462C7.88287 16.5076 6.25914 17.3156 5.07692 18.6119C3.89471 19.9081 3.23924 21.5992 3.23901 23.3536V28.239C3.23901 28.3675 3.29005 28.4907 3.38088 28.5816C3.47172 28.6724 3.59492 28.7234 3.72339 28.7234H20.2825V23.3536C20.2823 21.5993 19.6269 19.9084 18.4448 18.6121C17.2628 17.3158 15.6392 16.5077 13.8924 16.3462Z" stroke="#1E243C"/>
    <path d="M13.013 16.3152C12.6025 16.4116 12.1823 16.4604 11.7606 16.4605C11.339 16.4603 10.9187 16.4116 10.5083 16.3152H10.2775C9.89691 16.3152 9.51698 16.3459 9.14136 16.407V28.7234H14.3799V16.407C14.0043 16.3459 13.6245 16.3152 13.244 16.3152H13.013Z" fill="#E38FB5" stroke="#1E243C"/>
    <path d="M9.14136 27.9972H14.3799V28.7238H9.14136V27.9972Z" fill="white"/>
    <path d="M11.6249 16.2612C10.982 16.262 10.3453 16.1374 9.74124 15.8946C9.80029 16.3849 9.99425 16.8389 10.2924 17.1861C10.6532 17.6063 11.1337 17.8333 11.6249 17.8333C12.1162 17.8333 12.5967 17.6063 12.9575 17.1861C13.2556 16.8389 13.4496 16.3849 13.5086 15.8946C12.9046 16.1374 12.2679 16.262 11.6249 16.2612ZM11.6249 16.2612C11.6248 16.2612 11.6247 16.2612 11.6246 16.2612L11.6249 16.0112L11.6252 16.2612C11.6251 16.2612 11.625 16.2612 11.6249 16.2612Z" fill="white" stroke="#1E243C" stroke-width="0.5"/>
    <path d="M17.3653 10.9857V10.9854V10.0092C17.3893 10.004 17.4138 10.0013 17.4385 10.001C17.5606 10.0014 17.6957 10.0712 17.8103 10.233C17.9247 10.3945 18.0034 10.6306 18.0034 10.9031C18.0034 11.1755 17.9247 11.4116 17.8104 11.573C17.6965 11.7338 17.5623 11.8038 17.4405 11.8049C17.3953 11.8034 17.3511 11.7941 17.3097 11.7776C17.3464 11.5153 17.365 11.2507 17.3653 10.9857Z" fill="white" stroke="#1E243C" stroke-width="0.5"/>
    <path d="M6.2169 10.9854L6.2169 10.9857C6.21721 11.2507 6.23581 11.5153 6.27252 11.7776C6.2311 11.794 6.18687 11.8034 6.1417 11.8049C6.01976 11.8037 5.88562 11.7337 5.77181 11.5731C5.65746 11.4116 5.57886 11.1755 5.57886 10.9031C5.57886 10.6306 5.65746 10.3944 5.77183 10.2329C5.88631 10.0713 6.02134 10.0014 6.14378 10.001C6.16847 10.0013 6.19296 10.004 6.2169 10.0092L6.2169 10.9854Z" fill="white" stroke="#1E243C" stroke-width="0.5"/>
    <path d="M14.6724 6.51967V6.50998C14.6724 6.50998 10.957 5.2632 8.01632 7.31211C7.33443 7.80252 6.7479 8.41343 6.28564 9.11471V10.9854C6.28558 12.4375 6.86235 13.8302 7.88909 14.857C8.91582 15.8839 10.3084 16.4609 11.7605 16.461C13.2128 16.461 14.6055 15.8841 15.6324 14.8572C16.6593 13.8303 17.2362 12.4376 17.2362 10.9854V8.56349H16.7159C16.4475 8.56349 16.1818 8.51062 15.9338 8.40791C15.6859 8.30519 15.4606 8.15464 15.2708 7.96485C15.0811 7.77507 14.9305 7.54975 14.8278 7.30179C14.7252 7.05382 14.6723 6.78806 14.6724 6.51967Z" fill="white" stroke="#1E243C"/>
    <path d="M15.132 2.99304H14.6118V6.51978C14.6118 7.06177 14.8271 7.58156 15.2104 7.96481C15.5936 8.34805 16.1134 8.56336 16.6554 8.56336H17.1756V5.03759C17.1757 4.76914 17.123 4.5033 17.0203 4.25525C16.9177 4.0072 16.7672 3.7818 16.5774 3.59193C16.3876 3.40207 16.1623 3.25145 15.9143 3.14869C15.6663 3.04593 15.4005 2.99304 15.132 2.99304V2.99304Z" stroke="#1E243C"/>
    <path d="M14.6724 6.51C14.6724 6.51 10.957 5.26322 8.01637 7.31212C5.43974 9.10673 4.67418 12.8824 4.67418 12.8824C4.00213 11.709 3.69308 10.3626 3.78608 9.01349C3.92292 7.47754 4.89675 6.02562 4.89675 6.02562C4.54027 6.15166 4.20621 6.33382 3.90718 6.56522C3.51464 6.90252 3.15633 7.27771 2.83743 7.68533C2.83743 7.68533 2.76841 2.1499 9.14133 1.36279C10.1256 1.24532 11.1235 1.32926 12.0744 1.60951C13.0252 1.88975 13.9092 2.36043 14.6724 2.99295V6.51Z" stroke="#1E243C"/>
    <path d="M9.34495 9.67151C9.2367 9.67151 9.13088 9.70359 9.04085 9.76371C8.95083 9.82383 8.88064 9.90928 8.83916 10.0093C8.79768 10.1093 8.78677 10.2193 8.8078 10.3255C8.82883 10.4317 8.88086 10.5292 8.95732 10.6059C9.03378 10.6825 9.13124 10.7347 9.23738 10.756C9.34352 10.7773 9.45358 10.7666 9.55366 10.7253C9.65374 10.6841 9.73935 10.6141 9.79966 10.5242C9.85998 10.4343 9.89229 10.3286 9.89253 10.2203C9.89269 10.1483 9.87865 10.077 9.8512 10.0104C9.82375 9.94381 9.78344 9.8833 9.73258 9.83232C9.68171 9.78135 9.6213 9.7409 9.55478 9.71331C9.48827 9.68571 9.41696 9.67151 9.34495 9.67151Z" fill="#1E243C"/>
    <path d="M14.1765 9.67151C14.0683 9.6717 13.9626 9.70395 13.8727 9.76418C13.7828 9.82441 13.7127 9.90993 13.6714 10.0099C13.6301 10.1099 13.6193 10.2199 13.6404 10.3261C13.6616 10.4322 13.7137 10.5297 13.7902 10.6062C13.8667 10.6827 13.9641 10.7349 14.0703 10.7561C14.1764 10.7773 14.2864 10.7665 14.3864 10.7253C14.4864 10.684 14.572 10.614 14.6322 10.5241C14.6925 10.4342 14.7248 10.3285 14.7251 10.2203C14.7252 10.1482 14.7111 10.0768 14.6836 10.0102C14.6561 9.94352 14.6157 9.88297 14.5648 9.83198C14.5138 9.78099 14.4533 9.74057 14.3866 9.71303C14.32 9.68549 14.2486 9.67138 14.1765 9.67151Z" fill="#1E243C"/>
    <path d="M11.7606 12.8984C11.99 12.8982 12.2099 12.8069 12.372 12.6447C12.5342 12.4826 12.6254 12.2627 12.6257 12.0333V11.6686C12.6257 11.6043 12.6002 11.5427 12.5548 11.4973C12.5093 11.4519 12.4477 11.4264 12.3835 11.4264C12.3193 11.4264 12.2577 11.4519 12.2123 11.4973C12.1668 11.5427 12.1413 11.6043 12.1413 11.6686V12.0333C12.1426 12.0841 12.1337 12.1346 12.1152 12.1819C12.0966 12.2292 12.0688 12.2723 12.0333 12.3087C11.9978 12.3451 11.9554 12.374 11.9086 12.3937C11.8618 12.4135 11.8115 12.4236 11.7607 12.4236C11.7099 12.4236 11.6596 12.4135 11.6128 12.3937C11.566 12.374 11.5236 12.3451 11.4881 12.3087C11.4527 12.2723 11.4248 12.2292 11.4063 12.1819C11.3877 12.1346 11.3788 12.0841 11.3801 12.0333V11.6686C11.3801 11.6043 11.3546 11.5427 11.3092 11.4973C11.2638 11.4519 11.2022 11.4264 11.1379 11.4264C11.0737 11.4264 11.0121 11.4519 10.9667 11.4973C10.9213 11.5427 10.8958 11.6043 10.8958 11.6686V12.0333C10.896 12.2626 10.9872 12.4825 11.1493 12.6447C11.3115 12.8068 11.5313 12.8981 11.7606 12.8984Z" fill="#1E243C"/>
    <path d="M13.7597 9.15851L14.8319 9.34548C14.8457 9.34787 14.8598 9.34909 14.8738 9.34911C14.9346 9.34937 14.9933 9.32675 15.0382 9.28573C15.0831 9.24471 15.1109 9.18829 15.1161 9.1277C15.1214 9.06711 15.1036 9.00678 15.0664 8.95868C15.0291 8.91059 14.9752 8.87827 14.9152 8.86813L13.843 8.6814C13.7802 8.67132 13.7159 8.68639 13.6641 8.72334C13.6123 8.7603 13.5771 8.81617 13.5661 8.87887C13.5552 8.94158 13.5693 9.00607 13.6056 9.0584C13.6418 9.11073 13.6972 9.1467 13.7597 9.15851Z" fill="#1E243C"/>
    <path d="M9.67852 8.68143L8.60636 8.86815C8.54639 8.87829 8.49244 8.91062 8.45521 8.95871C8.41799 9.0068 8.40022 9.06714 8.40543 9.12773C8.41065 9.18832 8.43847 9.24473 8.48337 9.28575C8.52827 9.32678 8.58696 9.3494 8.64777 9.34914C8.66182 9.3491 8.67583 9.34789 8.68967 9.34551L9.76159 9.15854C9.79341 9.15362 9.82393 9.14241 9.85136 9.12556C9.87879 9.10871 9.90259 9.08656 9.92136 9.06041C9.94013 9.03426 9.9535 9.00462 9.96068 8.97324C9.96787 8.94186 9.96872 8.90936 9.9632 8.87765C9.95768 8.84593 9.94589 8.81564 9.92852 8.78853C9.91115 8.76142 9.88856 8.73805 9.86205 8.71978C9.83554 8.70151 9.80566 8.68871 9.77415 8.68212C9.74264 8.67554 9.71013 8.6753 9.67852 8.68143Z" fill="#1E243C"/>
    <path d="M13.1671 13.6729C13.2059 13.6217 13.2228 13.5572 13.214 13.4936C13.2052 13.4299 13.1715 13.3724 13.1203 13.3336C13.0691 13.2948 13.0046 13.2779 12.941 13.2867C12.8774 13.2955 12.8198 13.3291 12.781 13.3803C12.6544 13.5266 12.4977 13.6439 12.3216 13.724C12.1455 13.8042 11.9542 13.8454 11.7607 13.8449C11.5676 13.8486 11.3761 13.8093 11.2001 13.7297C11.0242 13.6501 10.8682 13.5322 10.7435 13.3847C10.7053 13.3341 10.6487 13.3005 10.586 13.2912C10.5232 13.2818 10.4593 13.2975 10.408 13.3347C10.3567 13.372 10.322 13.4279 10.3115 13.4905C10.3009 13.553 10.3154 13.6172 10.3517 13.6693C10.5214 13.8787 10.7364 14.047 10.9806 14.1615C11.2247 14.276 11.4916 14.3336 11.7612 14.3302C12.0293 14.33 12.2941 14.271 12.537 14.1575C12.7799 14.0439 12.995 13.8785 13.1671 13.6729Z" fill="#1E243C"/>
    <path d="M22.6643 14.406V15.5272C22.6643 15.5847 22.6414 15.64 22.6007 15.6807C22.56 15.7214 22.5048 15.7443 22.4472 15.7443C22.3896 15.7443 22.3344 15.7214 22.2937 15.6807C22.2529 15.64 22.2301 15.5847 22.2301 15.5272V14.406C22.2301 14.3484 22.2529 14.2932 22.2937 14.2524C22.3344 14.2117 22.3896 14.1888 22.4472 14.1888C22.5048 14.1888 22.56 14.2117 22.6007 14.2524C22.6414 14.2932 22.6643 14.3484 22.6643 14.406Z" fill="#E6E7E8"/>
    <path d="M20.4932 14.406V15.9614C20.4932 16.019 20.4703 16.0742 20.4296 16.1149C20.3889 16.1556 20.3336 16.1785 20.276 16.1785C20.2185 16.1785 20.1632 16.1556 20.1225 16.1149C20.0818 16.0742 20.0589 16.019 20.0589 15.9614V14.406C20.0589 14.3484 20.0818 14.2932 20.1225 14.2524C20.1632 14.2117 20.2185 14.1888 20.276 14.1888C20.3336 14.1888 20.3889 14.2117 20.4296 14.2524C20.4703 14.2932 20.4932 14.3484 20.4932 14.406Z" fill="#E6E7E8"/>
    <path d="M18.322 14.406V15.5272C18.322 15.5847 18.2991 15.64 18.2584 15.6807C18.2177 15.7214 18.1625 15.7443 18.1049 15.7443C18.0473 15.7443 17.9921 15.7214 17.9514 15.6807C17.9107 15.64 17.8878 15.5847 17.8878 15.5272V14.406C17.8878 14.3484 17.9107 14.2932 17.9514 14.2524C17.9921 14.2117 18.0473 14.1888 18.1049 14.1888C18.1625 14.1888 18.2177 14.2117 18.2584 14.2524C18.2991 14.2932 18.322 14.3484 18.322 14.406Z" fill="#E6E7E8"/>
    <path d="M15.5279 22.0888L14.5378 16.6463C14.5214 16.5561 14.5249 16.4633 14.5482 16.3746C14.5716 16.2859 14.6141 16.2034 14.6729 16.133C14.7316 16.0626 14.8051 16.0059 14.8882 15.9671C14.9713 15.9282 15.0619 15.9081 15.1536 15.9081H27.7625L26.5446 22.602H16.143C15.9966 22.6019 15.8549 22.5505 15.7425 22.4567C15.6302 22.363 15.5542 22.2327 15.5279 22.0888Z" fill="#B9256A"/>
    <path d="M15.1529 16.5599C15.0338 16.56 14.9172 16.5943 14.817 16.6586C14.7168 16.7229 14.6371 16.8147 14.5873 16.9229L14.5372 16.6463C14.5207 16.5561 14.5242 16.4633 14.5476 16.3746C14.5709 16.2859 14.6135 16.2034 14.6722 16.133C14.731 16.0626 14.8045 16.0059 14.8875 15.9671C14.9706 15.9282 15.0612 15.9081 15.1529 15.9081H27.7625L27.6439 16.5594L15.1529 16.5599Z" fill="white"/>
    <path d="M23.7591 27.5711C23.1607 27.4741 22.7543 26.9104 22.8513 26.312C22.9483 25.7136 23.512 25.3072 24.1104 25.4042C24.7088 25.5012 25.1152 26.0649 25.0182 26.6633C24.9212 27.2617 24.3575 27.6682 23.7591 27.5711Z" fill="#B9256A"/>
    <path d="M17.3358 26.9138C17.1036 26.3536 17.3695 25.7113 17.9297 25.4791C18.4899 25.2469 19.1323 25.5128 19.3645 26.073C19.5967 26.6332 19.3308 27.2755 18.7706 27.5077C18.2104 27.7399 17.568 27.474 17.3358 26.9138Z" fill="#B9256A"/>
    <path d="M23.5332 13.5374V14.6586C23.5332 14.7162 23.5103 14.7714 23.4696 14.8122C23.4289 14.8529 23.3737 14.8757 23.3161 14.8757C23.2585 14.8757 23.2033 14.8529 23.1626 14.8122C23.1218 14.7714 23.099 14.7162 23.099 14.6586V13.5374C23.099 13.4798 23.1218 13.4246 23.1626 13.3839C23.2033 13.3432 23.2585 13.3203 23.3161 13.3203C23.3737 13.3203 23.4289 13.3432 23.4696 13.3839C23.5103 13.4246 23.5332 13.4798 23.5332 13.5374Z" fill="#3A2C60"/>
    <path d="M21.3618 13.5374V15.0929C21.3618 15.1504 21.3389 15.2057 21.2982 15.2464C21.2575 15.2871 21.2023 15.31 21.1447 15.31C21.0871 15.31 21.0319 15.2871 20.9912 15.2464C20.9505 15.2057 20.9276 15.1504 20.9276 15.0929V13.5374C20.9276 13.4798 20.9505 13.4246 20.9912 13.3839C21.0319 13.3432 21.0871 13.3203 21.1447 13.3203C21.2023 13.3203 21.2575 13.3432 21.2982 13.3839C21.3389 13.4246 21.3618 13.4798 21.3618 13.5374Z" fill="#3A2C60"/>
    <path d="M19.1907 13.5374V14.6586C19.1907 14.7162 19.1678 14.7714 19.1271 14.8122C19.0864 14.8529 19.0311 14.8757 18.9736 14.8757C18.916 14.8757 18.8607 14.8529 18.82 14.8122C18.7793 14.7714 18.7564 14.7162 18.7564 14.6586V13.5374C18.7564 13.4798 18.7793 13.4246 18.82 13.3839C18.8607 13.3432 18.916 13.3203 18.9736 13.3203C19.0311 13.3203 19.0864 13.3432 19.1271 13.3839C19.1678 13.4246 19.1907 13.4798 19.1907 13.5374Z" fill="#3A2C60"/>
    <path d="M21.1447 22.385C21.2023 22.385 21.2575 22.4079 21.2982 22.4486C21.3389 22.4893 21.3618 22.5445 21.3618 22.6021C21.3618 22.6597 21.3389 22.7149 21.2982 22.7557C21.2575 22.7964 21.2023 22.8192 21.1447 22.8192H19.3292C19.2716 22.8192 19.2164 22.7964 19.1756 22.7557C19.1349 22.7149 19.112 22.6597 19.112 22.6021C19.112 22.5445 19.1349 22.4893 19.1756 22.4486C19.2164 22.4079 19.2716 22.385 19.3292 22.385H21.1447Z" fill="#3A2C60"/>
    <path d="M14.5058 15.9941C14.5849 15.8993 14.6838 15.8231 14.7957 15.7708C14.9075 15.7184 15.0295 15.6914 15.153 15.6915H27.5814L27.9277 13.7871C27.9368 13.7371 27.9632 13.6919 28.0023 13.6593C28.0413 13.6267 28.0905 13.6089 28.1414 13.6089H30.5981C30.6557 13.6089 30.7109 13.6318 30.7516 13.6725C30.7923 13.7132 30.8152 13.7684 30.8152 13.826C30.8152 13.8836 30.7923 13.9388 30.7516 13.9795C30.7109 14.0202 30.6557 14.0431 30.5981 14.0431H28.3225L26.3782 24.7296C26.3691 24.7796 26.3427 24.8248 26.3037 24.8574C26.2647 24.89 26.2156 24.9078 26.1648 24.9079H16.0351C15.9776 24.9079 15.9223 24.885 15.8816 24.8443C15.8409 24.8036 15.818 24.7484 15.818 24.6908C15.818 24.6332 15.8409 24.578 15.8816 24.5372C15.9223 24.4965 15.9776 24.4737 16.0351 24.4737H25.9835L26.2844 22.8192H21.9618C21.9042 22.8192 21.849 22.7963 21.8083 22.7556C21.7676 22.7149 21.7447 22.6597 21.7447 22.6021C21.7447 22.5445 21.7676 22.4893 21.8083 22.4486C21.849 22.4079 21.9042 22.385 21.9618 22.385H26.3634L27.5022 16.1257H15.153C15.0931 16.1258 15.034 16.139 14.9798 16.1644C14.9256 16.1898 14.8776 16.2268 14.8392 16.2727C14.8009 16.3187 14.7731 16.3725 14.7578 16.4304C14.7425 16.4883 14.74 16.5488 14.7507 16.6077L15.7407 22.0502C15.758 22.1442 15.8078 22.2292 15.8813 22.2904C15.9548 22.3516 16.0474 22.385 16.1431 22.385H18.5333C18.5909 22.385 18.6461 22.4079 18.6868 22.4486C18.7275 22.4893 18.7504 22.5445 18.7504 22.6021C18.7504 22.6597 18.7275 22.7149 18.6868 22.7556C18.6461 22.7963 18.5909 22.8192 18.5333 22.8192H16.1431C15.9456 22.8193 15.7544 22.7501 15.6028 22.6236C15.4512 22.4971 15.3489 22.3213 15.3137 22.1271L14.3234 16.6846C14.3014 16.5632 14.3063 16.4384 14.3378 16.3191C14.3693 16.1998 14.4267 16.0888 14.5058 15.9941Z" fill="#1E243C" stroke="#1E243C" stroke-width="0.7"/>
    <path d="M23.929 25.173C24.1891 25.173 24.4433 25.2501 24.6596 25.3946C24.8758 25.5391 25.0443 25.7444 25.1438 25.9847C25.2433 26.225 25.2694 26.4894 25.2186 26.7444C25.1679 26.9995 25.0426 27.2338 24.8587 27.4177C24.6748 27.6015 24.4405 27.7268 24.1854 27.7775C23.9303 27.8282 23.666 27.8021 23.4257 27.7026C23.1855 27.603 22.9801 27.4344 22.8357 27.2182C22.6912 27.0019 22.6141 26.7477 22.6142 26.4876C22.6146 26.1391 22.7533 25.8049 22.9998 25.5585C23.2463 25.312 23.5805 25.1734 23.929 25.173ZM23.929 27.3683C24.1032 27.3683 24.2735 27.3166 24.4183 27.2198C24.5631 27.1231 24.676 26.9855 24.7426 26.8246C24.8093 26.6637 24.8267 26.4866 24.7927 26.3158C24.7588 26.145 24.6749 25.9881 24.5517 25.8649C24.4286 25.7418 24.2717 25.6579 24.1008 25.6239C23.93 25.5899 23.7529 25.6074 23.592 25.674C23.4311 25.7407 23.2936 25.8536 23.1968 25.9984C23.1001 26.1432 23.0484 26.3134 23.0484 26.4876C23.0487 26.7211 23.1416 26.9449 23.3067 27.11C23.4717 27.2751 23.6956 27.368 23.929 27.3683Z" fill="#3A2C60"/>
    <path d="M18.3587 25.173C18.6187 25.173 18.8729 25.2502 19.0892 25.3947C19.3054 25.5392 19.4739 25.7446 19.5733 25.9849C19.6728 26.2251 19.6988 26.4895 19.648 26.7446C19.5973 26.9996 19.472 27.2339 19.2881 27.4177C19.1042 27.6016 18.8698 27.7268 18.6148 27.7775C18.3597 27.8282 18.0953 27.8021 17.8551 27.7025C17.6149 27.603 17.4095 27.4344 17.2651 27.2182C17.1206 27.0019 17.0436 26.7477 17.0436 26.4876C17.0441 26.139 17.1828 25.8048 17.4293 25.5584C17.6759 25.3119 18.0101 25.1733 18.3587 25.173ZM18.3587 27.3683C18.5329 27.3682 18.7031 27.3165 18.8479 27.2197C18.9927 27.1229 19.1055 26.9854 19.1721 26.8245C19.2388 26.6636 19.2562 26.4865 19.2222 26.3157C19.1882 26.1449 19.1043 25.988 18.9811 25.8648C18.8579 25.7417 18.701 25.6579 18.5302 25.6239C18.3594 25.5899 18.1823 25.6074 18.0214 25.674C17.8605 25.7407 17.723 25.8536 17.6262 25.9984C17.5295 26.1432 17.4778 26.3135 17.4778 26.4876C17.4781 26.7211 17.571 26.945 17.7362 27.1101C17.9013 27.2752 18.1252 27.368 18.3587 27.3683Z" fill="#3A2C60"/>
  </g>
  <defs>
    <clipPath id="clip0">
      <rect width="31" height="31" fill="white"/>
    </clipPath>
  </defs>
</svg>
