<svg width="16" height="16" viewBox="0 0 16 16" fill="none" xmlns="http://www.w3.org/2000/svg">
<g clip-path="url(#clip0)">
<path d="M0.625 0.625H2.49167V10.625H14.1583" stroke="#464646" stroke-miterlimit="10" stroke-linecap="square"/>
<path d="M3.42502 15.625C4.19822 15.625 4.82502 14.9534 4.82502 14.125C4.82502 13.2966 4.19822 12.625 3.42502 12.625C2.65183 12.625 2.02502 13.2966 2.02502 14.125C2.02502 14.9534 2.65183 15.625 3.42502 15.625Z" stroke="#464646" stroke-miterlimit="10" stroke-linecap="square"/>
<path d="M13.225 15.625C13.9982 15.625 14.625 14.9534 14.625 14.125C14.625 13.2966 13.9982 12.625 13.225 12.625C12.4518 12.625 11.825 13.2966 11.825 14.125C11.825 14.9534 12.4518 15.625 13.225 15.625Z" stroke="#464646" stroke-miterlimit="10" stroke-linecap="square"/>
<path d="M2.49158 2.625H13.2249L11.8249 8.625H2.49158" stroke="#464646" stroke-miterlimit="10" stroke-linecap="square"/>
</g>
<defs>
<clipPath id="clip0">
<rect width="16" height="16" fill="white"/>
</clipPath>
</defs>
</svg>
