<svg width="15" height="15" viewBox="0 0 15 15" fill="none" xmlns="http://www.w3.org/2000/svg">
<g clip-path="url(#clip0)">
<rect width="15" height="15" fill="white"/>
<path d="M14.9692 7.77977C13.8362 4.89712 10.8336 2.95947 7.50005 2.95947C4.16652 2.95947 1.16387 4.89712 0.0309295 7.77977C-0.00965878 7.883 -0.00965878 7.99859 0.0309295 8.10183C1.16475 10.9854 4.16652 12.923 7.50005 12.923C10.8336 12.923 13.8353 10.9862 14.9692 8.10271C15.0106 7.99859 15.0106 7.88388 14.9692 7.77977ZM7.50005 12.0406C4.59005 12.0406 1.96858 10.4004 0.918577 7.94124C1.96769 5.48212 4.58917 3.84183 7.50005 3.84183C10.4109 3.84183 13.0324 5.48212 14.0815 7.94124C13.0315 10.3995 10.41 12.0406 7.50005 12.0406ZM7.50005 4.72683C5.7274 4.72683 4.28563 6.16859 4.28563 7.94124C4.28563 9.71388 5.7274 11.1556 7.50093 11.1556C9.27269 11.1556 10.7153 9.71388 10.7153 7.94124C10.7153 6.16859 9.27269 4.72683 7.50005 4.72683ZM7.50005 10.2733C6.21358 10.2733 5.16711 9.22682 5.16711 7.94124C5.16711 6.65565 6.21446 5.60918 7.50005 5.60918C8.78564 5.60918 9.83211 6.65565 9.83211 7.94124C9.83211 9.22682 8.78652 10.2733 7.50005 10.2733ZM7.50005 6.74388C6.84005 6.74388 6.30269 7.28124 6.30269 7.94124C6.30269 8.60124 6.84005 9.13859 7.50005 9.13859C8.16005 9.13859 8.6974 8.60124 8.6974 7.94124C8.6974 7.28124 8.16005 6.74388 7.50005 6.74388ZM7.50005 8.25624C7.32622 8.25624 7.18505 8.11506 7.18505 7.94124C7.18505 7.76741 7.32622 7.62624 7.50005 7.62624C7.67387 7.62624 7.81505 7.76741 7.81505 7.94124C7.81505 8.11506 7.67387 8.25624 7.50005 8.25624Z" fill="#C0C5CD"/>
<line x1="1.11625" y1="12.3025" x2="14.3025" y2="2.88375" stroke="#C0C5CD" stroke-linecap="round"/>
</g>
<defs>
<clipPath id="clip0">
<rect width="15" height="15" fill="white"/>
</clipPath>
</defs>
</svg>
