<svg width="16" height="16" viewBox="0 0 16 16" fill="none" xmlns="http://www.w3.org/2000/svg">
<path d="M7.60956 3.02007L8 3.50812L8.39043 3.02007C8.43985 2.95829 8.47768 2.9084 8.51027 2.86542C8.56866 2.78843 8.61023 2.7336 8.67155 2.67228L8.3748 2.37553L8.67155 2.67228C10.2333 1.11054 12.7667 1.11054 14.3284 2.67228C15.8886 4.23241 15.8902 6.76223 14.3333 8.32436L8 14.3126L1.66675 8.32437C0.109811 6.76224 0.111411 4.23242 1.67155 2.67228C3.23329 1.11054 5.7667 1.11054 7.32844 2.67228C7.38976 2.7336 7.43133 2.78843 7.48972 2.86542C7.52231 2.9084 7.56014 2.95829 7.60956 3.02007Z" stroke="#464646"/>
</svg>
