{
    "products": [],
    "categories": [
        1,
        2,
        3,
        4,
        5,
        6,
        7,
        8,
        9
    ],
    "collections": [
        5,
        6,
        4,
        7
    ],
    "seo_urls": [],
    "theme_builder_configs": [],
    "blogs": []
}