<svg width="16" height="12" viewBox="0 0 16 12" fill="none" xmlns="http://www.w3.org/2000/svg">
<path d="M0.666656 6.00008C0.666656 6.00008 3.33332 0.666748 7.99999 0.666748C12.6667 0.666748 15.3333 6.00008 15.3333 6.00008C15.3333 6.00008 12.6667 11.3334 7.99999 11.3334C3.33332 11.3334 0.666656 6.00008 0.666656 6.00008Z" stroke="#969696" stroke-linecap="round" stroke-linejoin="round"/>
<path d="M8 8C9.10457 8 10 7.10457 10 6C10 4.89543 9.10457 4 8 4C6.89543 4 6 4.89543 6 6C6 7.10457 6.89543 8 8 8Z" stroke="#969696" stroke-linecap="round" stroke-linejoin="round"/>
</svg>
