{
    "products": [
        194,
        195,
        196,
        197,
        198,
        199,
        200,
        201,
        202,
        203,
        204,
        205,
        206,
        207,
        208,
        209,
        210,
        211,
        212,
        213,
        214,
        215,
        216,
        217
    ],
    "categories": [
        99,
        100,
        101,
        102,
        103,
        97,
        98,
        96,
        91,
        92,
        93,
        94,
        95,
        79,
        80,
        81,
        82,
        83,
        84,
        85,
        86,
        87,
        88,
        89,
        90,
        104,
        105,
        106,
        107,
        108,
        109,
        110,
        111,
        112,
        113,
        114,
        115,
        116
    ],
    "collections": [
        45,
        46,
        44,
        42,
        43,
        36,
        37,
        38,
        39,
        40,
        41
    ],
    "seo_urls": [],
    "theme_builder_configs": [],
    "blogs": []
}