<svg width="60" height="60" viewBox="0 0 60 60" fill="none" xmlns="http://www.w3.org/2000/svg">
<path d="M30 2.49994V12.4999" stroke="#B9256A" stroke-width="2" stroke-miterlimit="10" stroke-linecap="square"/>
<path opacity="0.9" d="M49.4453 10.5549L42.374 17.6262" stroke="#B9256A" stroke-width="2" stroke-miterlimit="10" stroke-linecap="square"/>
<path opacity="0.8" d="M57.5 30H47.5" stroke="#B9256A" stroke-width="2" stroke-miterlimit="10" stroke-linecap="square"/>
<path opacity="0.7" d="M49.4453 49.445L42.374 42.3737" stroke="#B9256A" stroke-width="2" stroke-miterlimit="10" stroke-linecap="square"/>
<path opacity="0.6" d="M30 57.4999V47.4999" stroke="#B9256A" stroke-width="2" stroke-miterlimit="10" stroke-linecap="square"/>
<path opacity="0.5" d="M10.5552 49.445L17.6264 42.3737" stroke="#B9256A" stroke-width="2" stroke-miterlimit="10" stroke-linecap="square"/>
<path opacity="0.4" d="M2.5 30H12.5" stroke="#B9256A" stroke-width="2" stroke-miterlimit="10" stroke-linecap="square"/>
<path opacity="0.3" d="M10.5552 10.5549L17.6264 17.6262" stroke="#B9256A" stroke-width="2" stroke-miterlimit="10" stroke-linecap="square"/>
</svg>
