<svg width="20" height="20" viewBox="0 0 20 20" fill="none" xmlns="http://www.w3.org/2000/svg">
<g clip-path="url(#clip0)">
<path d="M14.2093 10.7785H11.4917C10.7479 10.7785 10.1431 11.3833 10.1431 12.1271V14.2113C10.1431 14.955 10.7479 15.5599 11.4917 15.5599H14.2093C14.9531 15.5599 15.5579 14.955 15.5579 14.2113V12.1271C15.5579 11.3833 14.9531 10.7785 14.2093 10.7785ZM14.5771 14.2113C14.5771 14.4156 14.4095 14.5791 14.2093 14.5791H11.4917C11.2873 14.5791 11.1239 14.4115 11.1239 14.2113V12.1271C11.1239 11.9228 11.2914 11.7593 11.4917 11.7593H14.2093C14.4136 11.7593 14.5771 11.9268 14.5771 12.1271V14.2113Z" fill="#637381"/>
<path d="M20 6.9902C20 6.90438 19.9796 6.82265 19.9346 6.74909L16.9595 1.5182C16.8737 1.36699 16.7103 1.26891 16.5345 1.26891H3.46138C3.28566 1.26891 3.12219 1.36291 3.03637 1.5182L0.0653862 6.74909C0.0245198 6.82265 0 6.90438 0 6.9902C0 8.16307 0.706988 9.16838 1.71639 9.61382V18.2407C1.71639 18.5104 1.93707 18.7311 2.20678 18.7311H4.91622C4.92031 18.7311 4.9244 18.7311 4.92848 18.7311H8.72906C8.73314 18.7311 8.73723 18.7311 8.74132 18.7311H17.7891C18.0588 18.7311 18.2795 18.5104 18.2795 18.2407V9.67512C18.2795 9.65469 18.2795 9.63834 18.2754 9.622C19.2889 9.17655 20 8.16715 20 6.9902ZM3.74745 2.25379H16.2485L18.5738 6.34451H1.42624L3.74745 2.25379ZM14.2338 7.32122C14.0785 8.20393 13.3061 8.87414 12.3784 8.87414C11.4508 8.87414 10.6784 8.20393 10.5231 7.32122H14.2338ZM9.481 7.32122C9.32571 8.20393 8.55333 8.87414 7.62566 8.87414C6.698 8.87414 5.92562 8.20393 5.76624 7.32122H9.481ZM1.01349 7.32122H4.72824C4.57295 8.20393 3.79649 8.87414 2.86882 8.87414C1.94115 8.87823 1.16878 8.20393 1.01349 7.32122ZM8.23866 17.7503H5.41888V12.4581C5.41888 12.074 5.72946 11.7593 6.11769 11.7593H7.54393C7.92808 11.7593 8.24275 12.0699 8.24275 12.4581V17.7503H8.23866ZM17.2987 17.7503H9.21945V12.4581C9.21945 11.5345 8.46751 10.7785 7.53984 10.7785H6.11361C5.19003 10.7785 4.434 11.5305 4.434 12.4581V17.7544H2.69718V9.85493C2.75439 9.85902 2.81161 9.85902 2.86882 9.85902C3.85778 9.85902 4.73233 9.35637 5.24724 8.59216C5.76216 9.35637 6.6367 9.85902 7.62566 9.85902C8.61463 9.85902 9.48508 9.35637 10.0041 8.59216C10.519 9.35637 11.3935 9.85902 12.3784 9.85902C13.3674 9.85902 14.2378 9.35637 14.7528 8.59216C15.2677 9.35637 16.1422 9.85902 17.1312 9.85902C17.1884 9.85902 17.2415 9.85493 17.2987 9.85493V17.7503ZM17.1312 8.87823C16.2035 8.87823 15.4311 8.20802 15.2758 7.32531H18.9906C18.8312 8.20393 18.0588 8.87823 17.1312 8.87823Z" fill="#637381"/>
</g>
<defs>
<clipPath id="clip0">
<rect width="20" height="20" fill="white"/>
</clipPath>
</defs>
</svg>
