<svg width="16" height="15" viewBox="0 0 16 15" fill="none" xmlns="http://www.w3.org/2000/svg">
<path d="M6.26727 4.95031L8 1.19376L9.73273 4.95031C9.84927 5.20296 10.0887 5.37691 10.365 5.40967L14.4731 5.89675L11.4359 8.70552C11.2316 8.89442 11.1401 9.17589 11.1944 9.44878L12.0006 13.5064L8.39075 11.4857C8.14797 11.3498 7.85203 11.3498 7.60925 11.4857L3.99939 13.5064L4.80563 9.44878C4.85985 9.17589 4.7684 8.89442 4.56413 8.70552L1.52688 5.89675L5.63502 5.40967C5.91131 5.37691 6.15073 5.20296 6.26727 4.95031ZM14.7915 5.60236L14.7912 5.60263L14.7915 5.60236ZM1.09629 5.94781L1.09671 5.94776C1.09657 5.94777 1.09643 5.94779 1.09629 5.94781L1.07274 5.7492L1.09629 5.94781ZM8.18137 0.800547L8.18161 0.800023L8 0.716254L8.18161 0.800023C8.18153 0.800197 8.18145 0.800372 8.18137 0.800547Z" stroke="#969696"/>
</svg>
