<svg width="14" height="14" viewBox="0 0 14 14" fill="none" xmlns="http://www.w3.org/2000/svg">
<path d="M7 0.746094C3.31999 0.746094 0.333328 3.66243 0.333328 7.25577C0.333328 10.8491 3.31999 13.7654 7 13.7654C10.68 13.7654 13.6667 10.8491 13.6667 7.25577C13.6667 3.66243 10.68 0.746094 7 0.746094ZM7 2.699C8.10666 2.699 9 3.57129 9 4.6519C9 5.7325 8.10666 6.6048 7 6.6048C5.89333 6.6048 5 5.7325 5 4.6519C5 3.57129 5.89333 2.699 7 2.699ZM7 11.9427C5.33333 11.9427 3.85999 11.1095 2.99999 9.84662C3.01999 8.55119 5.66666 7.84164 7 7.84164C8.32666 7.84164 10.98 8.55119 11 9.84662C10.14 11.1095 8.66666 11.9427 7 11.9427Z" fill="#CEC19E"/>
</svg>
