{
    "$schema": "http://json-schema.org/draft-07/schema#",
    "$id": "http://api.example.com/profile.json#",
    "type": "object",
    "properties": {
        "name": {
            "type": "string",
            "minLength": 3,
            "maxLength": 64
        },
        "text": {
            "type": "string",
            "minLength": 3,
            "maxLength": 64
        },
        "visible": {
            "type": "boolean"
        },
        "display": {
            "type": "array",
            "minItems": 1,
            "maxItems": 6,
            "uniqueItems": true,
            "items": {
                "type": "object",
                "properties": {
                    "image-url": {
                        "type": "string",
                        "minLength": 3,
                        "maxLength": 100,
                        "pattern": "^http[s]?:\\/\\/(www.)?[a-z0-9-_]{2,32}(.[a-z0-9-_]{2,10}){2}.*$"
                    },
                    "url": {
                        "type": "string",
                        "minLength": 3,
                        "maxLength": 100,
                        "pattern": "^http[s]?:\\/\\/(www.)?[a-z0-9-_]{2,32}(.[a-z0-9-_]{2,10}){2}.*$"
                    },
                    "description": {
                        "type": "string",
                        "minLength": 3,
                        "maxLength": 200
                    },
                    "visible": {
                        "type": "boolean"
                    }
                },
                "required": [
                    "image-url",
                    "url",
                    "description",
                    "visible"
                ],
                "additionalProperties": false
            }
        }
    },
    "required": [
        "name",
        "text",
        "visible",
        "display"
    ],
    "additionalProperties": false
}