{
    "products": [
        104,
        105,
        106,
        107,
        108,
        109,
        110,
        111,
        112,
        113,
        114,
        115,
        116,
        117,
        118,
        119,
        120,
        121,
        122,
        123,
        124,
        125,
        126,
        127
    ],
    "categories": [
        21,
        22
    ],
    "collections": [
        5,
        6,
        7,
        4
    ],
    "seo_urls": [],
    "theme_builder_configs": [],
    "blogs": []
}