<svg width="32" height="32" viewBox="0 0 32 32" fill="none" xmlns="http://www.w3.org/2000/svg">
<path d="M15.9971 31.9941C7.17494 31.9941 0 24.8192 0 15.9971C0 7.17494 7.17494 0 15.9971 0C24.8192 0 31.9941 7.17494 31.9941 15.9971C32 24.8192 24.8192 31.9941 15.9971 31.9941ZM15.9971 1.71753C8.12457 1.71753 1.71753 8.12457 1.71753 15.9971C1.71753 23.8696 8.12457 30.2766 15.9971 30.2766C23.8696 30.2766 30.2766 23.8696 30.2766 15.9971C30.2766 8.12457 23.8754 1.71753 15.9971 1.71753Z" fill="#27282B"/>
<path fill-rule="evenodd" clip-rule="evenodd" d="M13.4881 16.0732V25.3467C13.4881 25.4815 13.5937 25.5871 13.7285 25.5871H17.1694C17.3042 25.5871 17.4097 25.4815 17.4097 25.3467V15.9208H19.9069C20.03 15.9208 20.1355 15.827 20.1472 15.6981L20.3876 12.8609C20.3993 12.7202 20.2879 12.5971 20.1472 12.5971H17.4097V10.5806C17.4097 10.1058 17.7908 9.72481 18.2656 9.72481H20.1883C20.3231 9.72481 20.4286 9.61929 20.4286 9.48447V6.64732C20.4286 6.5125 20.3231 6.40698 20.1883 6.40698H16.9349C15.0298 6.40698 13.4823 7.95452 13.4823 9.85963V12.5971H11.7589C11.6241 12.5971 11.5186 12.7026 11.5186 12.8375V15.6746C11.5186 15.8094 11.6241 15.9149 11.7589 15.9149H13.4823V16.0732H13.4881Z" fill="#27282B"/>
</svg>
