<svg xmlns="http://www.w3.org/2000/svg" width="18.667" height="18.63" viewBox="0 0 18.667 18.63">
  <g id="Group_5692" data-name="Group 5692" transform="translate(-870.667 -3555.667)">
    <g id="cross" transform="translate(870.667 3555.667)">
      <g id="cross-2" data-name="cross" transform="translate(0 0)">
        <g id="Group_641" data-name="Group 641" transform="translate(0 0)">
          <path id="Path_11105" data-name="Path 11105" d="M18.667,1.683,17.585.6,9.333,8.838,1.082.6,0,1.683,8.251,9.918,0,18.153l1.082,1.08L9.333,11l8.251,8.235,1.082-1.08L10.415,9.918Z" transform="translate(0 -0.603)" fill="#071a2b"/>
        </g>
      </g>
    </g>
  </g>
</svg>
