<svg width="198" height="20" viewBox="0 0 198 20" fill="none" xmlns="http://www.w3.org/2000/svg">
<rect x="99" width="14.1421" height="14.1421" transform="rotate(45 99 0)" fill="#D6B891"/>
<rect x="123.95" y="5.70711" width="6" height="6" transform="rotate(45 123.95 5.70711)" fill="#FBF7F5" stroke="#D6B891"/>
<rect x="73.9497" y="5.70711" width="6" height="6" transform="rotate(45 73.9497 5.70711)" fill="#FBF7F5" stroke="#D6B891"/>
<line x1="59" y1="10.5" x2="-4.37114e-08" y2="10.5" stroke="#D6B891"/>
<line x1="198" y1="10.5" x2="139" y2="10.5" stroke="#D6B891"/>
</svg>
