{
    "css": [
        "css/jquery-ui.css",
        "css/bootstrap-select.min.css",
        "node_modules/@fortawesome/fontawesome-free/css/all.min.css",
        "node_modules/swiper/dist/css/swiper.min.css",
        "font/lato.css",
        "font/montserrat.css",
        "font/roboto.css",
        "node_modules/bootstrap/dist/css/bootstrap.min.css",
        "node_modules/font-awesome/css/font-awesome.min.css",
        "node_modules/owl.carousel/dist/assets/owl.carousel.min.css",
        "node_modules/owl.carousel/dist/assets/owl.theme.default.min.css",
        "css/style.css",
        "css/bestme.css"
    ],
    "js": [
        "node_modules/jquery/dist/jquery.min.js",
        "js/jquery-ui.min.js",
        "js/popper.min.js",
        "node_modules/bootstrap/dist/js/bootstrap.min.js",
        "js/bootstrap-select.min.js",
        "node_modules/owl.carousel/dist/owl.carousel.min.js",
        "node_modules/swiper/dist/js/swiper.min.js",
        "js/opencart_custom.js",
        "js/index.js",
        "js/lazysizes.min.js"
    ],
    "version": 1
}
