<svg width="24" height="21" viewBox="0 0 24 21" fill="none" xmlns="http://www.w3.org/2000/svg">
<path d="M12.2056 0.00174954C5.57906 -0.109088 0.115 5.0604 0.00178819 11.548C-0.0625162 15.2265 1.61211 18.5325 4.27848 20.7311C4.45283 20.5821 4.63985 20.4456 4.84771 20.3348L8.42838 18.4226C8.89798 18.1716 9.19052 17.6897 9.19052 17.1657V15.7292C9.19052 15.7292 8.13946 14.4985 7.73869 12.7885C7.4063 12.5779 7.1835 12.2139 7.1835 11.7993V10.2272C7.1835 9.8814 7.34064 9.57239 7.58472 9.35603V7.08341C7.58472 7.08341 7.10787 3.54679 12 3.54679C16.8921 3.54679 16.4153 7.08341 16.4153 7.08341V9.35603C16.6598 9.57239 16.8165 9.8814 16.8165 10.2272V11.7993C16.8165 12.3278 16.4542 12.7725 15.9624 12.921C15.6884 13.755 15.2931 14.5499 14.7705 15.2726C14.6387 15.4548 14.5156 15.6091 14.4078 15.7292V17.202C14.4078 17.7443 14.7207 18.2404 15.2161 18.4824L19.0504 20.3591C19.2804 20.4718 19.4883 20.6141 19.6798 20.7723C22.2656 18.6611 23.9361 15.5044 23.9982 11.9496C24.1123 5.46207 18.8326 0.112588 12.2056 0.00174954Z" fill="#CA6971"/>
</svg>
