<svg width="18" height="18" viewBox="0 0 18 18" fill="none" xmlns="http://www.w3.org/2000/svg">
<path fill-rule="evenodd" clip-rule="evenodd" d="M12.3977 7.02538C12.3977 9.99249 9.99241 12.3977 7.02538 12.3977C4.05832 12.3977 1.65303 9.99249 1.65303 7.02538C1.65303 4.05832 4.05832 1.65303 7.02538 1.65303C9.99241 1.65303 12.3977 4.05832 12.3977 7.02538ZM12.5432 11.3743C13.4873 10.1781 14.0508 8.66759 14.0508 7.02538C14.0508 3.14537 10.9054 0 7.02538 0C3.14539 0 0 3.14537 0 7.02538C0 10.9054 3.14539 14.0508 7.02538 14.0508C8.66759 14.0508 10.1782 13.4873 11.3743 12.5432L16.5891 17.7579C16.9118 18.0807 17.4352 18.0807 17.7579 17.7579C18.0807 17.4352 18.0807 16.9118 17.7579 16.5891L12.5432 11.3743Z" fill="#454545"/>
</svg>
