{
    "products": [
        146,
        145,
        144,
        143,
        142,
        141,
        140,
        139,
        138,
        137,
        136,
        135,
        134,
        133,
        132,
        147,
        148,
        149,
        150,
        151,
        152,
        153,
        154,
        155,
        156,
        157,
        158,
        159,
        160,
        161,
        162,
        163,
        164,
        165,
        166
    ],
    "categories": [
        44,
        43,
        42,
        41,
        40,
        39,
        38,
        37,
        36,
        35,
        32,
        33,
        34
    ],
    "collections": [
        7,
        6,
        5,
        12,
        4,
        9,
        10,
        11,
        13,
        14,
        15,
        16,
        17
    ],
    "seo_urls": [],
    "theme_builder_configs": [],
    "blogs": []
}