{
    "css": [
        "css/bootstrap.min.css",
        "css/owl.carousel.min.css",
        "css/owl.theme.default.min.css",
        "css/reset.css",
        "css/header.css",
        "css/footer.css",
        "css/style.css",
        "css/responsive.css",
        "css/bestme.css"
    ],
    "js": [
        "js/jquery.3.3.1.min.js",
        "js/popper.min.js",
        "js/bootstrap.min.js",
        "js/owl.carousel.min.js",
        "js/main.js",
        "js/opencart_custom.js"
    ],
    "version": 3
}
