<svg width="20" height="21" viewBox="0 0 20 21" fill="none" xmlns="http://www.w3.org/2000/svg">
<path fill-rule="evenodd" clip-rule="evenodd" d="M18.3331 0C18.7913 0 19.1833 0.157359 19.5098 0.470693C19.8363 0.784643 20 1.16221 20 1.60279V12.5002C20 12.9408 19.8363 13.3183 19.5098 13.6317C19.1833 13.9456 18.7913 14.103 18.3331 14.103H12.6666C12.6666 14.3496 12.722 14.6084 12.8333 14.8792C12.9443 15.1492 13.0554 15.3863 13.1666 15.5899C13.2777 15.7934 13.3333 15.9392 13.3333 16.0257C13.3333 16.199 13.2672 16.3498 13.1353 16.4764C13.0036 16.603 12.847 16.6667 12.6666 16.6667H7.33341C7.15298 16.6667 6.9962 16.603 6.86452 16.4764C6.73283 16.3498 6.66667 16.199 6.66667 16.0257C6.66667 15.932 6.72212 15.7855 6.83335 15.585C6.94442 15.3846 7.0555 15.151 7.16673 14.8839C7.2778 14.6169 7.33341 14.3562 7.33341 14.103H1.66687C1.20852 14.103 0.815854 13.9456 0.489352 13.6317C0.163011 13.3183 0 12.9408 0 12.5002V1.60279C0 1.16221 0.163011 0.784643 0.489352 0.470693C0.815854 0.157359 1.20852 0 1.66687 0H18.3331ZM1.94444 18.8889C1.48421 18.8889 1.11111 19.262 1.11111 19.7222C1.11111 20.1825 1.48421 20.5556 1.94444 20.5556H16.9444C17.4047 20.5556 17.7778 20.1825 17.7778 19.7222C17.7778 19.262 17.4047 18.8889 16.9444 18.8889H1.94444ZM18.8889 10.7936C18.8889 10.8798 18.855 10.954 18.7871 11.017C18.7199 11.0796 18.6391 11.1111 18.547 11.1111H1.45304C1.3601 11.1111 1.28011 11.0796 1.21225 11.017C1.14504 10.954 1.11111 10.8798 1.11111 10.7936V2.53973C1.11111 2.45358 1.14439 2.37915 1.21225 2.31614C1.28011 2.25373 1.3601 2.22222 1.45304 2.22222H18.547C18.6397 2.22222 18.7199 2.25373 18.7871 2.31614C18.855 2.37915 18.8889 2.45358 18.8889 2.53973V10.7936Z" fill="#2D9CDB"/>
</svg>
