<svg width="16" height="22" viewBox="0 0 16 22" fill="none" xmlns="http://www.w3.org/2000/svg">
<path fill-rule="evenodd" clip-rule="evenodd" d="M0.416748 8.03695C0.416748 3.84445 3.80758 0.453613 8.00008 0.453613C12.1926 0.453613 15.5834 3.84445 15.5834 8.03695C15.5834 12.5544 10.7951 18.7836 8.83425 21.1561C8.40092 21.6761 7.61008 21.6761 7.17675 21.1561C5.20508 18.7836 0.416748 12.5544 0.416748 8.03695ZM5.29175 8.03695C5.29175 9.53195 6.50508 10.7453 8.00008 10.7453C9.49508 10.7453 10.7084 9.53195 10.7084 8.03695C10.7084 6.54195 9.49508 5.32861 8.00008 5.32861C6.50508 5.32861 5.29175 6.54195 5.29175 8.03695Z" fill="#F58220"/>
</svg>
