<svg width="16" height="16" viewBox="0 0 16 16" fill="none" xmlns="http://www.w3.org/2000/svg">
<path d="M8 1.85531L9.90121 5.77762L10.0165 6.01547L10.278 6.05415L14.5475 6.68584L11.452 9.7581L11.2681 9.94058L11.3112 10.196L12.04 14.5226L8.23597 12.4863L8 12.36L7.76403 12.4863L3.96001 14.5226L4.68883 10.196L4.73186 9.94058L4.54799 9.7581L1.45246 6.68584L5.72204 6.05415L5.9835 6.01547L6.09879 5.77762L8 1.85531Z" stroke="white"/>
</svg>
