<svg width="16" height="14" viewBox="0 0 16 14" fill="none" xmlns="http://www.w3.org/2000/svg">
<path d="M11.0863 0C9.55397 0 8.2217 0.875295 7.56174 2.15206C6.90177 0.875295 5.56951 0 4.03722 0C1.85114 0 0.0721436 1.78147 0.0721436 3.97059C0.0721436 4.27324 0.114438 4.58736 0.207837 4.95707L0.30388 5.26677C1.56566 9.10854 7.05244 13.5547 7.28594 13.7409L7.56174 13.9633L7.83753 13.7409C8.08601 13.5406 13.9402 8.80148 14.8222 5.25795L14.9209 4.93324C15.0099 4.57854 15.0513 4.27236 15.0513 3.97059C15.0513 1.78147 13.2723 0 11.0863 0ZM14.0724 4.69589L13.9728 5.02236C13.26 7.88648 8.73364 11.8403 7.56174 12.825C6.43213 11.8694 2.16747 8.1159 1.14271 4.99677L1.0546 4.71795C0.986755 4.44354 0.953272 4.19912 0.953272 3.97059C0.953272 2.26765 2.33664 0.882354 4.03722 0.882354C5.7378 0.882354 7.12117 2.26853 7.12117 3.97059V4.19295H8.0023V3.97059C8.0023 2.26765 9.38567 0.882354 11.0863 0.882354C12.7868 0.882354 14.1702 2.26765 14.1702 3.97059C14.1702 4.19824 14.1367 4.4356 14.0724 4.69589Z" fill="white"/>
</svg>
