{
    "products": [
        104,
        105,
        106,
        107,
        108,
        109,
        110,
        111,
        112
    ],
    "categories": [
        21,
        22
    ],
    "collections": [
        9,
        10,
        11,
        12,
        13,
        14,
        15,
        16,
        17,
        4,
        5,
        6,
        7
    ],
    "seo_urls": [],
    "theme_builder_configs": [],
    "blogs": []
}