<svg width="16" height="15" viewBox="0 0 16 15" fill="none" xmlns="http://www.w3.org/2000/svg">
<path d="M14.125 1.12339H13.375V0H12.125V1.12339H3.875V0H2.625V1.12339H1.875C0.841125 1.12339 0 1.87933 0 2.80849V12.6944C0 13.6235 0.841125 14.3795 1.875 14.3795H14.125C15.1589 14.3795 16 13.6235 16 12.6944V2.80849C16 1.87933 15.1589 1.12339 14.125 1.12339ZM14.75 12.6944C14.75 13.0041 14.4696 13.2561 14.125 13.2561H1.875C1.53038 13.2561 1.25 13.0041 1.25 12.6944V5.27996H14.75V12.6944ZM14.75 4.15656H1.25V2.80849C1.25 2.49877 1.53038 2.24679 1.875 2.24679H2.625V3.37018H3.875V2.24679H12.125V3.37018H13.375V2.24679H14.125C14.4696 2.24679 14.75 2.49877 14.75 2.80849V4.15656Z" fill="#8B8B8B"/>
<path d="M3.625 6.45947H2.375V7.58289H3.625V6.45947Z" fill="#8B8B8B"/>
<path d="M6.125 6.45947H4.875V7.58289H6.125V6.45947Z" fill="#8B8B8B"/>
<path d="M8.625 6.45947H7.375V7.58289H8.625V6.45947Z" fill="#8B8B8B"/>
<path d="M11.125 6.45947H9.875V7.58289H11.125V6.45947Z" fill="#8B8B8B"/>
<path d="M13.625 6.45947H12.375V7.58289H13.625V6.45947Z" fill="#8B8B8B"/>
<path d="M3.625 8.7063H2.375V9.82971H3.625V8.7063Z" fill="#8B8B8B"/>
<path d="M6.125 8.7063H4.875V9.82971H6.125V8.7063Z" fill="#8B8B8B"/>
<path d="M8.625 8.7063H7.375V9.82971H8.625V8.7063Z" fill="#8B8B8B"/>
<path d="M11.125 8.7063H9.875V9.82971H11.125V8.7063Z" fill="#8B8B8B"/>
<path d="M3.625 10.9531H2.375V12.0765H3.625V10.9531Z" fill="#8B8B8B"/>
<path d="M6.125 10.9531H4.875V12.0765H6.125V10.9531Z" fill="#8B8B8B"/>
<path d="M8.625 10.9531H7.375V12.0765H8.625V10.9531Z" fill="#8B8B8B"/>
<path d="M11.125 10.9531H9.875V12.0765H11.125V10.9531Z" fill="#8B8B8B"/>
<path d="M13.625 8.7063H12.375V9.82971H13.625V8.7063Z" fill="#8B8B8B"/>
</svg>
