<svg width="24" height="15" viewBox="0 0 24 15" fill="none" xmlns="http://www.w3.org/2000/svg">
<path d="M23.8475 7.04225C23.6331 6.75464 18.5245 0 11.9999 0C5.4753 0 0.36647 6.75464 0.152297 7.04197C-0.0507658 7.31483 -0.0507658 7.6849 0.152297 7.95775C0.36647 8.24536 5.4753 15 11.9999 15C18.5245 15 23.6331 8.24531 23.8475 7.95798C24.0508 7.68517 24.0508 7.31483 23.8475 7.04225ZM11.9999 13.4483C7.19383 13.4483 3.03127 8.96509 1.79907 7.49947C3.02968 6.03256 7.18352 1.55172 11.9999 1.55172C16.8057 1.55172 20.968 6.03412 22.2007 7.50053C20.9701 8.96739 16.8163 13.4483 11.9999 13.4483Z" fill="#707070"/>
<path d="M12 2.84473C9.38236 2.84473 7.25269 4.93309 7.25269 7.49992C7.25269 10.0667 9.38236 12.1551 12 12.1551C14.6176 12.1551 16.7472 10.0667 16.7472 7.49992C16.7472 4.93309 14.6176 2.84473 12 2.84473ZM12 10.6034C10.2548 10.6034 8.83514 9.21118 8.83514 7.49992C8.83514 5.78866 10.2548 4.39649 12 4.39649C13.7451 4.39649 15.1648 5.78866 15.1648 7.49992C15.1648 9.21118 13.7451 10.6034 12 10.6034Z" fill="#707070"/>
</svg>
