<svg width="16" height="22" viewBox="0 0 16 22" fill="none" xmlns="http://www.w3.org/2000/svg">
<path d="M4.56002 14.341H14.0467C15.1225 14.341 16 13.2309 16 11.8701V6.82066C16 6.81619 16 6.80723 16 6.80276C16 6.78933 16 6.78038 16 6.76695C16 6.75799 16 6.74904 15.9965 6.74009C15.9965 6.73113 15.9929 6.71771 15.9929 6.70875C15.9929 6.6998 15.9894 6.69085 15.9894 6.68189C15.9858 6.67294 15.9858 6.66399 15.9823 6.65056C15.9788 6.64161 15.9788 6.63265 15.9752 6.6237C15.9717 6.61475 15.9717 6.60579 15.9682 6.59684C15.9646 6.58789 15.9611 6.57894 15.9575 6.56551C15.954 6.55655 15.9505 6.5476 15.9469 6.54313C15.9434 6.53417 15.9398 6.52522 15.9363 6.51627C15.9328 6.50731 15.9292 6.50284 15.9257 6.49388C15.9222 6.48493 15.9151 6.47598 15.9115 6.46703C15.908 6.45807 15.9045 6.4536 15.8974 6.44464C15.8938 6.43569 15.8868 6.43121 15.8832 6.42226C15.8797 6.41331 15.8726 6.40883 15.8691 6.39988C15.8655 6.39093 15.8585 6.38645 15.8549 6.38197C15.8478 6.37302 15.8443 6.36854 15.8372 6.35959C15.8302 6.35512 15.8266 6.34616 15.8195 6.34169C15.8125 6.33721 15.8054 6.32826 15.7983 6.32378C15.7912 6.3193 15.7877 6.31483 15.7806 6.31035C15.7735 6.30587 15.7665 6.3014 15.7594 6.29245C15.7523 6.28797 15.7452 6.28349 15.7382 6.27902C15.7311 6.27454 15.724 6.27006 15.7169 6.26559C15.7098 6.26111 15.7028 6.25663 15.6957 6.25216C15.6886 6.24768 15.6815 6.24768 15.6745 6.2432C15.6674 6.23873 15.6568 6.23425 15.6497 6.23425C15.6426 6.23425 15.6355 6.22978 15.632 6.22978C15.6214 6.2253 15.6143 6.2253 15.6037 6.2253C15.6001 6.2253 15.5966 6.22082 15.5895 6.22082L3.5657 4.12138V1.99956C3.5657 1.97718 3.5657 1.9548 3.56217 1.93689C3.56217 1.93241 3.56217 1.92794 3.55863 1.91898C3.55863 1.90556 3.55509 1.89213 3.55509 1.8787C3.55155 1.86527 3.55155 1.85631 3.54801 1.84289C3.54801 1.83393 3.54447 1.82946 3.54447 1.8205C3.54093 1.80707 3.5374 1.79364 3.53386 1.78022C3.53386 1.77574 3.53032 1.76679 3.53032 1.76231C3.52678 1.74888 3.52324 1.73993 3.51617 1.7265C3.51263 1.72202 3.51263 1.71307 3.50909 1.70859C3.50555 1.69964 3.50201 1.69069 3.49493 1.68173C3.4914 1.67278 3.48786 1.66831 3.48432 1.65935C3.48078 1.6504 3.47724 1.64592 3.4737 1.63697C3.47016 1.62802 3.46309 1.61906 3.45955 1.61011C3.45601 1.60564 3.45247 1.60116 3.44893 1.59668C3.44186 1.58773 3.43478 1.57878 3.4277 1.56982C3.42416 1.56535 3.42063 1.56087 3.41709 1.55639C3.41001 1.54744 3.40293 1.53849 3.39232 1.52954C3.38878 1.52506 3.3817 1.52058 3.37816 1.51611C3.37109 1.50715 3.36401 1.50268 3.35693 1.49372C3.34632 1.48477 3.3357 1.47582 3.32862 1.47134C3.32509 1.46687 3.32155 1.46687 3.31801 1.46239C3.30386 1.45344 3.28616 1.44448 3.27201 1.43553L0.664133 0.0478417C0.419976 -0.0819744 0.140434 0.061271 0.0378177 0.370144C-0.0647988 0.679017 0.0484333 1.03265 0.29259 1.16247L2.60677 2.39796V5.13753V5.57174V8.9022V11.879V15.6392C2.60677 16.8926 3.34986 17.9311 4.30879 18.0878C4.1354 18.4549 4.03279 18.8846 4.03279 19.3412C4.03279 20.6886 4.89972 21.7809 5.96127 21.7809C7.02282 21.7809 7.88975 20.6841 7.88975 19.3412C7.88975 18.8936 7.79421 18.4683 7.62437 18.1102H11.9201C11.7503 18.4728 11.6547 18.8936 11.6547 19.3412C11.6547 20.6886 12.5217 21.7809 13.5832 21.7809C14.6448 21.7809 15.5117 20.6841 15.5117 19.3412C15.5117 17.9983 14.6448 16.9016 13.5832 16.9016H4.56002C4.00802 16.9016 3.56217 16.3331 3.56217 15.6392V14.0008C3.85232 14.2157 4.19556 14.341 4.56002 14.341ZM6.9379 19.3367C6.9379 20.0171 6.49912 20.5677 5.96481 20.5677C5.43049 20.5677 4.99172 20.0127 4.99172 19.3367C4.99172 18.6608 5.43049 18.1057 5.96481 18.1057C6.49912 18.1057 6.9379 18.6563 6.9379 19.3367ZM14.5598 19.3367C14.5598 20.0171 14.1211 20.5677 13.5867 20.5677C13.0524 20.5677 12.6137 20.0127 12.6137 19.3367C12.6137 18.6608 13.0524 18.1057 13.5867 18.1057C14.1211 18.1057 14.5598 18.6563 14.5598 19.3367ZM14.0467 13.1324H4.56002C4.00802 13.1324 3.56217 12.5639 3.56217 11.8701V8.89324V5.56279V5.33897L15.0446 7.33993V11.8656C15.0446 12.5684 14.5952 13.1324 14.0467 13.1324Z" fill="#FF9731"/>
</svg>
