{
    "config_theme_color": {
        "main": {
            "main": {
                "hex": "#81BE16",
                "visible": 1
            },
            "button": {
                "hex": "#F7941E",
                "visible": 1
            }
        }
    },
    "config_theme_text": {
        "all": {
            "title": "Font Roboto",
            "font": "Roboto",
            "supported-fonts": [
                "Open Sans",
                "IBM Plex Sans",
                "Courier New",
                "Roboto",
                "Nunito",
                "Arial",
                "DejaVu Sans",
                "Tahoma",
                "Time News Roman"
            ]
        }
    },
    "image_size_suggestion": {
        "favicon": [
            35,
            35
        ],
        "logo": [
            70,
            70
        ],
        "home": {
            "banner_1": [
                350,
                750
            ],
            "banner_2": [
                350,
                750
            ],
            "slide_show": [
                1110,
                420
            ]
        },
        "category": {
        }
    },

    "app_config_theme":  [
        {
            "name" : "Trang chủ",
            "value" : "home_page",
            "position": [
                {
                    "name": "Đầu trang",
                    "value": "bestme_app_after_header"
                },
                {
                    "name": "Dưới slide",
                    "value": "bestme_app_after_slide"
                },
                {
                    "name": "Dưới danh sách sản phẩm",
                    "value": "bestme_app_after_product"
                },
                {
                    "name": "Trên cuối trang",
                    "value": "bestme_app_before_footer"
                }

            ]
        },
        {
            "name" : "Sản phẩm",
            "value" : "product",
            "position": [
                {
                    "name": "Đầu trang",
                    "value": "bestme_app_after_header"
                },
                {
                    "name": "Dưới danh sách sản phẩm",
                    "value": "bestme_app_after_product"
                },
                {
                    "name": "Trên cuối trang",
                    "value": "bestme_app_before_footer"
                }

            ]
        }
    ]
}