<svg width="16" height="15" viewBox="0 0 16 15" fill="none" xmlns="http://www.w3.org/2000/svg">
<path d="M7.72758 0.5906C7.83481 0.358138 8.16519 0.358138 8.27242 0.590599L10.1868 4.74089C10.2305 4.83563 10.3202 4.90086 10.4239 4.91315L14.9626 5.45128C15.2168 5.48143 15.3189 5.79564 15.1309 5.96945L11.7753 9.07261C11.6987 9.14345 11.6644 9.249 11.6848 9.35133L12.5755 13.8342C12.6254 14.0853 12.3581 14.2795 12.1347 14.1545L8.14653 11.922C8.05549 11.8711 7.94451 11.8711 7.85347 11.922L3.86525 14.1545C3.64187 14.2795 3.37458 14.0853 3.42447 13.8342L4.31522 9.35133C4.33555 9.249 4.30125 9.14345 4.22465 9.07261L0.86906 5.96945C0.68111 5.79564 0.783205 5.48143 1.03742 5.45129L5.57615 4.91315C5.67975 4.90086 5.76954 4.83563 5.81324 4.74089L7.72758 0.5906Z" fill="#F9BA48"/>
</svg>
