{
    "products": [
        52,
        151,
        150,
        149,
        148,
        147,
        146,
        145,
        144,
        143,
        142,
        141,
        140,
        139,
        138,
        137,
        136,
        135,
        132,
        134,
        133,
        153,
        154,
        155,
        156,
        157,
        158,
        159,
        160,
        161,
        162,
        163,
        164
    ],
    "categories": [
        38,
        37,
        36,
        35,
        32,
        33,
        34
    ],
    "collections": [
        18,
        19,
        20,
        21,
        22,
        23,
        24,
        33,
        34
    ],
    "seo_urls": [],
    "theme_builder_configs": [],
    "blogs": []
}