<svg width="15" height="15" viewBox="0 0 15 15" fill="none" xmlns="http://www.w3.org/2000/svg">
<rect width="15" height="15" fill="white"/>
<path d="M15 5.29413V6.17648H0V5.29413H15ZM0 8.82354H15V7.94119H0V8.82354Z" fill="#5C5E60"/>
</svg>
