<svg width="15" height="15" viewBox="0 0 15 15" fill="none" xmlns="http://www.w3.org/2000/svg">
<rect width="15" height="15" fill="white"/>
<path d="M11.0294 0.580566C9.495 0.580566 8.16088 1.45586 7.5 2.73263C6.83912 1.45586 5.505 0.580566 3.97059 0.580566C1.78147 0.580566 0 2.36204 0 4.55115C0 4.8538 0.0423529 5.16792 0.135882 5.53763L0.232059 5.84733C1.49559 9.6891 6.99 14.1353 7.22382 14.3214L7.5 14.5438L7.77618 14.3214C8.025 14.1212 13.8874 9.38204 14.7706 5.83851L14.8694 5.5138C14.9585 5.1591 15 4.85292 15 4.55115C15 2.36204 13.2185 0.580566 11.0294 0.580566ZM14.0197 5.27645L13.92 5.60292C13.2062 8.46704 8.67353 12.4209 7.5 13.4056C6.36882 12.45 2.09824 8.69645 1.07206 5.57733L0.983824 5.29851C0.915882 5.0241 0.882353 4.77968 0.882353 4.55115C0.882353 2.84821 2.26765 1.46292 3.97059 1.46292C5.67353 1.46292 7.05882 2.8491 7.05882 4.55115V4.77351H7.94118V4.55115C7.94118 2.84821 9.32647 1.46292 11.0294 1.46292C12.7324 1.46292 14.1176 2.84821 14.1176 4.55115C14.1176 4.7788 14.0841 5.01615 14.0197 5.27645Z" fill="#5C5E60"/>
</svg>
