<svg width="19" height="19" viewBox="0 0 19 19" fill="none" xmlns="http://www.w3.org/2000/svg">
<g opacity="0.5">
<path d="M2 4.93983V1H17.238V4.88809" stroke="black" stroke-width="2"/>
<path d="M2 14.0001V17.9399H17.238V14.0519" stroke="black" stroke-width="2"/>
<path fill-rule="evenodd" clip-rule="evenodd" d="M14.7348 12.6696L18.7348 9.44992L14.7348 6.23022V7.99961H12V10.4996H14.7348V12.6696Z" fill="black"/>
<path fill-rule="evenodd" clip-rule="evenodd" d="M4.51515 12.6696L0.515152 9.44992L4.51515 6.23022V7.99961H7.25V10.4996H4.51515V12.6696Z" fill="black"/>
</g>
</svg>
