{
    "css": [
        "css/bootstrap.min.css",
        "css/awesome.css",
        "css/animate.css",
        "css/owl.carousel.min.css",
        "css/owl.theme.default.min.css",
        "font/montserrat.css",
        "font/roboto.css",
        "css/reset.css",
        "css/header.css",
        "css/footer.css",
        "css/style.css",
        "css/responsive.css",
        "css/bestme.css"
    ],
    "js": [
        "js/jquery.3.3.1.min.js",
        "js/popper.min.js",
        "js/bootstrap.min.js",
        "js/owl.carousel.min.js",
        "js/jquery.number.min.js",
        "js/jquery.ez-plus.js",
        "js/jquery-ui.js",
        "js/opencart_custom.js",
        "js/main.js",
        "js/lazysizes.min.js"
    ],
    "version": 1
}
