{
    "products": [
        151,
        150,
        149,
        148,
        147,
        146,
        145,
        144,
        143,
        142,
        141,
        140,
        139,
        138,
        137,
        136,
        135,
        134,
        133,
        132
    ],
    "categories": [
        40,
        39,
        38,
        37,
        34,
        33,
        32,
        35,
        36,
        41,
        42,
        43,
        44,
        45,
        46,
        47,
        48,
        49,
        50,
        51,
        52,
        53,
        54,
        55,
        56,
        57,
        58,
        59,
        60,
        61,
        62,
        63,
        64,
        65,
        66,
        67,
        68,
        69,
        70,
        71,
        72,
        73,
        74,
        75,
        77,
        76,
        78,
        79,
        80
    ],
    "collections": [
        11,
        10,
        9
    ],
    "seo_urls": [],
    "theme_builder_configs": [],
    "blogs": []
}