<svg width="24" height="24" viewBox="0 0 24 24" fill="none" xmlns="http://www.w3.org/2000/svg">
<path d="M0.9375 0.9375H3.9375V15.9375H22.6875" stroke="#969696" stroke-miterlimit="10" stroke-linecap="square"/>
<path d="M5.4375 23.4375C6.68014 23.4375 7.6875 22.4301 7.6875 21.1875C7.6875 19.9449 6.68014 18.9375 5.4375 18.9375C4.19486 18.9375 3.1875 19.9449 3.1875 21.1875C3.1875 22.4301 4.19486 23.4375 5.4375 23.4375Z" stroke="#969696" stroke-miterlimit="10" stroke-linecap="square"/>
<path d="M21.1875 23.4375C22.4301 23.4375 23.4375 22.4301 23.4375 21.1875C23.4375 19.9449 22.4301 18.9375 21.1875 18.9375C19.9449 18.9375 18.9375 19.9449 18.9375 21.1875C18.9375 22.4301 19.9449 23.4375 21.1875 23.4375Z" stroke="#969696" stroke-miterlimit="10" stroke-linecap="square"/>
<path d="M3.9375 3.9375H21.1875L18.9375 12.9375H3.9375" stroke="#969696" stroke-miterlimit="10" stroke-linecap="square"/>
</svg>
