<svg width="16" height="17" viewBox="0 0 16 17" fill="none" xmlns="http://www.w3.org/2000/svg">
<path d="M10.4022 8.57143C10.4022 9.98772 9.24706 11.1429 7.83077 11.1429C6.41447 11.1429 5.25934 9.98772 5.25934 8.57143C5.25934 7.15513 6.41447 6 7.83077 6C9.24706 6 10.4022 7.15513 10.4022 8.57143ZM11.7884 8.57143C11.7884 6.3817 10.0205 4.61384 7.83077 4.61384C5.64104 4.61384 3.87318 6.3817 3.87318 8.57143C3.87318 10.7612 5.64104 12.529 7.83077 12.529C10.0205 12.529 11.7884 10.7612 11.7884 8.57143ZM12.8732 4.45312C12.8732 3.94085 12.4613 3.52902 11.9491 3.52902C11.4368 3.52902 11.025 3.94085 11.025 4.45312C11.025 4.9654 11.4368 5.37723 11.9491 5.37723C12.4613 5.37723 12.8732 4.9654 12.8732 4.45312ZM7.83077 2.2433C8.95577 2.2433 11.3665 2.1529 12.381 2.55469C12.7326 2.69531 12.9937 2.86607 13.2649 3.13728C13.5361 3.40848 13.7069 3.66964 13.8475 4.0212C14.2493 5.03571 14.1589 7.44643 14.1589 8.57143C14.1589 9.69643 14.2493 12.1071 13.8475 13.1217C13.7069 13.4732 13.5361 13.7344 13.2649 14.0056C12.9937 14.2768 12.7326 14.4475 12.381 14.5882C11.3665 14.99 8.95577 14.8996 7.83077 14.8996C6.70577 14.8996 4.29505 14.99 3.28054 14.5882C2.92898 14.4475 2.66782 14.2768 2.39662 14.0056C2.12541 13.7344 1.95465 13.4732 1.81403 13.1217C1.41224 12.1071 1.50264 9.69643 1.50264 8.57143C1.50264 7.44643 1.41224 5.03571 1.81403 4.0212C1.95465 3.66964 2.12541 3.40848 2.39662 3.13728C2.66782 2.86607 2.92898 2.69531 3.28054 2.55469C4.29505 2.1529 6.70577 2.2433 7.83077 2.2433ZM15.5451 8.57143C15.5451 7.5067 15.5551 6.45201 15.4948 5.38728C15.4346 4.15179 15.1533 3.05692 14.2493 2.1529C13.3453 1.24888 12.2504 0.967633 11.0149 0.907366C9.95019 0.847098 8.8955 0.857142 7.83077 0.857142C6.76604 0.857142 5.71135 0.847098 4.64662 0.907366C3.41112 0.967633 2.31626 1.24888 1.41224 2.1529C0.508223 3.05692 0.226973 4.15179 0.166705 5.38728C0.106437 6.45201 0.116482 7.5067 0.116482 8.57143C0.116482 9.63616 0.106437 10.6908 0.166705 11.7556C0.226973 12.9911 0.508223 14.0859 1.41224 14.99C2.31626 15.894 3.41112 16.1752 4.64662 16.2355C5.71135 16.2958 6.76604 16.2857 7.83077 16.2857C8.8955 16.2857 9.95019 16.2958 11.0149 16.2355C12.2504 16.1752 13.3453 15.894 14.2493 14.99C15.1533 14.0859 15.4346 12.9911 15.4948 11.7556C15.5551 10.6908 15.5451 9.63616 15.5451 8.57143Z" fill="#FBF7F5"/>
</svg>
