<svg width="13" height="12" viewBox="0 0 13 12" fill="none" xmlns="http://www.w3.org/2000/svg">
<path d="M6.5 1.12978L7.96193 4.09198L8.07827 4.3277L8.3384 4.3655L11.6074 4.84051L9.24193 7.14626L9.05369 7.32975L9.09813 7.58883L9.65654 10.8446L6.73267 9.30743L6.5 9.18511L6.26733 9.30743L3.34346 10.8446L3.90187 7.58883L3.94631 7.32975L3.75807 7.14626L1.39261 4.84051L4.6616 4.3655L4.92173 4.3277L5.03807 4.09198L6.5 1.12978Z" fill="#FBF7F5" stroke="#F3B09C"/>
</svg>
