<svg width="32" height="32" viewBox="0 0 32 32" fill="none" xmlns="http://www.w3.org/2000/svg">
<path d="M26.277 12.937C26.736 14.208 27 15.572 27 17C27 23.617 21.617 29 15 29C8.383 29 3 23.617 3 17C3 10.383 8.383 5 15 5C17.639 5 20.074 5.867 22.058 7.316L23.612 5.984C21.233 4.122 18.248 3 15 3C7.28 3 1 9.28 1 17C1 24.72 7.28 31 15 31C22.72 31 29 24.72 29 17C29 14.981 28.562 13.065 27.789 11.33L26.277 12.937Z" fill="#3FCC5E"/>
<path d="M29 4L15 16L9 11L7 13L15 22L31 5L29 4Z" fill="#3FCC5E"/>
</svg>
